%TF.GenerationSoftware,KiCad,Pcbnew,7.0.7*%
%TF.CreationDate,2024-03-05T16:07:02-06:00*%
%TF.ProjectId,Senior_Design_MCU_Board,53656e69-6f72-45f4-9465-7369676e5f4d,rev?*%
%TF.SameCoordinates,Original*%
%TF.FileFunction,Paste,Top*%
%TF.FilePolarity,Positive*%
%FSLAX46Y46*%
G04 Gerber Fmt 4.6, Leading zero omitted, Abs format (unit mm)*
G04 Created by KiCad (PCBNEW 7.0.7) date 2024-03-05 16:07:02*
%MOMM*%
%LPD*%
G01*
G04 APERTURE LIST*
G04 Aperture macros list*
%AMRoundRect*
0 Rectangle with rounded corners*
0 $1 Rounding radius*
0 $2 $3 $4 $5 $6 $7 $8 $9 X,Y pos of 4 corners*
0 Add a 4 corners polygon primitive as box body*
4,1,4,$2,$3,$4,$5,$6,$7,$8,$9,$2,$3,0*
0 Add four circle primitives for the rounded corners*
1,1,$1+$1,$2,$3*
1,1,$1+$1,$4,$5*
1,1,$1+$1,$6,$7*
1,1,$1+$1,$8,$9*
0 Add four rect primitives between the rounded corners*
20,1,$1+$1,$2,$3,$4,$5,0*
20,1,$1+$1,$4,$5,$6,$7,0*
20,1,$1+$1,$6,$7,$8,$9,0*
20,1,$1+$1,$8,$9,$2,$3,0*%
G04 Aperture macros list end*
%ADD10RoundRect,0.250000X0.450000X-0.262500X0.450000X0.262500X-0.450000X0.262500X-0.450000X-0.262500X0*%
%ADD11RoundRect,0.250000X0.475000X-0.250000X0.475000X0.250000X-0.475000X0.250000X-0.475000X-0.250000X0*%
%ADD12R,1.200000X0.400000*%
%ADD13RoundRect,0.250000X-0.850000X-0.350000X0.850000X-0.350000X0.850000X0.350000X-0.850000X0.350000X0*%
%ADD14RoundRect,0.250000X-1.275000X-1.125000X1.275000X-1.125000X1.275000X1.125000X-1.275000X1.125000X0*%
%ADD15RoundRect,0.250000X-0.250000X-0.475000X0.250000X-0.475000X0.250000X0.475000X-0.250000X0.475000X0*%
%ADD16RoundRect,0.250000X-0.262500X-0.450000X0.262500X-0.450000X0.262500X0.450000X-0.262500X0.450000X0*%
%ADD17RoundRect,0.243750X0.456250X-0.243750X0.456250X0.243750X-0.456250X0.243750X-0.456250X-0.243750X0*%
%ADD18RoundRect,0.250000X0.262500X0.450000X-0.262500X0.450000X-0.262500X-0.450000X0.262500X-0.450000X0*%
%ADD19R,0.500000X2.500000*%
%ADD20R,2.000000X2.500000*%
%ADD21RoundRect,0.243750X-0.456250X0.243750X-0.456250X-0.243750X0.456250X-0.243750X0.456250X0.243750X0*%
%ADD22RoundRect,0.150000X-0.587500X-0.150000X0.587500X-0.150000X0.587500X0.150000X-0.587500X0.150000X0*%
%ADD23RoundRect,0.250000X-0.475000X0.250000X-0.475000X-0.250000X0.475000X-0.250000X0.475000X0.250000X0*%
%ADD24RoundRect,0.250000X-0.450000X0.262500X-0.450000X-0.262500X0.450000X-0.262500X0.450000X0.262500X0*%
%ADD25RoundRect,0.250000X1.500000X0.550000X-1.500000X0.550000X-1.500000X-0.550000X1.500000X-0.550000X0*%
%ADD26R,1.500000X0.900000*%
%ADD27R,0.900000X1.500000*%
%ADD28R,0.900000X0.900000*%
%ADD29R,2.000000X1.000000*%
%ADD30R,1.630000X0.430000*%
G04 APERTURE END LIST*
D10*
%TO.C,R3*%
X141986000Y-105052500D03*
X141986000Y-103227500D03*
%TD*%
D11*
%TO.C,C12*%
X141732000Y-69022000D03*
X141732000Y-67122000D03*
%TD*%
D12*
%TO.C,U1*%
X138116000Y-91122500D03*
X138116000Y-91757500D03*
X138116000Y-92392500D03*
X138116000Y-93027500D03*
X138116000Y-93662500D03*
X138116000Y-94297500D03*
X138116000Y-94932500D03*
X138116000Y-95567500D03*
X138116000Y-96202500D03*
X138116000Y-96837500D03*
X143316000Y-96837500D03*
X143316000Y-96202500D03*
X143316000Y-95567500D03*
X143316000Y-94932500D03*
X143316000Y-94297500D03*
X143316000Y-93662500D03*
X143316000Y-93027500D03*
X143316000Y-92392500D03*
X143316000Y-91757500D03*
X143316000Y-91122500D03*
%TD*%
D13*
%TO.C,U2*%
X125086000Y-95500000D03*
D14*
X129711000Y-96255000D03*
X129711000Y-99305000D03*
X133061000Y-96255000D03*
X133061000Y-99305000D03*
D13*
X125086000Y-100060000D03*
%TD*%
D15*
%TO.C,C17*%
X167706000Y-67056000D03*
X169606000Y-67056000D03*
%TD*%
D16*
%TO.C,R6*%
X138279500Y-99822000D03*
X140104500Y-99822000D03*
%TD*%
D17*
%TO.C,D1*%
X145288000Y-91869500D03*
X145288000Y-89994500D03*
%TD*%
D18*
%TO.C,R5*%
X145438500Y-88138000D03*
X143613500Y-88138000D03*
%TD*%
D11*
%TO.C,C4*%
X145288000Y-95438000D03*
X145288000Y-93538000D03*
%TD*%
%TO.C,C5*%
X136144000Y-89596000D03*
X136144000Y-87696000D03*
%TD*%
D15*
%TO.C,C6*%
X132146000Y-92710000D03*
X134046000Y-92710000D03*
%TD*%
D19*
%TO.C,J1*%
X137846000Y-108144000D03*
X138646000Y-108144000D03*
X139446000Y-108144000D03*
X140246000Y-108144000D03*
X141046000Y-108144000D03*
D20*
X135046000Y-108144000D03*
X135046000Y-113644000D03*
X143846000Y-108144000D03*
X143846000Y-113644000D03*
%TD*%
D10*
%TO.C,R4*%
X139192000Y-105052500D03*
X139192000Y-103227500D03*
%TD*%
D11*
%TO.C,C18*%
X134112000Y-89596000D03*
X134112000Y-87696000D03*
%TD*%
D21*
%TO.C,D3*%
X131826000Y-112600500D03*
X131826000Y-114475500D03*
%TD*%
D11*
%TO.C,C14*%
X136652000Y-69022000D03*
X136652000Y-67122000D03*
%TD*%
D22*
%TO.C,Q2*%
X135079500Y-81948420D03*
X135079500Y-83848420D03*
X136954500Y-82898420D03*
%TD*%
%TO.C,Q1*%
X135019500Y-78414920D03*
X135019500Y-80314920D03*
X136894500Y-79364920D03*
%TD*%
D23*
%TO.C,C8*%
X132080000Y-102428000D03*
X132080000Y-104328000D03*
%TD*%
%TO.C,C7*%
X139065000Y-80678420D03*
X139065000Y-82578420D03*
%TD*%
D11*
%TO.C,C1*%
X146050000Y-105090000D03*
X146050000Y-103190000D03*
%TD*%
D24*
%TO.C,R2*%
X132969000Y-78407420D03*
X132969000Y-80232420D03*
%TD*%
D25*
%TO.C,C11*%
X129038000Y-104902000D03*
X123438000Y-104902000D03*
%TD*%
D10*
%TO.C,R1*%
X132969000Y-83810920D03*
X132969000Y-81985920D03*
%TD*%
D26*
%TO.C,U3*%
X146869000Y-66161000D03*
X146869000Y-67431000D03*
X146869000Y-68701000D03*
X146869000Y-69971000D03*
X146869000Y-71241000D03*
X146869000Y-72511000D03*
X146869000Y-73781000D03*
X146869000Y-75051000D03*
X146869000Y-76321000D03*
X146869000Y-77591000D03*
X146869000Y-78861000D03*
X146869000Y-80131000D03*
X146869000Y-81401000D03*
X146869000Y-82671000D03*
D27*
X149904000Y-83921000D03*
X151174000Y-83921000D03*
X152444000Y-83921000D03*
X153714000Y-83921000D03*
X154984000Y-83921000D03*
X156254000Y-83921000D03*
X157524000Y-83921000D03*
X158794000Y-83921000D03*
X160064000Y-83921000D03*
X161334000Y-83921000D03*
D26*
X164369000Y-82671000D03*
X164369000Y-81401000D03*
X164369000Y-80131000D03*
X164369000Y-78861000D03*
X164369000Y-77591000D03*
X164369000Y-76321000D03*
X164369000Y-75051000D03*
X164369000Y-73781000D03*
X164369000Y-72511000D03*
X164369000Y-71241000D03*
X164369000Y-69971000D03*
X164369000Y-68701000D03*
X164369000Y-67431000D03*
X164369000Y-66161000D03*
D28*
X152719000Y-72101000D03*
X152719000Y-73501000D03*
X152719000Y-74901000D03*
X154119000Y-72101000D03*
X154119000Y-73501000D03*
X154119000Y-74901000D03*
X155519000Y-72101000D03*
X155519000Y-73501000D03*
X155519000Y-74901000D03*
%TD*%
D11*
%TO.C,C2*%
X135128000Y-105344000D03*
X135128000Y-103444000D03*
%TD*%
D10*
%TO.C,R8*%
X129540000Y-114450500D03*
X129540000Y-112625500D03*
%TD*%
D29*
%TO.C,SW1*%
X134414000Y-73406000D03*
X140414000Y-73406000D03*
%TD*%
D11*
%TO.C,C13*%
X132080000Y-89596000D03*
X132080000Y-87696000D03*
%TD*%
D10*
%TO.C,R7*%
X139192000Y-68984500D03*
X139192000Y-67159500D03*
%TD*%
D30*
%TO.C,U4*%
X176014000Y-81086000D03*
X176014000Y-80436000D03*
X176014000Y-79786000D03*
X176014000Y-79136000D03*
X176014000Y-78486000D03*
X176014000Y-77836000D03*
X176014000Y-77186000D03*
X176014000Y-76536000D03*
X176014000Y-75886000D03*
X176014000Y-75236000D03*
X169164000Y-75236000D03*
X169164000Y-75886000D03*
X169164000Y-76536000D03*
X169164000Y-77186000D03*
X169164000Y-77836000D03*
X169164000Y-78486000D03*
X169164000Y-79136000D03*
X169164000Y-79786000D03*
X169164000Y-80436000D03*
X169164000Y-81086000D03*
%TD*%
D11*
%TO.C,C3*%
X134112000Y-69022000D03*
X134112000Y-67122000D03*
%TD*%
D21*
%TO.C,D2*%
X136144000Y-98122500D03*
X136144000Y-99997500D03*
%TD*%
M02*
