%TF.GenerationSoftware,KiCad,Pcbnew,7.0.7*%
%TF.CreationDate,2024-02-16T12:20:09-06:00*%
%TF.ProjectId,LED Array,4c454420-4172-4726-9179-2e6b69636164,rev?*%
%TF.SameCoordinates,Original*%
%TF.FileFunction,Paste,Top*%
%TF.FilePolarity,Positive*%
%FSLAX46Y46*%
G04 Gerber Fmt 4.6, Leading zero omitted, Abs format (unit mm)*
G04 Created by KiCad (PCBNEW 7.0.7) date 2024-02-16 12:20:09*
%MOMM*%
%LPD*%
G01*
G04 APERTURE LIST*
G04 Aperture macros list*
%AMRoundRect*
0 Rectangle with rounded corners*
0 $1 Rounding radius*
0 $2 $3 $4 $5 $6 $7 $8 $9 X,Y pos of 4 corners*
0 Add a 4 corners polygon primitive as box body*
4,1,4,$2,$3,$4,$5,$6,$7,$8,$9,$2,$3,0*
0 Add four circle primitives for the rounded corners*
1,1,$1+$1,$2,$3*
1,1,$1+$1,$4,$5*
1,1,$1+$1,$6,$7*
1,1,$1+$1,$8,$9*
0 Add four rect primitives between the rounded corners*
20,1,$1+$1,$2,$3,$4,$5,0*
20,1,$1+$1,$4,$5,$6,$7,0*
20,1,$1+$1,$6,$7,$8,$9,0*
20,1,$1+$1,$8,$9,$2,$3,0*%
G04 Aperture macros list end*
%ADD10RoundRect,0.250000X0.450000X-0.262500X0.450000X0.262500X-0.450000X0.262500X-0.450000X-0.262500X0*%
%ADD11RoundRect,0.275000X0.350000X0.275000X-0.350000X0.275000X-0.350000X-0.275000X0.350000X-0.275000X0*%
%ADD12RoundRect,0.275000X-0.275000X0.350000X-0.275000X-0.350000X0.275000X-0.350000X0.275000X0.350000X0*%
%ADD13RoundRect,0.112500X-0.162500X-0.112500X0.162500X-0.112500X0.162500X0.112500X-0.162500X0.112500X0*%
%ADD14RoundRect,0.275000X0.275000X-0.350000X0.275000X0.350000X-0.275000X0.350000X-0.275000X-0.350000X0*%
%ADD15RoundRect,0.275000X-0.350000X-0.275000X0.350000X-0.275000X0.350000X0.275000X-0.350000X0.275000X0*%
%ADD16RoundRect,0.250000X-0.262500X-0.450000X0.262500X-0.450000X0.262500X0.450000X-0.262500X0.450000X0*%
%ADD17RoundRect,0.250000X-0.450000X0.262500X-0.450000X-0.262500X0.450000X-0.262500X0.450000X0.262500X0*%
%ADD18RoundRect,0.250000X0.262500X0.450000X-0.262500X0.450000X-0.262500X-0.450000X0.262500X-0.450000X0*%
%ADD19RoundRect,0.150000X-0.825000X-0.150000X0.825000X-0.150000X0.825000X0.150000X-0.825000X0.150000X0*%
%ADD20RoundRect,0.150000X0.875000X0.150000X-0.875000X0.150000X-0.875000X-0.150000X0.875000X-0.150000X0*%
G04 APERTURE END LIST*
D10*
%TO.C,R24*%
X607060236Y-476654500D03*
X607060236Y-474829500D03*
%TD*%
D11*
%TO.C,D91*%
X621697236Y-506095000D03*
X619347236Y-506095000D03*
%TD*%
D12*
%TO.C,D84*%
X684530236Y-446754000D03*
X684530236Y-449104000D03*
%TD*%
D13*
%TO.C,U33*%
X539369236Y-434787000D03*
X539369236Y-435737000D03*
X539369236Y-436687000D03*
X541919236Y-436687000D03*
X541919236Y-434787000D03*
%TD*%
D14*
%TO.C,D98*%
X580390236Y-425101000D03*
X580390236Y-422751000D03*
%TD*%
D10*
%TO.C,R27*%
X657860236Y-476654500D03*
X657860236Y-474829500D03*
%TD*%
D14*
%TO.C,D107*%
X570103236Y-318802000D03*
X570103236Y-316452000D03*
%TD*%
D12*
%TO.C,D73*%
X694690236Y-356457000D03*
X694690236Y-358807000D03*
%TD*%
D15*
%TO.C,D69*%
X659479236Y-267462000D03*
X661829236Y-267462000D03*
%TD*%
%TO.C,D94*%
X651224236Y-506222000D03*
X653574236Y-506222000D03*
%TD*%
D12*
%TO.C,D81*%
X694436236Y-470757000D03*
X694436236Y-473107000D03*
%TD*%
D14*
%TO.C,D13*%
X607060236Y-528892000D03*
X607060236Y-526542000D03*
%TD*%
D15*
%TO.C,D72*%
X635349236Y-277622000D03*
X637699236Y-277622000D03*
%TD*%
D16*
%TO.C,R16*%
X599797736Y-469392000D03*
X601622736Y-469392000D03*
%TD*%
D13*
%TO.C,U28*%
X539486236Y-398531000D03*
X539486236Y-399481000D03*
X539486236Y-400431000D03*
X542036236Y-400431000D03*
X542036236Y-398531000D03*
%TD*%
%TO.C,U24*%
X539486236Y-394467000D03*
X539486236Y-395417000D03*
X539486236Y-396367000D03*
X542036236Y-396367000D03*
X542036236Y-394467000D03*
%TD*%
D14*
%TO.C,D108*%
X580390236Y-326930000D03*
X580390236Y-324580000D03*
%TD*%
D13*
%TO.C,U31*%
X539369236Y-438851000D03*
X539369236Y-439801000D03*
X539369236Y-440751000D03*
X541919236Y-440751000D03*
X541919236Y-438851000D03*
%TD*%
D15*
%TO.C,D113*%
X659479236Y-381762000D03*
X661829236Y-381762000D03*
%TD*%
D13*
%TO.C,U26*%
X539369236Y-422402000D03*
X539369236Y-423352000D03*
X539369236Y-424302000D03*
X541919236Y-424302000D03*
X541919236Y-422402000D03*
%TD*%
D14*
%TO.C,D100*%
X580263236Y-441230000D03*
X580263236Y-438880000D03*
%TD*%
D10*
%TO.C,R25*%
X657860236Y-362354500D03*
X657860236Y-360529500D03*
%TD*%
D17*
%TO.C,R17*%
X607060236Y-297029500D03*
X607060236Y-298854500D03*
%TD*%
D16*
%TO.C,R31*%
X607036736Y-522351000D03*
X608861736Y-522351000D03*
%TD*%
D13*
%TO.C,U35*%
X539364236Y-447038100D03*
X539364236Y-447988100D03*
X539364236Y-448938100D03*
X541914236Y-448938100D03*
X541914236Y-447038100D03*
%TD*%
D16*
%TO.C,R15*%
X599797736Y-418592000D03*
X601622736Y-418592000D03*
%TD*%
D15*
%TO.C,D70*%
X643477236Y-267462000D03*
X645827236Y-267462000D03*
%TD*%
D13*
%TO.C,U22*%
X539369236Y-426588000D03*
X539369236Y-427538000D03*
X539369236Y-428488000D03*
X541919236Y-428488000D03*
X541919236Y-426588000D03*
%TD*%
D15*
%TO.C,D93*%
X659225236Y-496062000D03*
X661575236Y-496062000D03*
%TD*%
D13*
%TO.C,U30*%
X539369236Y-450977000D03*
X539369236Y-451927000D03*
X539369236Y-452877000D03*
X541919236Y-452877000D03*
X541919236Y-450977000D03*
%TD*%
D12*
%TO.C,D76*%
X684530236Y-332454000D03*
X684530236Y-334804000D03*
%TD*%
%TO.C,D104*%
X570103236Y-446881000D03*
X570103236Y-449231000D03*
%TD*%
D11*
%TO.C,D67*%
X629571236Y-267462000D03*
X627221236Y-267462000D03*
%TD*%
D16*
%TO.C,R22*%
X599797736Y-348742000D03*
X601622736Y-348742000D03*
%TD*%
D15*
%TO.C,D114*%
X651351236Y-391668000D03*
X653701236Y-391668000D03*
%TD*%
D18*
%TO.C,R21*%
X665122736Y-418592000D03*
X663297736Y-418592000D03*
%TD*%
D13*
%TO.C,U38*%
X539369236Y-442913100D03*
X539369236Y-443863100D03*
X539369236Y-444813100D03*
X541919236Y-444813100D03*
X541919236Y-442913100D03*
%TD*%
%TO.C,U32*%
X539359236Y-418465000D03*
X539359236Y-419415000D03*
X539359236Y-420365000D03*
X541909236Y-420365000D03*
X541909236Y-418465000D03*
%TD*%
%TO.C,U36*%
X539369236Y-430662000D03*
X539369236Y-431612000D03*
X539369236Y-432562000D03*
X541919236Y-432562000D03*
X541919236Y-430662000D03*
%TD*%
%TO.C,U34*%
X539359236Y-406532000D03*
X539359236Y-407482000D03*
X539359236Y-408432000D03*
X541909236Y-408432000D03*
X541909236Y-406532000D03*
%TD*%
D19*
%TO.C,U3*%
X555055236Y-386969000D03*
X555055236Y-388239000D03*
X555055236Y-389509000D03*
X555055236Y-390779000D03*
X555055236Y-392049000D03*
X555055236Y-393319000D03*
X555055236Y-394589000D03*
X555055236Y-395859000D03*
X560005236Y-395859000D03*
X560005236Y-394589000D03*
X560005236Y-393319000D03*
X560005236Y-392049000D03*
X560005236Y-390779000D03*
X560005236Y-389509000D03*
X560005236Y-388239000D03*
X560005236Y-386969000D03*
%TD*%
D11*
%TO.C,D118*%
X613569236Y-381889000D03*
X611219236Y-381889000D03*
%TD*%
D14*
%TO.C,D15*%
X683260236Y-249492000D03*
X683260236Y-247142000D03*
%TD*%
D18*
%TO.C,R29*%
X578889736Y-247269000D03*
X577064736Y-247269000D03*
%TD*%
D11*
%TO.C,D68*%
X613569236Y-267462000D03*
X611219236Y-267462000D03*
%TD*%
%TO.C,D89*%
X605695236Y-506095000D03*
X603345236Y-506095000D03*
%TD*%
D15*
%TO.C,D96*%
X635222236Y-506095000D03*
X637572236Y-506095000D03*
%TD*%
D18*
%TO.C,R23*%
X665122736Y-348742000D03*
X663297736Y-348742000D03*
%TD*%
D13*
%TO.C,U25*%
X539364236Y-414653100D03*
X539364236Y-415603100D03*
X539364236Y-416553100D03*
X541914236Y-416553100D03*
X541914236Y-414653100D03*
%TD*%
D12*
%TO.C,D74*%
X684403236Y-348456000D03*
X684403236Y-350806000D03*
%TD*%
D14*
%TO.C,D88*%
X694690236Y-441230000D03*
X694690236Y-438880000D03*
%TD*%
D15*
%TO.C,D95*%
X643223236Y-496062000D03*
X645573236Y-496062000D03*
%TD*%
D14*
%TO.C,D79*%
X684530236Y-318929000D03*
X684530236Y-316579000D03*
%TD*%
%TO.C,D87*%
X684530236Y-433229000D03*
X684530236Y-430879000D03*
%TD*%
D12*
%TO.C,D101*%
X580136236Y-470757000D03*
X580136236Y-473107000D03*
%TD*%
D11*
%TO.C,D120*%
X629571236Y-381762000D03*
X627221236Y-381762000D03*
%TD*%
D12*
%TO.C,D109*%
X580136236Y-356584000D03*
X580136236Y-358934000D03*
%TD*%
%TO.C,D82*%
X684403236Y-462883000D03*
X684403236Y-465233000D03*
%TD*%
D16*
%TO.C,R32*%
X686030736Y-247015000D03*
X687855736Y-247015000D03*
%TD*%
D14*
%TO.C,D85*%
X684530236Y-417100000D03*
X684530236Y-414750000D03*
%TD*%
%TO.C,D97*%
X570103236Y-417100000D03*
X570103236Y-414750000D03*
%TD*%
D18*
%TO.C,R26*%
X665122736Y-310642000D03*
X663297736Y-310642000D03*
%TD*%
D20*
%TO.C,U4*%
X548718236Y-376428000D03*
X548718236Y-375158000D03*
X548718236Y-373888000D03*
X548718236Y-372618000D03*
X548718236Y-371348000D03*
X548718236Y-370078000D03*
X548718236Y-368808000D03*
X548718236Y-367538000D03*
X539418236Y-367538000D03*
X539418236Y-368808000D03*
X539418236Y-370078000D03*
X539418236Y-371348000D03*
X539418236Y-372618000D03*
X539418236Y-373888000D03*
X539418236Y-375158000D03*
X539418236Y-376428000D03*
%TD*%
D15*
%TO.C,D115*%
X643223236Y-381889000D03*
X645573236Y-381889000D03*
%TD*%
D11*
%TO.C,D119*%
X621570236Y-391668000D03*
X619220236Y-391668000D03*
%TD*%
D12*
%TO.C,D112*%
X570357236Y-332454000D03*
X570357236Y-334804000D03*
%TD*%
%TO.C,D111*%
X580390236Y-340582000D03*
X580390236Y-342932000D03*
%TD*%
D18*
%TO.C,R18*%
X665122736Y-469392000D03*
X663297736Y-469392000D03*
%TD*%
D11*
%TO.C,D65*%
X605568236Y-277622000D03*
X603218236Y-277622000D03*
%TD*%
D19*
%TO.C,U39*%
X541974236Y-349250000D03*
X541974236Y-350520000D03*
X541974236Y-351790000D03*
X541974236Y-353060000D03*
X541974236Y-354330000D03*
X541974236Y-355600000D03*
X541974236Y-356870000D03*
X541974236Y-358140000D03*
X546924236Y-358140000D03*
X546924236Y-356870000D03*
X546924236Y-355600000D03*
X546924236Y-354330000D03*
X546924236Y-353060000D03*
X546924236Y-351790000D03*
X546924236Y-350520000D03*
X546924236Y-349250000D03*
%TD*%
D13*
%TO.C,U23*%
X539369236Y-455107000D03*
X539369236Y-456057000D03*
X539369236Y-457007000D03*
X541919236Y-457007000D03*
X541919236Y-455107000D03*
%TD*%
D12*
%TO.C,D102*%
X570103236Y-462756000D03*
X570103236Y-465106000D03*
%TD*%
D14*
%TO.C,D106*%
X580263236Y-310801000D03*
X580263236Y-308451000D03*
%TD*%
D15*
%TO.C,D71*%
X651351236Y-277622000D03*
X653701236Y-277622000D03*
%TD*%
D13*
%TO.C,U37*%
X539486236Y-402468000D03*
X539486236Y-403418000D03*
X539486236Y-404368000D03*
X542036236Y-404368000D03*
X542036236Y-402468000D03*
%TD*%
D16*
%TO.C,R30*%
X657836736Y-523240000D03*
X659661736Y-523240000D03*
%TD*%
D10*
%TO.C,R28*%
X607060236Y-362354500D03*
X607060236Y-360529500D03*
%TD*%
D11*
%TO.C,D117*%
X605568236Y-391922000D03*
X603218236Y-391922000D03*
%TD*%
D14*
%TO.C,D1*%
X581660236Y-249492000D03*
X581660236Y-247142000D03*
%TD*%
D11*
%TO.C,D92*%
X629698236Y-496062000D03*
X627348236Y-496062000D03*
%TD*%
%TO.C,D90*%
X613696236Y-496189000D03*
X611346236Y-496189000D03*
%TD*%
D17*
%TO.C,R20*%
X657860236Y-297029500D03*
X657860236Y-298854500D03*
%TD*%
D14*
%TO.C,D77*%
X684657236Y-302800000D03*
X684657236Y-300450000D03*
%TD*%
%TO.C,D105*%
X570230236Y-302927000D03*
X570230236Y-300577000D03*
%TD*%
D12*
%TO.C,D83*%
X694690236Y-454628000D03*
X694690236Y-456978000D03*
%TD*%
%TO.C,D75*%
X694817236Y-340455000D03*
X694817236Y-342805000D03*
%TD*%
D14*
%TO.C,D11*%
X657860236Y-528892000D03*
X657860236Y-526542000D03*
%TD*%
%TO.C,D86*%
X694563236Y-425101000D03*
X694563236Y-422751000D03*
%TD*%
D13*
%TO.C,U27*%
X539369236Y-459425000D03*
X539369236Y-460375000D03*
X539369236Y-461325000D03*
X541919236Y-461325000D03*
X541919236Y-459425000D03*
%TD*%
D14*
%TO.C,D80*%
X694563236Y-326930000D03*
X694563236Y-324580000D03*
%TD*%
%TO.C,D78*%
X694690236Y-310801000D03*
X694690236Y-308451000D03*
%TD*%
D11*
%TO.C,D66*%
X621697236Y-277622000D03*
X619347236Y-277622000D03*
%TD*%
D12*
%TO.C,D103*%
X580390236Y-454755000D03*
X580390236Y-457105000D03*
%TD*%
D15*
%TO.C,D116*%
X635190236Y-391668000D03*
X637540236Y-391668000D03*
%TD*%
D14*
%TO.C,D99*%
X570230236Y-433229000D03*
X570230236Y-430879000D03*
%TD*%
D16*
%TO.C,R19*%
X599797736Y-310642000D03*
X601622736Y-310642000D03*
%TD*%
D12*
%TO.C,D110*%
X570230236Y-348456000D03*
X570230236Y-350806000D03*
%TD*%
D13*
%TO.C,U29*%
X539364236Y-410467100D03*
X539364236Y-411417100D03*
X539364236Y-412367100D03*
X541914236Y-412367100D03*
X541914236Y-410467100D03*
%TD*%
M02*
