M48
; DRILL file {KiCad 7.0.7} date Fri Feb 16 12:20:11 2024
; FORMAT={-:-/ absolute / inch / decimal}
; #@! TF.CreationDate,2024-02-16T12:20:11-06:00
; #@! TF.GenerationSoftware,Kicad,Pcbnew,7.0.7
; #@! TF.FileFunction,Plated,1,2,PTH
FMAT,2
INCH
; #@! TA.AperFunction,Plated,PTH,ViaDrill
T1C0.0157
; #@! TA.AperFunction,Plated,PTH,ComponentDrill
T2C0.0394
; #@! TA.AperFunction,Plated,PTH,ComponentDrill
T3C0.0433
%
G90
G05
T1
X21.1Y-14.62
X21.2Y-17.645
X21.21Y-17.08
X21.215Y-15.965
X21.215Y-16.28
X21.215Y-17.555
X21.22Y-16.75
X21.23Y-15.645
X21.35Y-14.2
X21.35Y-17.235
X21.36Y-17.4
X21.365Y-17.315
X21.37Y-16.44
X21.37Y-16.905
X21.39Y-17.995
X21.4Y-15.53
X21.4Y-15.605
X21.4Y-15.69
X21.4Y-15.765
X21.4Y-15.92
X21.4Y-16.005
X21.4Y-16.08
X21.4Y-16.235
X21.4Y-16.325
X21.4Y-16.4
X21.4Y-16.55
X21.4Y-16.63
X21.4Y-16.705
X21.4Y-16.795
X21.4Y-16.87
X21.4Y-16.955
X21.4Y-17.03
X21.4Y-17.19
X21.4Y-17.28
X21.4Y-17.355
X21.4Y-17.515
X21.4Y-17.6
X21.4Y-17.675
X21.4Y-17.755
X21.4Y-17.83
X21.4Y-17.92
X21.45Y-16.75
X21.5Y-16.325
X21.5Y-16.44
X21.5Y-16.795
X21.5Y-16.955
X21.5Y-17.28
X21.5Y-17.6
X21.5Y-17.755
X21.5Y-17.92
X21.55Y-15.62
X21.55Y-16.08
X21.55Y-16.55
X21.55Y-16.905
X21.55Y-17.235
X21.55Y-17.515
X21.55Y-17.83
X21.6Y-15.765
X21.6Y-15.965
X21.6Y-16.87
X21.6Y-17.08
X21.6Y-17.675
X21.6Y-17.995
X21.65Y-16.63
X21.65Y-17.03
X21.65Y-17.4
X21.7Y-15.69
X21.7Y-16.005
X21.7Y-16.4
X21.7Y-16.705
X21.7Y-17.315
X21.7Y-17.645
X21.74Y-15.53
X21.75Y-15.635
X21.75Y-15.92
X21.75Y-16.28
X21.75Y-17.19
X21.75Y-17.355
X21.75Y-17.555
X21.77Y-14.41
X21.86Y-15.66
X22.77Y-15.485
X22.82Y-15.535
X22.8475Y-14.4225
X23.0375Y-14.6125
X23.25Y-14.35
X23.3Y-15.48
X23.36Y-14.35
X23.37Y-15.535
X23.56Y-13.51
X23.56Y-13.81
T2
X21.1Y-10.88
X21.1Y-10.98
X21.1Y-11.08
X21.1Y-11.18
X21.1Y-11.28
X21.1Y-11.38
X21.1Y-11.48
X21.1Y-11.58
X21.1Y-12.13
X21.1Y-12.23
X21.1Y-12.33
X21.1Y-12.43
X21.1Y-12.53
X21.1Y-12.63
X21.1Y-12.73
X21.1Y-12.83
X21.2Y-10.88
X21.2Y-10.98
X21.2Y-11.08
X21.2Y-11.18
X21.2Y-11.28
X21.2Y-11.38
X21.2Y-11.48
X21.2Y-11.58
X21.2Y-12.13
X21.2Y-12.23
X21.2Y-12.33
X21.2Y-12.43
X21.2Y-12.53
X21.2Y-12.63
X21.2Y-12.73
X21.2Y-12.83
T3
X21.8131Y-11.0202
X21.8131Y-11.2202
T0
M30
