court#,home sets,away sets,home games,away games,home points,away points
7,0,0,0,0,0,0
7,0,0,0,0,1,0
7,0,0,0,0,2,0
7,0,0,0,0,3,0
7,0,0,1,0,0,0
7,0,0,1,0,0,1
7,0,0,1,0,0,2
7,0,0,1,0,0,3
7,0,0,1,1,0,0
7,0,0,1,1,1,0
7,0,0,1,1,2,0
7,0,0,1,1,3,0
7,0,0,2,1,0,0
7,0,0,2,1,1,0
7,0,0,2,1,2,0
7,0,0,2,1,3,0
7,0,0,3,1,0,0
7,0,0,3,1,0,1
7,0,0,3,1,1,1
7,0,0,3,1,1,2
7,0,0,3,1,2,2
7,0,0,3,1,3,2
7,0,0,3,1,3,3
7,0,0,3,1,4,3
7,0,0,3,1,4,4
7,0,0,3,1,5,4
7,1,0,0,0,0,0