%TF.GenerationSoftware,KiCad,Pcbnew,7.0.7*%
%TF.CreationDate,2024-02-16T12:13:28-06:00*%
%TF.ProjectId,Senior_Design_MCU_Board,53656e69-6f72-45f4-9465-7369676e5f4d,rev?*%
%TF.SameCoordinates,Original*%
%TF.FileFunction,Profile,NP*%
%FSLAX46Y46*%
G04 Gerber Fmt 4.6, Leading zero omitted, Abs format (unit mm)*
G04 Created by KiCad (PCBNEW 7.0.7) date 2024-02-16 12:13:28*
%MOMM*%
%LPD*%
G01*
G04 APERTURE LIST*
%TA.AperFunction,Profile*%
%ADD10C,0.100000*%
%TD*%
G04 APERTURE END LIST*
D10*
X121158000Y-64770000D02*
X188976000Y-64770000D01*
X188976000Y-115570000D01*
X121158000Y-115570000D01*
X121158000Y-64770000D01*
M02*
