%TF.GenerationSoftware,KiCad,Pcbnew,7.0.7*%
%TF.CreationDate,2024-02-16T12:13:28-06:00*%
%TF.ProjectId,Senior_Design_MCU_Board,53656e69-6f72-45f4-9465-7369676e5f4d,rev?*%
%TF.SameCoordinates,Original*%
%TF.FileFunction,Soldermask,Top*%
%TF.FilePolarity,Negative*%
%FSLAX46Y46*%
G04 Gerber Fmt 4.6, Leading zero omitted, Abs format (unit mm)*
G04 Created by KiCad (PCBNEW 7.0.7) date 2024-02-16 12:13:28*
%MOMM*%
%LPD*%
G01*
G04 APERTURE LIST*
G04 Aperture macros list*
%AMRoundRect*
0 Rectangle with rounded corners*
0 $1 Rounding radius*
0 $2 $3 $4 $5 $6 $7 $8 $9 X,Y pos of 4 corners*
0 Add a 4 corners polygon primitive as box body*
4,1,4,$2,$3,$4,$5,$6,$7,$8,$9,$2,$3,0*
0 Add four circle primitives for the rounded corners*
1,1,$1+$1,$2,$3*
1,1,$1+$1,$4,$5*
1,1,$1+$1,$6,$7*
1,1,$1+$1,$8,$9*
0 Add four rect primitives between the rounded corners*
20,1,$1+$1,$2,$3,$4,$5,0*
20,1,$1+$1,$4,$5,$6,$7,0*
20,1,$1+$1,$6,$7,$8,$9,0*
20,1,$1+$1,$8,$9,$2,$3,0*%
G04 Aperture macros list end*
%ADD10RoundRect,0.250000X0.450000X-0.262500X0.450000X0.262500X-0.450000X0.262500X-0.450000X-0.262500X0*%
%ADD11RoundRect,0.250000X0.475000X-0.250000X0.475000X0.250000X-0.475000X0.250000X-0.475000X-0.250000X0*%
%ADD12R,1.200000X0.400000*%
%ADD13R,2.100000X2.100000*%
%ADD14C,2.100000*%
%ADD15RoundRect,0.250000X-0.850000X-0.350000X0.850000X-0.350000X0.850000X0.350000X-0.850000X0.350000X0*%
%ADD16RoundRect,0.249997X-2.950003X-2.650003X2.950003X-2.650003X2.950003X2.650003X-2.950003X2.650003X0*%
%ADD17RoundRect,0.250000X-0.250000X-0.475000X0.250000X-0.475000X0.250000X0.475000X-0.250000X0.475000X0*%
%ADD18RoundRect,0.250000X-0.262500X-0.450000X0.262500X-0.450000X0.262500X0.450000X-0.262500X0.450000X0*%
%ADD19RoundRect,0.243750X0.456250X-0.243750X0.456250X0.243750X-0.456250X0.243750X-0.456250X-0.243750X0*%
%ADD20RoundRect,0.250000X0.262500X0.450000X-0.262500X0.450000X-0.262500X-0.450000X0.262500X-0.450000X0*%
%ADD21C,0.900000*%
%ADD22R,0.500000X2.500000*%
%ADD23R,2.000000X2.500000*%
%ADD24C,3.200000*%
%ADD25RoundRect,0.243750X-0.243750X-0.456250X0.243750X-0.456250X0.243750X0.456250X-0.243750X0.456250X0*%
%ADD26RoundRect,0.150000X-0.587500X-0.150000X0.587500X-0.150000X0.587500X0.150000X-0.587500X0.150000X0*%
%ADD27RoundRect,0.250000X-0.475000X0.250000X-0.475000X-0.250000X0.475000X-0.250000X0.475000X0.250000X0*%
%ADD28RoundRect,0.250000X-0.600000X0.600000X-0.600000X-0.600000X0.600000X-0.600000X0.600000X0.600000X0*%
%ADD29C,1.700000*%
%ADD30RoundRect,0.250000X-0.450000X0.262500X-0.450000X-0.262500X0.450000X-0.262500X0.450000X0.262500X0*%
%ADD31RoundRect,0.250000X1.500000X0.550000X-1.500000X0.550000X-1.500000X-0.550000X1.500000X-0.550000X0*%
%ADD32R,1.500000X0.900000*%
%ADD33R,0.900000X1.500000*%
%ADD34C,0.600000*%
%ADD35R,4.200000X4.200000*%
%ADD36R,2.000000X1.000000*%
%ADD37R,1.450000X0.450000*%
%ADD38RoundRect,0.243750X-0.456250X0.243750X-0.456250X-0.243750X0.456250X-0.243750X0.456250X0.243750X0*%
G04 APERTURE END LIST*
D10*
%TO.C,R3*%
X140716000Y-105569500D03*
X140716000Y-103744500D03*
%TD*%
D11*
%TO.C,C12*%
X143002000Y-69022000D03*
X143002000Y-67122000D03*
%TD*%
D12*
%TO.C,U1*%
X138116000Y-91122500D03*
X138116000Y-91757500D03*
X138116000Y-92392500D03*
X138116000Y-93027500D03*
X138116000Y-93662500D03*
X138116000Y-94297500D03*
X138116000Y-94932500D03*
X138116000Y-95567500D03*
X138116000Y-96202500D03*
X138116000Y-96837500D03*
X143316000Y-96837500D03*
X143316000Y-96202500D03*
X143316000Y-95567500D03*
X143316000Y-94932500D03*
X143316000Y-94297500D03*
X143316000Y-93662500D03*
X143316000Y-93027500D03*
X143316000Y-92392500D03*
X143316000Y-91757500D03*
X143316000Y-91122500D03*
%TD*%
D13*
%TO.C,J4*%
X126667000Y-91186000D03*
D14*
X126667000Y-86106000D03*
%TD*%
D15*
%TO.C,U2*%
X125086000Y-95500000D03*
D16*
X131386000Y-97780000D03*
D15*
X125086000Y-100060000D03*
%TD*%
D13*
%TO.C,J6*%
X165105000Y-110569000D03*
D14*
X160025000Y-110569000D03*
%TD*%
D17*
%TO.C,C17*%
X167706000Y-67056000D03*
X169606000Y-67056000D03*
%TD*%
D18*
%TO.C,R6*%
X138025500Y-99822000D03*
X139850500Y-99822000D03*
%TD*%
D19*
%TO.C,D1*%
X145288000Y-91869500D03*
X145288000Y-89994500D03*
%TD*%
D20*
%TO.C,R5*%
X145438500Y-88138000D03*
X143613500Y-88138000D03*
%TD*%
D13*
%TO.C,J8*%
X183975000Y-99817000D03*
D14*
X183975000Y-104897000D03*
%TD*%
D11*
%TO.C,C4*%
X145288000Y-95438000D03*
X145288000Y-93538000D03*
%TD*%
D21*
%TO.C,J1*%
X137246000Y-110744000D03*
X141646000Y-110744000D03*
D22*
X137846000Y-108144000D03*
X138646000Y-108144000D03*
X139446000Y-108144000D03*
X140246000Y-108144000D03*
X141046000Y-108144000D03*
D23*
X135046000Y-108144000D03*
X135046000Y-113644000D03*
X143846000Y-108144000D03*
X143846000Y-113644000D03*
%TD*%
D10*
%TO.C,R4*%
X136144000Y-105569500D03*
X136144000Y-103744500D03*
%TD*%
D24*
%TO.C,H3*%
X185420000Y-112014000D03*
%TD*%
D17*
%TO.C,C18*%
X134940000Y-87630000D03*
X136840000Y-87630000D03*
%TD*%
D24*
%TO.C,H1*%
X124714000Y-68326000D03*
%TD*%
D25*
%TO.C,D3*%
X130634500Y-102362000D03*
X132509500Y-102362000D03*
%TD*%
D11*
%TO.C,C14*%
X137922000Y-69022000D03*
X137922000Y-67122000D03*
%TD*%
D26*
%TO.C,Q2*%
X135079500Y-81948420D03*
X135079500Y-83848420D03*
X136954500Y-82898420D03*
%TD*%
D13*
%TO.C,J5*%
X153929000Y-110569000D03*
D14*
X148849000Y-110569000D03*
%TD*%
D26*
%TO.C,Q1*%
X135019500Y-78414920D03*
X135019500Y-80314920D03*
X136894500Y-79364920D03*
%TD*%
D13*
%TO.C,J11*%
X173477000Y-69771000D03*
D14*
X178557000Y-69771000D03*
%TD*%
D27*
%TO.C,C7*%
X139065000Y-80678420D03*
X139065000Y-82578420D03*
%TD*%
D13*
%TO.C,J3*%
X126667000Y-80005000D03*
D14*
X126667000Y-74925000D03*
%TD*%
D24*
%TO.C,H2*%
X185166000Y-68326000D03*
%TD*%
D13*
%TO.C,J7*%
X176286000Y-110569000D03*
D14*
X171206000Y-110569000D03*
%TD*%
D11*
%TO.C,C1*%
X143002000Y-105607000D03*
X143002000Y-103707000D03*
%TD*%
D24*
%TO.C,H4*%
X124714000Y-112014000D03*
%TD*%
D28*
%TO.C,J2*%
X171196000Y-94488000D03*
D29*
X171196000Y-97028000D03*
X168656000Y-94488000D03*
X168656000Y-97028000D03*
X166116000Y-94488000D03*
X166116000Y-97028000D03*
X163576000Y-94488000D03*
X163576000Y-97028000D03*
X161036000Y-94488000D03*
X161036000Y-97028000D03*
X158496000Y-94488000D03*
X158496000Y-97028000D03*
X155956000Y-94488000D03*
X155956000Y-97028000D03*
X153416000Y-94488000D03*
X153416000Y-97028000D03*
%TD*%
D30*
%TO.C,R2*%
X132969000Y-78407420D03*
X132969000Y-80232420D03*
%TD*%
D31*
%TO.C,C11*%
X129038000Y-104902000D03*
X123438000Y-104902000D03*
%TD*%
D10*
%TO.C,R1*%
X132969000Y-83810920D03*
X132969000Y-81985920D03*
%TD*%
D32*
%TO.C,U3*%
X146869000Y-66321000D03*
X146869000Y-67591000D03*
X146869000Y-68861000D03*
X146869000Y-70131000D03*
X146869000Y-71401000D03*
X146869000Y-72671000D03*
X146869000Y-73941000D03*
X146869000Y-75211000D03*
X146869000Y-76481000D03*
X146869000Y-77751000D03*
X146869000Y-79021000D03*
X146869000Y-80291000D03*
X146869000Y-81561000D03*
X146869000Y-82831000D03*
D33*
X149909000Y-84081000D03*
X151179000Y-84081000D03*
X152449000Y-84081000D03*
X153719000Y-84081000D03*
X154989000Y-84081000D03*
X156259000Y-84081000D03*
X157529000Y-84081000D03*
X158799000Y-84081000D03*
X160069000Y-84081000D03*
X161339000Y-84081000D03*
D32*
X164369000Y-82831000D03*
X164369000Y-81561000D03*
X164369000Y-80291000D03*
X164369000Y-79021000D03*
X164369000Y-77751000D03*
X164369000Y-76481000D03*
X164369000Y-75211000D03*
X164369000Y-73941000D03*
X164369000Y-72671000D03*
X164369000Y-71401000D03*
X164369000Y-70131000D03*
X164369000Y-68861000D03*
X164369000Y-67591000D03*
X164369000Y-66321000D03*
D34*
X153414000Y-72898500D03*
X153414000Y-74423500D03*
X154176500Y-72136000D03*
X154176500Y-73661000D03*
X154176500Y-75186000D03*
X154939000Y-72898500D03*
D35*
X154939000Y-73661000D03*
D34*
X154939000Y-74423500D03*
X155701500Y-72136000D03*
X155701500Y-73661000D03*
X155701500Y-75186000D03*
X156464000Y-72898500D03*
X156464000Y-74423500D03*
%TD*%
D13*
%TO.C,J10*%
X183975000Y-77460000D03*
D14*
X183975000Y-82540000D03*
%TD*%
D11*
%TO.C,C2*%
X138430000Y-105607000D03*
X138430000Y-103707000D03*
%TD*%
D20*
%TO.C,R8*%
X132738500Y-108966000D03*
X130913500Y-108966000D03*
%TD*%
D36*
%TO.C,SW1*%
X134414000Y-73406000D03*
X140414000Y-73406000D03*
%TD*%
D11*
%TO.C,C13*%
X136144000Y-92390000D03*
X136144000Y-90490000D03*
%TD*%
D10*
%TO.C,R7*%
X140462000Y-68984500D03*
X140462000Y-67159500D03*
%TD*%
D13*
%TO.C,J9*%
X183975000Y-88636000D03*
D14*
X183975000Y-93716000D03*
%TD*%
D37*
%TO.C,U4*%
X175670000Y-80903000D03*
X175670000Y-80253000D03*
X175670000Y-79603000D03*
X175670000Y-78953000D03*
X175670000Y-78303000D03*
X175670000Y-77653000D03*
X175670000Y-77003000D03*
X175670000Y-76353000D03*
X175670000Y-75703000D03*
X175670000Y-75053000D03*
X169770000Y-75053000D03*
X169770000Y-75703000D03*
X169770000Y-76353000D03*
X169770000Y-77003000D03*
X169770000Y-77653000D03*
X169770000Y-78303000D03*
X169770000Y-78953000D03*
X169770000Y-79603000D03*
X169770000Y-80253000D03*
X169770000Y-80903000D03*
%TD*%
D11*
%TO.C,C3*%
X135382000Y-69022000D03*
X135382000Y-67122000D03*
%TD*%
D38*
%TO.C,D2*%
X135890000Y-98122500D03*
X135890000Y-99997500D03*
%TD*%
M02*
