%TF.GenerationSoftware,KiCad,Pcbnew,7.0.7*%
%TF.CreationDate,2024-02-16T12:13:28-06:00*%
%TF.ProjectId,Senior_Design_MCU_Board,53656e69-6f72-45f4-9465-7369676e5f4d,rev?*%
%TF.SameCoordinates,Original*%
%TF.FileFunction,Soldermask,Bot*%
%TF.FilePolarity,Negative*%
%FSLAX46Y46*%
G04 Gerber Fmt 4.6, Leading zero omitted, Abs format (unit mm)*
G04 Created by KiCad (PCBNEW 7.0.7) date 2024-02-16 12:13:28*
%MOMM*%
%LPD*%
G01*
G04 APERTURE LIST*
G04 Aperture macros list*
%AMRoundRect*
0 Rectangle with rounded corners*
0 $1 Rounding radius*
0 $2 $3 $4 $5 $6 $7 $8 $9 X,Y pos of 4 corners*
0 Add a 4 corners polygon primitive as box body*
4,1,4,$2,$3,$4,$5,$6,$7,$8,$9,$2,$3,0*
0 Add four circle primitives for the rounded corners*
1,1,$1+$1,$2,$3*
1,1,$1+$1,$4,$5*
1,1,$1+$1,$6,$7*
1,1,$1+$1,$8,$9*
0 Add four rect primitives between the rounded corners*
20,1,$1+$1,$2,$3,$4,$5,0*
20,1,$1+$1,$4,$5,$6,$7,0*
20,1,$1+$1,$6,$7,$8,$9,0*
20,1,$1+$1,$8,$9,$2,$3,0*%
G04 Aperture macros list end*
%ADD10R,2.100000X2.100000*%
%ADD11C,2.100000*%
%ADD12C,0.900000*%
%ADD13C,3.200000*%
%ADD14RoundRect,0.250000X-0.600000X0.600000X-0.600000X-0.600000X0.600000X-0.600000X0.600000X0.600000X0*%
%ADD15C,1.700000*%
G04 APERTURE END LIST*
D10*
%TO.C,J4*%
X126667000Y-91186000D03*
D11*
X126667000Y-86106000D03*
%TD*%
D10*
%TO.C,J6*%
X165105000Y-110569000D03*
D11*
X160025000Y-110569000D03*
%TD*%
D10*
%TO.C,J8*%
X183975000Y-99817000D03*
D11*
X183975000Y-104897000D03*
%TD*%
D12*
%TO.C,J1*%
X137246000Y-110744000D03*
X141646000Y-110744000D03*
%TD*%
D13*
%TO.C,H3*%
X185420000Y-112014000D03*
%TD*%
%TO.C,H1*%
X124714000Y-68326000D03*
%TD*%
D10*
%TO.C,J5*%
X153929000Y-110569000D03*
D11*
X148849000Y-110569000D03*
%TD*%
D10*
%TO.C,J11*%
X173477000Y-69771000D03*
D11*
X178557000Y-69771000D03*
%TD*%
D10*
%TO.C,J3*%
X126667000Y-80005000D03*
D11*
X126667000Y-74925000D03*
%TD*%
D13*
%TO.C,H2*%
X185166000Y-68326000D03*
%TD*%
D10*
%TO.C,J7*%
X176286000Y-110569000D03*
D11*
X171206000Y-110569000D03*
%TD*%
D13*
%TO.C,H4*%
X124714000Y-112014000D03*
%TD*%
D14*
%TO.C,J2*%
X171196000Y-94488000D03*
D15*
X171196000Y-97028000D03*
X168656000Y-94488000D03*
X168656000Y-97028000D03*
X166116000Y-94488000D03*
X166116000Y-97028000D03*
X163576000Y-94488000D03*
X163576000Y-97028000D03*
X161036000Y-94488000D03*
X161036000Y-97028000D03*
X158496000Y-94488000D03*
X158496000Y-97028000D03*
X155956000Y-94488000D03*
X155956000Y-97028000D03*
X153416000Y-94488000D03*
X153416000Y-97028000D03*
%TD*%
D10*
%TO.C,J10*%
X183975000Y-77460000D03*
D11*
X183975000Y-82540000D03*
%TD*%
D10*
%TO.C,J9*%
X183975000Y-88636000D03*
D11*
X183975000Y-93716000D03*
%TD*%
M02*
