M48
; DRILL file {KiCad 7.0.7} date Tue Mar  5 16:40:39 2024
; FORMAT={-:-/ absolute / inch / decimal}
; #@! TF.CreationDate,2024-03-05T16:40:39-06:00
; #@! TF.GenerationSoftware,Kicad,Pcbnew,7.0.7
; #@! TF.FileFunction,Plated,1,2,PTH
FMAT,2
INCH
; #@! TA.AperFunction,Plated,PTH,ViaDrill
T1C0.0157
; #@! TA.AperFunction,Plated,PTH,ComponentDrill
T2C0.0394
; #@! TA.AperFunction,Plated,PTH,ComponentDrill
T3C0.0433
%
G90
G05
T1
X20.1919Y-14.6681
X20.2419Y-15.0281
X20.2919Y-17.6931
X20.3019Y-17.1281
X20.3069Y-16.0131
X20.3069Y-16.3281
X20.3069Y-17.6031
X20.3119Y-16.7981
X20.3219Y-15.6931
X20.3569Y-14.1931
X20.4419Y-17.2831
X20.4519Y-17.4481
X20.4569Y-17.3631
X20.4619Y-16.4881
X20.4619Y-16.9531
X20.4819Y-18.0431
X20.4919Y-15.5781
X20.4919Y-15.6531
X20.4919Y-15.7381
X20.4919Y-15.8131
X20.4919Y-15.9681
X20.4919Y-16.0531
X20.4919Y-16.1281
X20.4919Y-16.2831
X20.4919Y-16.3731
X20.4919Y-16.4481
X20.4919Y-16.5981
X20.4919Y-16.6781
X20.4919Y-16.7531
X20.4919Y-16.8431
X20.4919Y-16.9181
X20.4919Y-17.0031
X20.4919Y-17.0781
X20.4919Y-17.2381
X20.4919Y-17.3281
X20.4919Y-17.4031
X20.4919Y-17.5631
X20.4919Y-17.6481
X20.4919Y-17.7231
X20.4919Y-17.8031
X20.4919Y-17.8781
X20.4919Y-17.9681
X20.5419Y-16.7981
X20.5919Y-16.3731
X20.5919Y-16.4881
X20.5919Y-16.8431
X20.5919Y-17.0031
X20.5919Y-17.3281
X20.5919Y-17.6481
X20.5919Y-17.8031
X20.5919Y-17.9681
X20.6419Y-15.6681
X20.6419Y-16.1281
X20.6419Y-16.5981
X20.6419Y-16.9531
X20.6419Y-17.2831
X20.6419Y-17.5631
X20.6419Y-17.8781
X20.6919Y-15.8131
X20.6919Y-16.0131
X20.6919Y-16.9181
X20.6919Y-17.1281
X20.6919Y-17.7231
X20.6919Y-18.0431
X20.7419Y-16.6781
X20.7419Y-17.0781
X20.7419Y-17.4481
X20.7769Y-13.8531
X20.7919Y-14.3281
X20.7919Y-15.7381
X20.7919Y-16.0531
X20.7919Y-16.4481
X20.7919Y-16.7531
X20.7919Y-17.3631
X20.7919Y-17.6931
X20.8319Y-15.5781
X20.8419Y-15.6831
X20.8419Y-15.9681
X20.8419Y-16.3281
X20.8419Y-17.2381
X20.8419Y-17.4031
X20.8419Y-17.6031
X21.3669Y-15.5331
X21.3669Y-15.5831
X21.4919Y-9.7781
X21.8419Y-15.0281
X21.9919Y-14.8131
X21.9919Y-15.2681
X22.1919Y-15.7781
X22.1969Y-14.3131
X22.2419Y-15.7281
X22.2469Y-14.7781
X22.2919Y-15.6781
X22.3069Y-14.3731
X22.5519Y-18.3381
X22.5719Y-13.5981
X22.7119Y-15.7581
X23.2919Y-11.4831
X24.7869Y-18.9831
X25.5069Y-16.7931
X25.7869Y-12.4681
T2
X20.1919Y-10.9281
X20.1919Y-11.0281
X20.1919Y-11.1281
X20.1919Y-11.2281
X20.1919Y-11.3281
X20.1919Y-11.4281
X20.1919Y-11.5281
X20.1919Y-11.6281
X20.1919Y-12.1781
X20.1919Y-12.2781
X20.1919Y-12.3781
X20.1919Y-12.4781
X20.1919Y-12.5781
X20.1919Y-12.6781
X20.1919Y-12.7781
X20.1919Y-12.8781
X20.2919Y-10.9281
X20.2919Y-11.0281
X20.2919Y-11.1281
X20.2919Y-11.2281
X20.2919Y-11.3281
X20.2919Y-11.4281
X20.2919Y-11.5281
X20.2919Y-11.6281
X20.2919Y-12.1781
X20.2919Y-12.2781
X20.2919Y-12.3781
X20.2919Y-12.4781
X20.2919Y-12.5781
X20.2919Y-12.6781
X20.2919Y-12.7781
X20.2919Y-12.8781
T3
X20.9119Y-10.8881
X20.9119Y-11.0881
X20.9169Y-11.4581
X20.9169Y-11.6581
T0
M30
