%TF.GenerationSoftware,KiCad,Pcbnew,7.0.7*%
%TF.CreationDate,2024-03-05T16:40:33-06:00*%
%TF.ProjectId,LED Array,4c454420-4172-4726-9179-2e6b69636164,rev?*%
%TF.SameCoordinates,Original*%
%TF.FileFunction,Copper,L1,Top*%
%TF.FilePolarity,Positive*%
%FSLAX46Y46*%
G04 Gerber Fmt 4.6, Leading zero omitted, Abs format (unit mm)*
G04 Created by KiCad (PCBNEW 7.0.7) date 2024-03-05 16:40:33*
%MOMM*%
%LPD*%
G01*
G04 APERTURE LIST*
G04 Aperture macros list*
%AMRoundRect*
0 Rectangle with rounded corners*
0 $1 Rounding radius*
0 $2 $3 $4 $5 $6 $7 $8 $9 X,Y pos of 4 corners*
0 Add a 4 corners polygon primitive as box body*
4,1,4,$2,$3,$4,$5,$6,$7,$8,$9,$2,$3,0*
0 Add four circle primitives for the rounded corners*
1,1,$1+$1,$2,$3*
1,1,$1+$1,$4,$5*
1,1,$1+$1,$6,$7*
1,1,$1+$1,$8,$9*
0 Add four rect primitives between the rounded corners*
20,1,$1+$1,$2,$3,$4,$5,0*
20,1,$1+$1,$4,$5,$6,$7,0*
20,1,$1+$1,$6,$7,$8,$9,0*
20,1,$1+$1,$8,$9,$2,$3,0*%
G04 Aperture macros list end*
%TA.AperFunction,SMDPad,CuDef*%
%ADD10RoundRect,0.250000X0.450000X-0.262500X0.450000X0.262500X-0.450000X0.262500X-0.450000X-0.262500X0*%
%TD*%
%TA.AperFunction,SMDPad,CuDef*%
%ADD11RoundRect,0.275000X0.350000X0.275000X-0.350000X0.275000X-0.350000X-0.275000X0.350000X-0.275000X0*%
%TD*%
%TA.AperFunction,SMDPad,CuDef*%
%ADD12RoundRect,0.275000X-0.275000X0.350000X-0.275000X-0.350000X0.275000X-0.350000X0.275000X0.350000X0*%
%TD*%
%TA.AperFunction,SMDPad,CuDef*%
%ADD13RoundRect,0.112500X-0.162500X-0.112500X0.162500X-0.112500X0.162500X0.112500X-0.162500X0.112500X0*%
%TD*%
%TA.AperFunction,SMDPad,CuDef*%
%ADD14RoundRect,0.275000X0.275000X-0.350000X0.275000X0.350000X-0.275000X0.350000X-0.275000X-0.350000X0*%
%TD*%
%TA.AperFunction,SMDPad,CuDef*%
%ADD15RoundRect,0.275000X-0.350000X-0.275000X0.350000X-0.275000X0.350000X0.275000X-0.350000X0.275000X0*%
%TD*%
%TA.AperFunction,SMDPad,CuDef*%
%ADD16RoundRect,0.250000X-0.262500X-0.450000X0.262500X-0.450000X0.262500X0.450000X-0.262500X0.450000X0*%
%TD*%
%TA.AperFunction,SMDPad,CuDef*%
%ADD17RoundRect,0.250000X-0.450000X0.262500X-0.450000X-0.262500X0.450000X-0.262500X0.450000X0.262500X0*%
%TD*%
%TA.AperFunction,SMDPad,CuDef*%
%ADD18RoundRect,0.250000X0.262500X0.450000X-0.262500X0.450000X-0.262500X-0.450000X0.262500X-0.450000X0*%
%TD*%
%TA.AperFunction,SMDPad,CuDef*%
%ADD19RoundRect,0.150000X-0.825000X-0.150000X0.825000X-0.150000X0.825000X0.150000X-0.825000X0.150000X0*%
%TD*%
%TA.AperFunction,SMDPad,CuDef*%
%ADD20R,1.500000X0.600000*%
%TD*%
%TA.AperFunction,ComponentPad*%
%ADD21R,2.100000X2.100000*%
%TD*%
%TA.AperFunction,ComponentPad*%
%ADD22C,2.100000*%
%TD*%
%TA.AperFunction,ComponentPad*%
%ADD23RoundRect,0.250000X0.600000X0.600000X-0.600000X0.600000X-0.600000X-0.600000X0.600000X-0.600000X0*%
%TD*%
%TA.AperFunction,ComponentPad*%
%ADD24C,1.700000*%
%TD*%
%TA.AperFunction,ComponentPad*%
%ADD25RoundRect,0.250000X-0.600000X-0.600000X0.600000X-0.600000X0.600000X0.600000X-0.600000X0.600000X0*%
%TD*%
%TA.AperFunction,ViaPad*%
%ADD26C,0.800000*%
%TD*%
%TA.AperFunction,Conductor*%
%ADD27C,1.270000*%
%TD*%
%TA.AperFunction,Conductor*%
%ADD28C,0.635000*%
%TD*%
%TA.AperFunction,Conductor*%
%ADD29C,0.381000*%
%TD*%
G04 APERTURE END LIST*
D10*
%TO.P,R24,1*%
%TO.N,Net-(D89-A)*%
X583993500Y-477877000D03*
%TO.P,R24,2*%
%TO.N,+12V*%
X583993500Y-476052000D03*
%TD*%
D11*
%TO.P,D91,1,K*%
%TO.N,SEGR D*%
X598630500Y-507317500D03*
%TO.P,D91,2,A*%
%TO.N,Net-(D89-A)*%
X596280500Y-507317500D03*
%TD*%
D12*
%TO.P,D84,1,K*%
%TO.N,SEGR C*%
X661463500Y-447976500D03*
%TO.P,D84,2,A*%
%TO.N,Net-(D81-A)*%
X661463500Y-450326500D03*
%TD*%
D13*
%TO.P,U33,1,C*%
%TO.N,RD*%
X516302500Y-436009500D03*
%TO.P,U33,2,A*%
%TO.N,R2*%
X516302500Y-436959500D03*
%TO.P,U33,3,C*%
%TO.N,unconnected-(U33-C-Pad3)*%
X516302500Y-437909500D03*
%TO.P,U33,4,C*%
%TO.N,RG*%
X518852500Y-437909500D03*
%TO.P,U33,5,C*%
%TO.N,RA*%
X518852500Y-436009500D03*
%TD*%
D14*
%TO.P,D98,1,K*%
%TO.N,SEGR E*%
X557323500Y-426323500D03*
%TO.P,D98,2,A*%
%TO.N,Net-(D100-A)*%
X557323500Y-423973500D03*
%TD*%
D10*
%TO.P,R27,1*%
%TO.N,Net-(D93-A)*%
X634793500Y-477877000D03*
%TO.P,R27,2*%
%TO.N,+12V*%
X634793500Y-476052000D03*
%TD*%
D14*
%TO.P,D107,1,K*%
%TO.N,SEGR F*%
X547036500Y-320024500D03*
%TO.P,D107,2,A*%
%TO.N,Net-(D105-A)*%
X547036500Y-317674500D03*
%TD*%
D12*
%TO.P,D73,1,K*%
%TO.N,SEGR B*%
X671623500Y-357679500D03*
%TO.P,D73,2,A*%
%TO.N,Net-(D73-A)*%
X671623500Y-360029500D03*
%TD*%
D15*
%TO.P,D69,1,K*%
%TO.N,SEGR A*%
X636412500Y-268684500D03*
%TO.P,D69,2,A*%
%TO.N,Net-(D69-A)*%
X638762500Y-268684500D03*
%TD*%
%TO.P,D94,1,K*%
%TO.N,SEGR D*%
X628157500Y-507444500D03*
%TO.P,D94,2,A*%
%TO.N,Net-(D93-A)*%
X630507500Y-507444500D03*
%TD*%
D12*
%TO.P,D81,1,K*%
%TO.N,SEGR C*%
X671369500Y-471979500D03*
%TO.P,D81,2,A*%
%TO.N,Net-(D81-A)*%
X671369500Y-474329500D03*
%TD*%
D14*
%TO.P,D13,1,K*%
%TO.N,LED C*%
X583993500Y-530114500D03*
%TO.P,D13,2,A*%
%TO.N,Net-(D13-A)*%
X583993500Y-527764500D03*
%TD*%
D15*
%TO.P,D72,1,K*%
%TO.N,SEGR A*%
X612282500Y-278844500D03*
%TO.P,D72,2,A*%
%TO.N,Net-(D69-A)*%
X614632500Y-278844500D03*
%TD*%
D16*
%TO.P,R16,1*%
%TO.N,Net-(D101-A)*%
X576731000Y-470614500D03*
%TO.P,R16,2*%
%TO.N,+12V*%
X578556000Y-470614500D03*
%TD*%
D13*
%TO.P,U28,1,C*%
%TO.N,unconnected-(U28-C-Pad1)*%
X516419500Y-399753500D03*
%TO.P,U28,2,A*%
%TO.N,R6*%
X516419500Y-400703500D03*
%TO.P,U28,3,C*%
%TO.N,unconnected-(U28-C-Pad3)*%
X516419500Y-401653500D03*
%TO.P,U28,4,C*%
%TO.N,RD*%
X518969500Y-401653500D03*
%TO.P,U28,5,C*%
%TO.N,RF*%
X518969500Y-399753500D03*
%TD*%
%TO.P,U24,1,C*%
%TO.N,RG*%
X516419500Y-395689500D03*
%TO.P,U24,2,A*%
%TO.N,R6*%
X516419500Y-396639500D03*
%TO.P,U24,3,C*%
%TO.N,unconnected-(U24-C-Pad3)*%
X516419500Y-397589500D03*
%TO.P,U24,4,C*%
%TO.N,RC*%
X518969500Y-397589500D03*
%TO.P,U24,5,C*%
%TO.N,RE*%
X518969500Y-395689500D03*
%TD*%
D14*
%TO.P,D108,1,K*%
%TO.N,SEGR F*%
X557323500Y-328152500D03*
%TO.P,D108,2,A*%
%TO.N,Net-(D105-A)*%
X557323500Y-325802500D03*
%TD*%
D13*
%TO.P,U31,1,C*%
%TO.N,RC*%
X516302500Y-440073500D03*
%TO.P,U31,2,A*%
%TO.N,R4*%
X516302500Y-441023500D03*
%TO.P,U31,3,C*%
%TO.N,RF*%
X516302500Y-441973500D03*
%TO.P,U31,4,C*%
%TO.N,RG*%
X518852500Y-441973500D03*
%TO.P,U31,5,C*%
%TO.N,RB*%
X518852500Y-440073500D03*
%TD*%
D15*
%TO.P,D113,1,K*%
%TO.N,SEGR G*%
X636412500Y-382984500D03*
%TO.P,D113,2,A*%
%TO.N,Net-(D113-A)*%
X638762500Y-382984500D03*
%TD*%
D13*
%TO.P,U26,1,C*%
%TO.N,unconnected-(U26-C-Pad1)*%
X516302500Y-423624500D03*
%TO.P,U26,2,A*%
%TO.N,R0*%
X516302500Y-424574500D03*
%TO.P,U26,3,C*%
%TO.N,unconnected-(U26-C-Pad3)*%
X516302500Y-425524500D03*
%TO.P,U26,4,C*%
%TO.N,RF*%
X518852500Y-425524500D03*
%TO.P,U26,5,C*%
%TO.N,RE*%
X518852500Y-423624500D03*
%TD*%
D14*
%TO.P,D100,1,K*%
%TO.N,SEGR E*%
X557196500Y-442452500D03*
%TO.P,D100,2,A*%
%TO.N,Net-(D100-A)*%
X557196500Y-440102500D03*
%TD*%
D10*
%TO.P,R25,1*%
%TO.N,Net-(D113-A)*%
X634793500Y-363577000D03*
%TO.P,R25,2*%
%TO.N,+12V*%
X634793500Y-361752000D03*
%TD*%
D17*
%TO.P,R17,1*%
%TO.N,Net-(D65-A)*%
X583993500Y-298252000D03*
%TO.P,R17,2*%
%TO.N,+12V*%
X583993500Y-300077000D03*
%TD*%
D16*
%TO.P,R31,1*%
%TO.N,Net-(D13-A)*%
X583970000Y-523573500D03*
%TO.P,R31,2*%
%TO.N,+12V*%
X585795000Y-523573500D03*
%TD*%
D13*
%TO.P,U35,5,C*%
%TO.N,RB*%
X518847500Y-448260600D03*
%TO.P,U35,4,C*%
%TO.N,RD*%
X518847500Y-450160600D03*
%TO.P,U35,3,C*%
%TO.N,unconnected-(U35-C-Pad3)*%
X516297500Y-450160600D03*
%TO.P,U35,2,A*%
%TO.N,R8*%
X516297500Y-449210600D03*
%TO.P,U35,1,C*%
%TO.N,RF*%
X516297500Y-448260600D03*
%TD*%
D16*
%TO.P,R15,1*%
%TO.N,Net-(D100-A)*%
X576731000Y-419814500D03*
%TO.P,R15,2*%
%TO.N,+12V*%
X578556000Y-419814500D03*
%TD*%
D15*
%TO.P,D70,1,K*%
%TO.N,SEGR A*%
X620410500Y-268684500D03*
%TO.P,D70,2,A*%
%TO.N,Net-(D69-A)*%
X622760500Y-268684500D03*
%TD*%
D13*
%TO.P,U22,1,C*%
%TO.N,RA*%
X516302500Y-427810500D03*
%TO.P,U22,2,A*%
%TO.N,R0*%
X516302500Y-428760500D03*
%TO.P,U22,3,C*%
%TO.N,RC*%
X516302500Y-429710500D03*
%TO.P,U22,4,C*%
%TO.N,RD*%
X518852500Y-429710500D03*
%TO.P,U22,5,C*%
%TO.N,RB*%
X518852500Y-427810500D03*
%TD*%
D15*
%TO.P,D93,1,K*%
%TO.N,SEGR D*%
X636158500Y-497284500D03*
%TO.P,D93,2,A*%
%TO.N,Net-(D93-A)*%
X638508500Y-497284500D03*
%TD*%
D13*
%TO.P,U30,1,C*%
%TO.N,unconnected-(U30-C-Pad1)*%
X516302500Y-452199500D03*
%TO.P,U30,2,A*%
%TO.N,R1*%
X516302500Y-453149500D03*
%TO.P,U30,3,C*%
%TO.N,unconnected-(U30-C-Pad3)*%
X516302500Y-454099500D03*
%TO.P,U30,4,C*%
%TO.N,RC*%
X518852500Y-454099500D03*
%TO.P,U30,5,C*%
%TO.N,RB*%
X518852500Y-452199500D03*
%TD*%
D12*
%TO.P,D76,1,K*%
%TO.N,SEGR B*%
X661463500Y-333676500D03*
%TO.P,D76,2,A*%
%TO.N,Net-(D73-A)*%
X661463500Y-336026500D03*
%TD*%
%TO.P,D104,1,K*%
%TO.N,SEGR E*%
X547036500Y-448103500D03*
%TO.P,D104,2,A*%
%TO.N,Net-(D101-A)*%
X547036500Y-450453500D03*
%TD*%
D11*
%TO.P,D67,1,K*%
%TO.N,SEGR A*%
X606504500Y-268684500D03*
%TO.P,D67,2,A*%
%TO.N,Net-(D65-A)*%
X604154500Y-268684500D03*
%TD*%
D16*
%TO.P,R22,1*%
%TO.N,Net-(D109-A)*%
X576731000Y-349964500D03*
%TO.P,R22,2*%
%TO.N,+12V*%
X578556000Y-349964500D03*
%TD*%
D15*
%TO.P,D114,1,K*%
%TO.N,SEGR G*%
X628284500Y-392890500D03*
%TO.P,D114,2,A*%
%TO.N,Net-(D113-A)*%
X630634500Y-392890500D03*
%TD*%
D18*
%TO.P,R21,1*%
%TO.N,Net-(D85-A)*%
X642056000Y-419814500D03*
%TO.P,R21,2*%
%TO.N,+12V*%
X640231000Y-419814500D03*
%TD*%
D13*
%TO.P,U38,1,C*%
%TO.N,RE*%
X516302500Y-444135600D03*
%TO.P,U38,2,A*%
%TO.N,R8*%
X516302500Y-445085600D03*
%TO.P,U38,3,C*%
%TO.N,RG*%
X516302500Y-446035600D03*
%TO.P,U38,4,C*%
%TO.N,RC*%
X518852500Y-446035600D03*
%TO.P,U38,5,C*%
%TO.N,RA*%
X518852500Y-444135600D03*
%TD*%
%TO.P,U32,1,C*%
%TO.N,RB*%
X516292500Y-419687500D03*
%TO.P,U32,2,A*%
%TO.N,R7*%
X516292500Y-420637500D03*
%TO.P,U32,3,C*%
%TO.N,unconnected-(U32-C-Pad3)*%
X516292500Y-421587500D03*
%TO.P,U32,4,C*%
%TO.N,RC*%
X518842500Y-421587500D03*
%TO.P,U32,5,C*%
%TO.N,RA*%
X518842500Y-419687500D03*
%TD*%
%TO.P,U36,1,C*%
%TO.N,unconnected-(U36-C-Pad1)*%
X516302500Y-431884500D03*
%TO.P,U36,2,A*%
%TO.N,R2*%
X516302500Y-432834500D03*
%TO.P,U36,3,C*%
%TO.N,unconnected-(U36-C-Pad3)*%
X516302500Y-433784500D03*
%TO.P,U36,4,C*%
%TO.N,RE*%
X518852500Y-433784500D03*
%TO.P,U36,5,C*%
%TO.N,RB*%
X518852500Y-431884500D03*
%TD*%
%TO.P,U34,1,C*%
%TO.N,RD*%
X516292500Y-407754500D03*
%TO.P,U34,2,A*%
%TO.N,R5*%
X516292500Y-408704500D03*
%TO.P,U34,3,C*%
%TO.N,unconnected-(U34-C-Pad3)*%
X516292500Y-409654500D03*
%TO.P,U34,4,C*%
%TO.N,RC*%
X518842500Y-409654500D03*
%TO.P,U34,5,C*%
%TO.N,RF*%
X518842500Y-407754500D03*
%TD*%
D19*
%TO.P,U3,1,I1*%
%TO.N,RA*%
X531988500Y-388191500D03*
%TO.P,U3,2,I2*%
%TO.N,RB*%
X531988500Y-389461500D03*
%TO.P,U3,3,I3*%
%TO.N,RC*%
X531988500Y-390731500D03*
%TO.P,U3,4,I4*%
%TO.N,RD*%
X531988500Y-392001500D03*
%TO.P,U3,5,I5*%
%TO.N,RE*%
X531988500Y-393271500D03*
%TO.P,U3,6,I6*%
%TO.N,RF*%
X531988500Y-394541500D03*
%TO.P,U3,7,I7*%
%TO.N,RG*%
X531988500Y-395811500D03*
%TO.P,U3,8,GND*%
%TO.N,GND*%
X531988500Y-397081500D03*
%TO.P,U3,9,COM*%
%TO.N,unconnected-(U3-COM-Pad9)*%
X536938500Y-397081500D03*
%TO.P,U3,10,O7*%
%TO.N,SEGR G*%
X536938500Y-395811500D03*
%TO.P,U3,11,O6*%
%TO.N,SEGR F*%
X536938500Y-394541500D03*
%TO.P,U3,12,O5*%
%TO.N,SEGR E*%
X536938500Y-393271500D03*
%TO.P,U3,13,O4*%
%TO.N,SEGR D*%
X536938500Y-392001500D03*
%TO.P,U3,14,O3*%
%TO.N,SEGR C*%
X536938500Y-390731500D03*
%TO.P,U3,15,O2*%
%TO.N,SEGR B*%
X536938500Y-389461500D03*
%TO.P,U3,16,O1*%
%TO.N,SEGR A*%
X536938500Y-388191500D03*
%TD*%
D11*
%TO.P,D118,1,K*%
%TO.N,SEGR G*%
X590502500Y-383111500D03*
%TO.P,D118,2,A*%
%TO.N,Net-(D117-A)*%
X588152500Y-383111500D03*
%TD*%
D14*
%TO.P,D15,1,K*%
%TO.N,LED D*%
X660193500Y-250714500D03*
%TO.P,D15,2,A*%
%TO.N,Net-(D15-A)*%
X660193500Y-248364500D03*
%TD*%
D18*
%TO.P,R29,1*%
%TO.N,Net-(D1-A)*%
X555823000Y-248491500D03*
%TO.P,R29,2*%
%TO.N,+12V*%
X553998000Y-248491500D03*
%TD*%
D11*
%TO.P,D68,1,K*%
%TO.N,SEGR A*%
X590502500Y-268684500D03*
%TO.P,D68,2,A*%
%TO.N,Net-(D65-A)*%
X588152500Y-268684500D03*
%TD*%
%TO.P,D89,1,K*%
%TO.N,SEGR D*%
X582628500Y-507317500D03*
%TO.P,D89,2,A*%
%TO.N,Net-(D89-A)*%
X580278500Y-507317500D03*
%TD*%
D15*
%TO.P,D96,1,K*%
%TO.N,SEGR D*%
X612155500Y-507317500D03*
%TO.P,D96,2,A*%
%TO.N,Net-(D93-A)*%
X614505500Y-507317500D03*
%TD*%
D18*
%TO.P,R23,1*%
%TO.N,Net-(D73-A)*%
X642056000Y-349964500D03*
%TO.P,R23,2*%
%TO.N,+12V*%
X640231000Y-349964500D03*
%TD*%
D13*
%TO.P,U25,1,C*%
%TO.N,RG*%
X516297500Y-415875600D03*
%TO.P,U25,2,A*%
%TO.N,R9*%
X516297500Y-416825600D03*
%TO.P,U25,3,C*%
%TO.N,unconnected-(U25-C-Pad3)*%
X516297500Y-417775600D03*
%TO.P,U25,4,C*%
%TO.N,RF*%
X518847500Y-417775600D03*
%TO.P,U25,5,C*%
%TO.N,RB*%
X518847500Y-415875600D03*
%TD*%
D12*
%TO.P,D74,1,K*%
%TO.N,SEGR B*%
X661336500Y-349678500D03*
%TO.P,D74,2,A*%
%TO.N,Net-(D73-A)*%
X661336500Y-352028500D03*
%TD*%
D14*
%TO.P,D88,1,K*%
%TO.N,SEGR C*%
X671623500Y-442452500D03*
%TO.P,D88,2,A*%
%TO.N,Net-(D85-A)*%
X671623500Y-440102500D03*
%TD*%
D15*
%TO.P,D95,1,K*%
%TO.N,SEGR D*%
X620156500Y-497284500D03*
%TO.P,D95,2,A*%
%TO.N,Net-(D93-A)*%
X622506500Y-497284500D03*
%TD*%
D14*
%TO.P,D79,1,K*%
%TO.N,SEGR B*%
X661463500Y-320151500D03*
%TO.P,D79,2,A*%
%TO.N,Net-(D77-A)*%
X661463500Y-317801500D03*
%TD*%
%TO.P,D87,1,K*%
%TO.N,SEGR C*%
X661463500Y-434451500D03*
%TO.P,D87,2,A*%
%TO.N,Net-(D85-A)*%
X661463500Y-432101500D03*
%TD*%
D12*
%TO.P,D101,1,K*%
%TO.N,SEGR E*%
X557069500Y-471979500D03*
%TO.P,D101,2,A*%
%TO.N,Net-(D101-A)*%
X557069500Y-474329500D03*
%TD*%
D11*
%TO.P,D120,1,K*%
%TO.N,SEGR G*%
X606504500Y-382984500D03*
%TO.P,D120,2,A*%
%TO.N,Net-(D117-A)*%
X604154500Y-382984500D03*
%TD*%
D12*
%TO.P,D109,1,K*%
%TO.N,SEGR F*%
X557069500Y-357806500D03*
%TO.P,D109,2,A*%
%TO.N,Net-(D109-A)*%
X557069500Y-360156500D03*
%TD*%
%TO.P,D82,1,K*%
%TO.N,SEGR C*%
X661336500Y-464105500D03*
%TO.P,D82,2,A*%
%TO.N,Net-(D81-A)*%
X661336500Y-466455500D03*
%TD*%
D16*
%TO.P,R32,1*%
%TO.N,Net-(D15-A)*%
X662964000Y-248237500D03*
%TO.P,R32,2*%
%TO.N,+12V*%
X664789000Y-248237500D03*
%TD*%
D14*
%TO.P,D85,1,K*%
%TO.N,SEGR C*%
X661463500Y-418322500D03*
%TO.P,D85,2,A*%
%TO.N,Net-(D85-A)*%
X661463500Y-415972500D03*
%TD*%
%TO.P,D97,1,K*%
%TO.N,SEGR E*%
X547036500Y-418322500D03*
%TO.P,D97,2,A*%
%TO.N,Net-(D100-A)*%
X547036500Y-415972500D03*
%TD*%
D18*
%TO.P,R26,1*%
%TO.N,Net-(D77-A)*%
X642056000Y-311864500D03*
%TO.P,R26,2*%
%TO.N,+12V*%
X640231000Y-311864500D03*
%TD*%
D20*
%TO.P,U4,1,S4*%
%TO.N,R4*%
X525567500Y-377650500D03*
%TO.P,U4,2,S2*%
%TO.N,R2*%
X525567500Y-376380500D03*
%TO.P,U4,3,S0*%
%TO.N,R0*%
X525567500Y-375110500D03*
%TO.P,U4,4,S7*%
%TO.N,R7*%
X525567500Y-373840500D03*
%TO.P,U4,5,S9*%
%TO.N,R9*%
X525567500Y-372570500D03*
%TO.P,U4,6,S5*%
%TO.N,R5*%
X525567500Y-371300500D03*
%TO.P,U4,7,S6*%
%TO.N,R6*%
X525567500Y-370030500D03*
%TO.P,U4,8,VSS*%
%TO.N,GND*%
X525567500Y-368760500D03*
%TO.P,U4,9,S8*%
%TO.N,R8*%
X518467500Y-368760500D03*
%TO.P,U4,10,A*%
%TO.N,RI0*%
X518467500Y-370030500D03*
%TO.P,U4,11,D*%
%TO.N,RI3*%
X518467500Y-371300500D03*
%TO.P,U4,12,C*%
%TO.N,RI2*%
X518467500Y-372570500D03*
%TO.P,U4,13,B*%
%TO.N,RI1*%
X518467500Y-373840500D03*
%TO.P,U4,14,S1*%
%TO.N,R1*%
X518467500Y-375110500D03*
%TO.P,U4,15,S3*%
%TO.N,R3*%
X518467500Y-376380500D03*
%TO.P,U4,16,VDD*%
%TO.N,+12V*%
X518467500Y-377650500D03*
%TD*%
D15*
%TO.P,D115,1,K*%
%TO.N,SEGR G*%
X620156500Y-383111500D03*
%TO.P,D115,2,A*%
%TO.N,Net-(D113-A)*%
X622506500Y-383111500D03*
%TD*%
D11*
%TO.P,D119,1,K*%
%TO.N,SEGR G*%
X598503500Y-392890500D03*
%TO.P,D119,2,A*%
%TO.N,Net-(D117-A)*%
X596153500Y-392890500D03*
%TD*%
D12*
%TO.P,D112,1,K*%
%TO.N,SEGR F*%
X547290500Y-333676500D03*
%TO.P,D112,2,A*%
%TO.N,Net-(D109-A)*%
X547290500Y-336026500D03*
%TD*%
%TO.P,D111,1,K*%
%TO.N,SEGR F*%
X557323500Y-341804500D03*
%TO.P,D111,2,A*%
%TO.N,Net-(D109-A)*%
X557323500Y-344154500D03*
%TD*%
D18*
%TO.P,R18,1*%
%TO.N,Net-(D81-A)*%
X642056000Y-470614500D03*
%TO.P,R18,2*%
%TO.N,+12V*%
X640231000Y-470614500D03*
%TD*%
D11*
%TO.P,D65,1,K*%
%TO.N,SEGR A*%
X582501500Y-278844500D03*
%TO.P,D65,2,A*%
%TO.N,Net-(D65-A)*%
X580151500Y-278844500D03*
%TD*%
D19*
%TO.P,U39,1,I1*%
%TO.N,LEDA*%
X518907500Y-350472500D03*
%TO.P,U39,2,I2*%
%TO.N,LEDB*%
X518907500Y-351742500D03*
%TO.P,U39,3,I3*%
%TO.N,LEDC*%
X518907500Y-353012500D03*
%TO.P,U39,4,I4*%
%TO.N,LEDD*%
X518907500Y-354282500D03*
%TO.P,U39,5,I5*%
%TO.N,unconnected-(U39-I5-Pad5)*%
X518907500Y-355552500D03*
%TO.P,U39,6,I6*%
%TO.N,unconnected-(U39-I6-Pad6)*%
X518907500Y-356822500D03*
%TO.P,U39,7,I7*%
%TO.N,unconnected-(U39-I7-Pad7)*%
X518907500Y-358092500D03*
%TO.P,U39,8,GND*%
%TO.N,GND*%
X518907500Y-359362500D03*
%TO.P,U39,9,COM*%
%TO.N,unconnected-(U39-COM-Pad9)*%
X523857500Y-359362500D03*
%TO.P,U39,10,O7*%
%TO.N,unconnected-(U39-O7-Pad10)*%
X523857500Y-358092500D03*
%TO.P,U39,11,O6*%
%TO.N,unconnected-(U39-O6-Pad11)*%
X523857500Y-356822500D03*
%TO.P,U39,12,O5*%
%TO.N,unconnected-(U39-O5-Pad12)*%
X523857500Y-355552500D03*
%TO.P,U39,13,O4*%
%TO.N,LED D*%
X523857500Y-354282500D03*
%TO.P,U39,14,O3*%
%TO.N,LED C*%
X523857500Y-353012500D03*
%TO.P,U39,15,O2*%
%TO.N,LED B*%
X523857500Y-351742500D03*
%TO.P,U39,16,O1*%
%TO.N,LED A*%
X523857500Y-350472500D03*
%TD*%
D13*
%TO.P,U23,1,C*%
%TO.N,RC*%
X516302500Y-456329500D03*
%TO.P,U23,2,A*%
%TO.N,R3*%
X516302500Y-457279500D03*
%TO.P,U23,3,C*%
%TO.N,unconnected-(U23-C-Pad3)*%
X516302500Y-458229500D03*
%TO.P,U23,4,C*%
%TO.N,RD*%
X518852500Y-458229500D03*
%TO.P,U23,5,C*%
%TO.N,RB*%
X518852500Y-456329500D03*
%TD*%
D12*
%TO.P,D102,1,K*%
%TO.N,SEGR E*%
X547036500Y-463978500D03*
%TO.P,D102,2,A*%
%TO.N,Net-(D101-A)*%
X547036500Y-466328500D03*
%TD*%
D14*
%TO.P,D106,1,K*%
%TO.N,SEGR F*%
X557196500Y-312023500D03*
%TO.P,D106,2,A*%
%TO.N,Net-(D105-A)*%
X557196500Y-309673500D03*
%TD*%
D15*
%TO.P,D71,1,K*%
%TO.N,SEGR A*%
X628284500Y-278844500D03*
%TO.P,D71,2,A*%
%TO.N,Net-(D69-A)*%
X630634500Y-278844500D03*
%TD*%
D13*
%TO.P,U37,1,C*%
%TO.N,unconnected-(U37-C-Pad1)*%
X516419500Y-403690500D03*
%TO.P,U37,2,A*%
%TO.N,R5*%
X516419500Y-404640500D03*
%TO.P,U37,3,C*%
%TO.N,unconnected-(U37-C-Pad3)*%
X516419500Y-405590500D03*
%TO.P,U37,4,C*%
%TO.N,RG*%
X518969500Y-405590500D03*
%TO.P,U37,5,C*%
%TO.N,RA*%
X518969500Y-403690500D03*
%TD*%
D16*
%TO.P,R30,1*%
%TO.N,Net-(D11-A)*%
X634770000Y-524462500D03*
%TO.P,R30,2*%
%TO.N,+12V*%
X636595000Y-524462500D03*
%TD*%
D10*
%TO.P,R28,1*%
%TO.N,Net-(D117-A)*%
X583993500Y-363577000D03*
%TO.P,R28,2*%
%TO.N,+12V*%
X583993500Y-361752000D03*
%TD*%
D11*
%TO.P,D117,1,K*%
%TO.N,SEGR G*%
X582501500Y-393144500D03*
%TO.P,D117,2,A*%
%TO.N,Net-(D117-A)*%
X580151500Y-393144500D03*
%TD*%
D14*
%TO.P,D1,1,K*%
%TO.N,LED A*%
X558593500Y-250714500D03*
%TO.P,D1,2,A*%
%TO.N,Net-(D1-A)*%
X558593500Y-248364500D03*
%TD*%
D11*
%TO.P,D92,1,K*%
%TO.N,SEGR D*%
X606631500Y-497284500D03*
%TO.P,D92,2,A*%
%TO.N,Net-(D89-A)*%
X604281500Y-497284500D03*
%TD*%
%TO.P,D90,1,K*%
%TO.N,SEGR D*%
X590629500Y-497411500D03*
%TO.P,D90,2,A*%
%TO.N,Net-(D89-A)*%
X588279500Y-497411500D03*
%TD*%
D17*
%TO.P,R20,1*%
%TO.N,Net-(D69-A)*%
X634793500Y-298252000D03*
%TO.P,R20,2*%
%TO.N,+12V*%
X634793500Y-300077000D03*
%TD*%
D14*
%TO.P,D77,1,K*%
%TO.N,SEGR B*%
X661590500Y-304022500D03*
%TO.P,D77,2,A*%
%TO.N,Net-(D77-A)*%
X661590500Y-301672500D03*
%TD*%
%TO.P,D105,1,K*%
%TO.N,SEGR F*%
X547163500Y-304149500D03*
%TO.P,D105,2,A*%
%TO.N,Net-(D105-A)*%
X547163500Y-301799500D03*
%TD*%
D12*
%TO.P,D83,1,K*%
%TO.N,SEGR C*%
X671623500Y-455850500D03*
%TO.P,D83,2,A*%
%TO.N,Net-(D81-A)*%
X671623500Y-458200500D03*
%TD*%
%TO.P,D75,1,K*%
%TO.N,SEGR B*%
X671750500Y-341677500D03*
%TO.P,D75,2,A*%
%TO.N,Net-(D73-A)*%
X671750500Y-344027500D03*
%TD*%
D14*
%TO.P,D11,1,K*%
%TO.N,LED B*%
X634793500Y-530114500D03*
%TO.P,D11,2,A*%
%TO.N,Net-(D11-A)*%
X634793500Y-527764500D03*
%TD*%
%TO.P,D86,1,K*%
%TO.N,SEGR C*%
X671496500Y-426323500D03*
%TO.P,D86,2,A*%
%TO.N,Net-(D85-A)*%
X671496500Y-423973500D03*
%TD*%
D13*
%TO.P,U27,1,C*%
%TO.N,unconnected-(U27-C-Pad1)*%
X516302500Y-460647500D03*
%TO.P,U27,2,A*%
%TO.N,R3*%
X516302500Y-461597500D03*
%TO.P,U27,3,C*%
%TO.N,unconnected-(U27-C-Pad3)*%
X516302500Y-462547500D03*
%TO.P,U27,4,C*%
%TO.N,RG*%
X518852500Y-462547500D03*
%TO.P,U27,5,C*%
%TO.N,RA*%
X518852500Y-460647500D03*
%TD*%
D14*
%TO.P,D80,1,K*%
%TO.N,SEGR B*%
X671496500Y-328152500D03*
%TO.P,D80,2,A*%
%TO.N,Net-(D77-A)*%
X671496500Y-325802500D03*
%TD*%
%TO.P,D78,1,K*%
%TO.N,SEGR B*%
X671623500Y-312023500D03*
%TO.P,D78,2,A*%
%TO.N,Net-(D77-A)*%
X671623500Y-309673500D03*
%TD*%
D11*
%TO.P,D66,1,K*%
%TO.N,SEGR A*%
X598630500Y-278844500D03*
%TO.P,D66,2,A*%
%TO.N,Net-(D65-A)*%
X596280500Y-278844500D03*
%TD*%
D12*
%TO.P,D103,1,K*%
%TO.N,SEGR E*%
X557323500Y-455977500D03*
%TO.P,D103,2,A*%
%TO.N,Net-(D101-A)*%
X557323500Y-458327500D03*
%TD*%
D15*
%TO.P,D116,1,K*%
%TO.N,SEGR G*%
X612123500Y-392890500D03*
%TO.P,D116,2,A*%
%TO.N,Net-(D113-A)*%
X614473500Y-392890500D03*
%TD*%
D14*
%TO.P,D99,1,K*%
%TO.N,SEGR E*%
X547163500Y-434451500D03*
%TO.P,D99,2,A*%
%TO.N,Net-(D100-A)*%
X547163500Y-432101500D03*
%TD*%
D16*
%TO.P,R19,1*%
%TO.N,Net-(D105-A)*%
X576731000Y-311864500D03*
%TO.P,R19,2*%
%TO.N,+12V*%
X578556000Y-311864500D03*
%TD*%
D12*
%TO.P,D110,1,K*%
%TO.N,SEGR F*%
X547163500Y-349678500D03*
%TO.P,D110,2,A*%
%TO.N,Net-(D109-A)*%
X547163500Y-352028500D03*
%TD*%
D13*
%TO.P,U29,1,C*%
%TO.N,unconnected-(U29-C-Pad1)*%
X516297500Y-411689600D03*
%TO.P,U29,2,A*%
%TO.N,R9*%
X516297500Y-412639600D03*
%TO.P,U29,3,C*%
%TO.N,unconnected-(U29-C-Pad3)*%
X516297500Y-413589600D03*
%TO.P,U29,4,C*%
%TO.N,RC*%
X518847500Y-413589600D03*
%TO.P,U29,5,C*%
%TO.N,RA*%
X518847500Y-411689600D03*
%TD*%
D21*
%TO.P,J2,1,Pin_1*%
%TO.N,+12V*%
X531288500Y-296116500D03*
D22*
%TO.P,J2,2,Pin_2*%
%TO.N,GND*%
X531288500Y-291036500D03*
%TD*%
D23*
%TO.P,J1,1,Pin_1*%
%TO.N,LI0*%
X515413500Y-309324500D03*
D24*
%TO.P,J1,2,Pin_2*%
%TO.N,LI1*%
X512873500Y-309324500D03*
%TO.P,J1,3,Pin_3*%
%TO.N,LI2*%
X515413500Y-311864500D03*
%TO.P,J1,4,Pin_4*%
%TO.N,LI3*%
X512873500Y-311864500D03*
%TO.P,J1,5,Pin_5*%
%TO.N,RI0*%
X515413500Y-314404500D03*
%TO.P,J1,6,Pin_6*%
%TO.N,RI1*%
X512873500Y-314404500D03*
%TO.P,J1,7,Pin_7*%
%TO.N,RI2*%
X515413500Y-316944500D03*
%TO.P,J1,8,Pin_8*%
%TO.N,RI3*%
X512873500Y-316944500D03*
%TO.P,J1,9,Pin_9*%
%TO.N,LEDE*%
X515413500Y-319484500D03*
%TO.P,J1,10,Pin_10*%
%TO.N,LEDF*%
X512873500Y-319484500D03*
%TO.P,J1,11,Pin_11*%
%TO.N,LEDG*%
X515413500Y-322024500D03*
%TO.P,J1,12,Pin_12*%
%TO.N,LEDH*%
X512873500Y-322024500D03*
%TO.P,J1,13,Pin_13*%
%TO.N,LEDA*%
X515413500Y-324564500D03*
%TO.P,J1,14,Pin_14*%
%TO.N,LEDB*%
X512873500Y-324564500D03*
%TO.P,J1,15,Pin_15*%
%TO.N,LEDC*%
X515413500Y-327104500D03*
%TO.P,J1,16,Pin_16*%
%TO.N,LEDD*%
X512873500Y-327104500D03*
%TD*%
D21*
%TO.P,J4,1,Pin_1*%
%TO.N,+12V*%
X531161500Y-281638500D03*
D22*
%TO.P,J4,2,Pin_2*%
%TO.N,GND*%
X531161500Y-276558500D03*
%TD*%
D25*
%TO.P,J3,1,Pin_1*%
%TO.N,unconnected-(J3-Pin_1-Pad1)*%
X512873500Y-295354500D03*
D24*
%TO.P,J3,2,Pin_2*%
%TO.N,unconnected-(J3-Pin_2-Pad2)*%
X515413500Y-295354500D03*
%TO.P,J3,3,Pin_3*%
%TO.N,unconnected-(J3-Pin_3-Pad3)*%
X512873500Y-292814500D03*
%TO.P,J3,4,Pin_4*%
%TO.N,unconnected-(J3-Pin_4-Pad4)*%
X515413500Y-292814500D03*
%TO.P,J3,5,Pin_5*%
%TO.N,LI0*%
X512873500Y-290274500D03*
%TO.P,J3,6,Pin_6*%
%TO.N,LI1*%
X515413500Y-290274500D03*
%TO.P,J3,7,Pin_7*%
%TO.N,LI2*%
X512873500Y-287734500D03*
%TO.P,J3,8,Pin_8*%
%TO.N,LI3*%
X515413500Y-287734500D03*
%TO.P,J3,9,Pin_9*%
%TO.N,unconnected-(J3-Pin_9-Pad9)*%
X512873500Y-285194500D03*
%TO.P,J3,10,Pin_10*%
%TO.N,unconnected-(J3-Pin_10-Pad10)*%
X515413500Y-285194500D03*
%TO.P,J3,11,Pin_11*%
%TO.N,unconnected-(J3-Pin_11-Pad11)*%
X512873500Y-282654500D03*
%TO.P,J3,12,Pin_12*%
%TO.N,unconnected-(J3-Pin_12-Pad12)*%
X515413500Y-282654500D03*
%TO.P,J3,13,Pin_13*%
%TO.N,LEDE*%
X512873500Y-280114500D03*
%TO.P,J3,14,Pin_14*%
%TO.N,LEDF*%
X515413500Y-280114500D03*
%TO.P,J3,15,Pin_15*%
%TO.N,LEDG*%
X512873500Y-277574500D03*
%TO.P,J3,16,Pin_16*%
%TO.N,LEDH*%
X515413500Y-277574500D03*
%TD*%
D26*
%TO.N,LED B*%
X565070500Y-375364500D03*
X527732500Y-351869500D03*
%TO.N,SEGR B*%
X654986500Y-316690500D03*
X566594500Y-365077500D03*
%TO.N,SEGR C*%
X566213500Y-398224500D03*
X647874500Y-426545500D03*
%TO.N,SEGR D*%
X629586500Y-482171500D03*
X564943500Y-399494500D03*
%TO.N,SEGR E*%
X572817500Y-465788500D03*
X563673500Y-400764500D03*
%TO.N,SEGR F*%
X542718500Y-394541500D03*
X573325500Y-345392500D03*
%TO.N,SEGR G*%
X542718500Y-395811500D03*
X576881500Y-400256500D03*
%TO.N,+12V*%
X545893500Y-248364500D03*
X514143500Y-381714500D03*
X558593500Y-387810500D03*
X554783500Y-381714500D03*
X558593500Y-376253500D03*
%TO.N,GND*%
X528113500Y-363934500D03*
X517064500Y-360505500D03*
%TO.N,RA*%
X515921500Y-426672500D03*
X521763500Y-426672500D03*
%TO.N,RB*%
X523033500Y-427815500D03*
X520493500Y-456390500D03*
X520493500Y-452199500D03*
X523033500Y-452199500D03*
X523033500Y-418798500D03*
X523033500Y-431879500D03*
X520493500Y-440134500D03*
X520493500Y-415877500D03*
X520493500Y-431879500D03*
X519731500Y-418798500D03*
X523033500Y-440134500D03*
X520493500Y-427815500D03*
X523033500Y-456390500D03*
X523033500Y-448262500D03*
X520493500Y-448262500D03*
X523033500Y-415877500D03*
%TO.N,RC*%
X524303500Y-409654500D03*
X524303500Y-454104500D03*
X520493500Y-446103500D03*
X524303500Y-430609500D03*
X520493500Y-421592500D03*
X519223500Y-438991500D03*
X524303500Y-397970500D03*
X524303500Y-438991500D03*
X520493500Y-409654500D03*
X524303500Y-421592500D03*
X524303500Y-446103500D03*
X520493500Y-454104500D03*
X520493500Y-397589500D03*
X520493500Y-413591500D03*
X519731500Y-430609500D03*
%TO.N,RD*%
X525573500Y-450167500D03*
X520493500Y-401653500D03*
X515794500Y-406733500D03*
X525573500Y-458295500D03*
X520493500Y-429720500D03*
X525573500Y-401653500D03*
X525573500Y-435054500D03*
X525573500Y-429720500D03*
X520239500Y-458295500D03*
X525573500Y-406733500D03*
X515667500Y-435054500D03*
X520493500Y-450167500D03*
%TO.N,RE*%
X529129500Y-395684500D03*
X526843500Y-433784500D03*
X526843500Y-443182500D03*
X520493500Y-433784500D03*
X520493500Y-423624500D03*
X520493500Y-395684500D03*
X519477500Y-443182500D03*
X526843500Y-423624500D03*
%TO.N,RF*%
X520493500Y-417782500D03*
X528113500Y-399748500D03*
X520493500Y-399748500D03*
X520493500Y-407749500D03*
X515413500Y-449405500D03*
X528113500Y-441023500D03*
X528113500Y-425529500D03*
X528113500Y-417782500D03*
X519604500Y-441023500D03*
X528113500Y-407749500D03*
X520493500Y-425529500D03*
X528113500Y-449405500D03*
%TO.N,RG*%
X520493500Y-437848500D03*
X529383500Y-398351500D03*
X529383500Y-442039500D03*
X529383500Y-437848500D03*
X515794500Y-414734500D03*
X529383500Y-447119500D03*
X520493500Y-405590500D03*
X529383500Y-414734500D03*
X520493500Y-442039500D03*
X529383500Y-405590500D03*
X515794500Y-447119500D03*
X516175500Y-398605500D03*
%TO.N,SEGR A*%
X563800500Y-363553500D03*
X591613500Y-291671500D03*
%TO.N,RI2*%
X512873500Y-372570500D03*
%TD*%
D27*
%TO.N,+12V*%
X535940000Y-291465000D02*
X531288500Y-296116500D01*
X535940000Y-286417000D02*
X535940000Y-291465000D01*
X531161500Y-281638500D02*
X535940000Y-286417000D01*
D28*
%TO.N,SEGR B*%
X664257500Y-352599500D02*
X666543500Y-352599500D01*
X661336500Y-349678500D02*
X664257500Y-352599500D01*
%TO.N,SEGR F*%
X555291500Y-357806500D02*
X547163500Y-349678500D01*
X557069500Y-357806500D02*
X555291500Y-357806500D01*
D27*
%TO.N,+12V*%
X577088000Y-477901000D02*
X581465250Y-473523750D01*
X584268500Y-522038500D02*
X577088000Y-514858000D01*
X585795000Y-523151578D02*
X584681922Y-522038500D01*
X577088000Y-514858000D02*
X577088000Y-477901000D01*
X585795000Y-523573500D02*
X585795000Y-523151578D01*
X584681922Y-522038500D02*
X584268500Y-522038500D01*
X641096000Y-518969000D02*
X641096000Y-477171000D01*
X636595000Y-523470000D02*
X641096000Y-518969000D01*
X636595000Y-524462500D02*
X636595000Y-523470000D01*
X641096000Y-477171000D02*
X637385250Y-473460250D01*
D28*
%TO.N,SEGR G*%
X620156500Y-383111500D02*
X614600500Y-383111500D01*
X614600500Y-383111500D02*
X609647500Y-388064500D01*
%TO.N,LED D*%
X554635645Y-252926591D02*
X557990236Y-249572000D01*
X523805409Y-252926591D02*
X554635645Y-252926591D01*
X659051000Y-249572000D02*
X660193500Y-250714500D01*
X522365000Y-254367000D02*
X523805409Y-252926591D01*
X557990236Y-249572000D02*
X659051000Y-249572000D01*
X522962000Y-354282500D02*
X522365000Y-353685500D01*
X522365000Y-353685500D02*
X522365000Y-254367000D01*
X523857500Y-354282500D02*
X522962000Y-354282500D01*
%TO.N,LED A*%
X525063500Y-260050500D02*
X549257500Y-260050500D01*
X523857500Y-261256500D02*
X525063500Y-260050500D01*
X549257500Y-260050500D02*
X558593500Y-250714500D01*
X523857500Y-350472500D02*
X523857500Y-261256500D01*
%TO.N,Net-(D1-A)*%
X558593500Y-248364500D02*
X555950000Y-248364500D01*
X555950000Y-248364500D02*
X555823000Y-248491500D01*
%TO.N,LED B*%
X527732500Y-351869500D02*
X523984500Y-351869500D01*
X673399000Y-514688381D02*
X673399000Y-424130236D01*
X664098764Y-414830000D02*
X587115882Y-414830000D01*
X523984500Y-351869500D02*
X523857500Y-351742500D01*
X634793500Y-530114500D02*
X657972881Y-530114500D01*
X657972881Y-530114500D02*
X673399000Y-514688381D01*
X587115882Y-414830000D02*
X565070500Y-392784618D01*
X565070500Y-392784618D02*
X565070500Y-375364500D01*
X673399000Y-424130236D02*
X664098764Y-414830000D01*
%TO.N,Net-(D11-A)*%
X634793500Y-527764500D02*
X634793500Y-524486000D01*
X634793500Y-524486000D02*
X634770000Y-524462500D01*
%TO.N,LED C*%
X524506488Y-353012500D02*
X523857500Y-353012500D01*
X558593500Y-530114500D02*
X542255959Y-513776959D01*
X542255959Y-513776959D02*
X542255959Y-404317947D01*
X583993500Y-530114500D02*
X558593500Y-530114500D01*
X535446000Y-363952012D02*
X524506488Y-353012500D01*
X542255959Y-404317947D02*
X535446000Y-397507988D01*
X535446000Y-397507988D02*
X535446000Y-363952012D01*
%TO.N,Net-(D13-A)*%
X583970000Y-523573500D02*
X583970000Y-527741000D01*
X583970000Y-527741000D02*
X583993500Y-527764500D01*
%TO.N,Net-(D15-A)*%
X660193500Y-248364500D02*
X662837000Y-248364500D01*
X662837000Y-248364500D02*
X662964000Y-248237500D01*
%TO.N,Net-(D65-A)*%
X588152500Y-268684500D02*
X589220000Y-267617000D01*
X603087000Y-267617000D02*
X604154500Y-268684500D01*
X583993500Y-282686500D02*
X580151500Y-278844500D01*
X589220000Y-267617000D02*
X603087000Y-267617000D01*
X583993500Y-282686500D02*
X592438500Y-282686500D01*
X592438500Y-282686500D02*
X596280500Y-278844500D01*
X580151500Y-278844500D02*
X580151500Y-276685500D01*
X583993500Y-298252000D02*
X583993500Y-282686500D01*
X580151500Y-276685500D02*
X588152500Y-268684500D01*
%TO.N,Net-(D69-A)*%
X634793500Y-283003500D02*
X630634500Y-278844500D01*
X637695000Y-267617000D02*
X623828000Y-267617000D01*
X634793500Y-298252000D02*
X634793500Y-283003500D01*
X638762500Y-268684500D02*
X637695000Y-267617000D01*
X630634500Y-278844500D02*
X638762500Y-270716500D01*
X638762500Y-270716500D02*
X638762500Y-268684500D01*
X634793500Y-283003500D02*
X618791500Y-283003500D01*
X623828000Y-267617000D02*
X622760500Y-268684500D01*
X618791500Y-283003500D02*
X614632500Y-278844500D01*
%TO.N,SEGR B*%
X671623500Y-312023500D02*
X666543500Y-317103500D01*
X666543500Y-328755500D02*
X666543500Y-328247500D01*
X666543500Y-317103500D02*
X666543500Y-328755500D01*
X536938500Y-389461500D02*
X542591500Y-389461500D01*
X566594500Y-365458500D02*
X542591500Y-389461500D01*
X661590500Y-304022500D02*
X666543500Y-308975500D01*
X566594500Y-365077500D02*
X566594500Y-365458500D01*
X661463500Y-333327500D02*
X666543500Y-328247500D01*
X661209500Y-322913500D02*
X654986500Y-316690500D01*
X666543500Y-334470500D02*
X666543500Y-328755500D01*
X661463500Y-333676500D02*
X661463500Y-333327500D01*
X661463500Y-320151500D02*
X661463500Y-322659500D01*
X661463500Y-323167500D02*
X661844500Y-323548500D01*
X661463500Y-322659500D02*
X661209500Y-322913500D01*
X671496500Y-328152500D02*
X666638500Y-328152500D01*
X666543500Y-308975500D02*
X666543500Y-317103500D01*
X666543500Y-336470500D02*
X666543500Y-334470500D01*
X666543500Y-328247500D02*
X661844500Y-323548500D01*
X671750500Y-341677500D02*
X666543500Y-336470500D01*
X661844500Y-323548500D02*
X661209500Y-322913500D01*
X671623500Y-357679500D02*
X666543500Y-352599500D01*
X661463500Y-320151500D02*
X661463500Y-323167500D01*
X666638500Y-328152500D02*
X666543500Y-328247500D01*
X666543500Y-352599500D02*
X666543500Y-334470500D01*
%TO.N,Net-(D73-A)*%
X671623500Y-360029500D02*
X672691000Y-358962000D01*
X672691000Y-344968000D02*
X671750500Y-344027500D01*
X659272500Y-349964500D02*
X661336500Y-352028500D01*
X661336500Y-352028500D02*
X669337500Y-360029500D01*
X642056000Y-349964500D02*
X659272500Y-349964500D01*
X672691000Y-358962000D02*
X672691000Y-344968000D01*
X669337500Y-360029500D02*
X671623500Y-360029500D01*
X659272500Y-338217500D02*
X661463500Y-336026500D01*
X659272500Y-349964500D02*
X659272500Y-338217500D01*
%TO.N,Net-(D77-A)*%
X672691000Y-310741000D02*
X672691000Y-324608000D01*
X642056000Y-311864500D02*
X651398500Y-311864500D01*
X651398500Y-311864500D02*
X661590500Y-301672500D01*
X672691000Y-324608000D02*
X671496500Y-325802500D01*
X655526500Y-311864500D02*
X661463500Y-317801500D01*
X671623500Y-309673500D02*
X672691000Y-310741000D01*
X651398500Y-311864500D02*
X655526500Y-311864500D01*
X661590500Y-301672500D02*
X663622500Y-301672500D01*
X663622500Y-301672500D02*
X671623500Y-309673500D01*
%TO.N,SEGR C*%
X662860500Y-441531500D02*
X647874500Y-426545500D01*
X661463500Y-440134500D02*
X662860500Y-441531500D01*
X661336500Y-461724500D02*
X666543500Y-456517500D01*
X671369500Y-471979500D02*
X666543500Y-467153500D01*
X558720500Y-390731500D02*
X536938500Y-390731500D01*
X671496500Y-426323500D02*
X666543500Y-431276500D01*
X666543500Y-431276500D02*
X666543500Y-445214500D01*
X669305500Y-442452500D02*
X666543500Y-445214500D01*
X661463500Y-418322500D02*
X661463500Y-426196500D01*
X666543500Y-445214500D02*
X662860500Y-441531500D01*
X661463500Y-447976500D02*
X663781500Y-447976500D01*
X671623500Y-455850500D02*
X671623500Y-450294500D01*
X663781500Y-447976500D02*
X666543500Y-445214500D01*
X666543500Y-456517500D02*
X666543500Y-445214500D01*
X661463500Y-434451500D02*
X661463500Y-440134500D01*
X671623500Y-442452500D02*
X669305500Y-442452500D01*
X671623500Y-450294500D02*
X666543500Y-445214500D01*
X566213500Y-398224500D02*
X558720500Y-390731500D01*
X661463500Y-426196500D02*
X666543500Y-431276500D01*
X661336500Y-464105500D02*
X661336500Y-461724500D01*
X666543500Y-467153500D02*
X666543500Y-456517500D01*
%TO.N,Net-(D81-A)*%
X642056000Y-470614500D02*
X657177500Y-470614500D01*
X672437000Y-459014000D02*
X671623500Y-458200500D01*
X657177500Y-470614500D02*
X661336500Y-466455500D01*
X669210500Y-474329500D02*
X671369500Y-474329500D01*
X671369500Y-474329500D02*
X672437000Y-473262000D01*
X661336500Y-466455500D02*
X669210500Y-474329500D01*
X657177500Y-454612500D02*
X661463500Y-450326500D01*
X672437000Y-473262000D02*
X672437000Y-459014000D01*
X657177500Y-470614500D02*
X657177500Y-454612500D01*
%TO.N,Net-(D85-A)*%
X657621500Y-428259500D02*
X661463500Y-432101500D01*
X663495500Y-415972500D02*
X671496500Y-423973500D01*
X672564000Y-439162000D02*
X671623500Y-440102500D01*
X672564000Y-425041000D02*
X672564000Y-439162000D01*
X657621500Y-419814500D02*
X657621500Y-428259500D01*
X661463500Y-415972500D02*
X663495500Y-415972500D01*
X671496500Y-423973500D02*
X672564000Y-425041000D01*
X657621500Y-419814500D02*
X661463500Y-415972500D01*
X642056000Y-419814500D02*
X657621500Y-419814500D01*
%TO.N,SEGR D*%
X593391500Y-502364500D02*
X609139500Y-502364500D01*
X609393500Y-500046500D02*
X609393500Y-502364500D01*
X628157500Y-507444500D02*
X623077500Y-502364500D01*
X628157500Y-497284500D02*
X623077500Y-502364500D01*
X615616500Y-496141500D02*
X629586500Y-482171500D01*
X557450500Y-392001500D02*
X536938500Y-392001500D01*
X590629500Y-497411500D02*
X590629500Y-499602500D01*
X609139500Y-502364500D02*
X609393500Y-502364500D01*
X590629500Y-499602500D02*
X593391500Y-502364500D01*
X606631500Y-497284500D02*
X609393500Y-500046500D01*
X587581500Y-502364500D02*
X593391500Y-502364500D01*
X616759500Y-497284500D02*
X615616500Y-496141500D01*
X582628500Y-507317500D02*
X587581500Y-502364500D01*
X612155500Y-505380500D02*
X609139500Y-502364500D01*
X564943500Y-399494500D02*
X557450500Y-392001500D01*
X636158500Y-497284500D02*
X628157500Y-497284500D01*
X620156500Y-497284500D02*
X616759500Y-497284500D01*
X623077500Y-502364500D02*
X609139500Y-502364500D01*
X610282500Y-501475500D02*
X615616500Y-496141500D01*
X609393500Y-502364500D02*
X610282500Y-501475500D01*
X598630500Y-507317500D02*
X604440500Y-507317500D01*
X612155500Y-507317500D02*
X612155500Y-505380500D01*
X604440500Y-507317500D02*
X610282500Y-501475500D01*
%TO.N,Net-(D89-A)*%
X583993500Y-493125500D02*
X600122500Y-493125500D01*
X595213000Y-508385000D02*
X596280500Y-507317500D01*
X580278500Y-507317500D02*
X581346000Y-508385000D01*
X583993500Y-493125500D02*
X580278500Y-496840500D01*
X580278500Y-496840500D02*
X580278500Y-507317500D01*
X583993500Y-477877000D02*
X583993500Y-493125500D01*
X581346000Y-508385000D02*
X595213000Y-508385000D01*
X583993500Y-493125500D02*
X588279500Y-497411500D01*
X600122500Y-493125500D02*
X604281500Y-497284500D01*
%TO.N,Net-(D93-A)*%
X638508500Y-497284500D02*
X638508500Y-499443500D01*
X629440000Y-508512000D02*
X615700000Y-508512000D01*
X634793500Y-493569500D02*
X638508500Y-497284500D01*
X630507500Y-507444500D02*
X629440000Y-508512000D01*
X634793500Y-477877000D02*
X634793500Y-493569500D01*
X615700000Y-508512000D02*
X614505500Y-507317500D01*
X634793500Y-493569500D02*
X626221500Y-493569500D01*
X626221500Y-493569500D02*
X622506500Y-497284500D01*
X638508500Y-499443500D02*
X630507500Y-507444500D01*
%TO.N,SEGR E*%
X552243500Y-423529500D02*
X552243500Y-434673500D01*
X557196500Y-442452500D02*
X557196500Y-443309500D01*
X547036500Y-448103500D02*
X549354500Y-448103500D01*
X553640500Y-468550500D02*
X553640500Y-456898500D01*
X552243500Y-445214500D02*
X553640500Y-446611500D01*
X552243500Y-434673500D02*
X552243500Y-444833500D01*
X561705000Y-454676000D02*
X572817500Y-465788500D01*
X547036500Y-418322500D02*
X552243500Y-423529500D01*
X553640500Y-446865500D02*
X553640500Y-446611500D01*
X563673500Y-400764500D02*
X556180500Y-393271500D01*
X557323500Y-450294500D02*
X553640500Y-446611500D01*
X556180500Y-393271500D02*
X536938500Y-393271500D01*
X552243500Y-444833500D02*
X552243500Y-445214500D01*
X557323500Y-429593500D02*
X552243500Y-434673500D01*
X557196500Y-443309500D02*
X553640500Y-446865500D01*
X553640500Y-457374500D02*
X553640500Y-456898500D01*
X557323500Y-455977500D02*
X557323500Y-450294500D01*
X553640500Y-456898500D02*
X553640500Y-446865500D01*
X549354500Y-448103500D02*
X552243500Y-445214500D01*
X557323500Y-426323500D02*
X557323500Y-429593500D01*
X552243500Y-439531500D02*
X552243500Y-444833500D01*
X547036500Y-463978500D02*
X553640500Y-457374500D01*
X557069500Y-471979500D02*
X553640500Y-468550500D01*
X553640500Y-446611500D02*
X561705000Y-454676000D01*
X547163500Y-434451500D02*
X552243500Y-439531500D01*
%TO.N,Net-(D100-A)*%
X561482500Y-419814500D02*
X557323500Y-423973500D01*
X557323500Y-423973500D02*
X549322500Y-415972500D01*
X549322500Y-415972500D02*
X547036500Y-415972500D01*
X545969000Y-417040000D02*
X545969000Y-430907000D01*
X545969000Y-430907000D02*
X547163500Y-432101500D01*
X561482500Y-419814500D02*
X561482500Y-435816500D01*
X576731000Y-419814500D02*
X561482500Y-419814500D01*
X547036500Y-415972500D02*
X545969000Y-417040000D01*
X561482500Y-435816500D02*
X557196500Y-440102500D01*
%TO.N,Net-(D101-A)*%
X560784500Y-470614500D02*
X560784500Y-461788500D01*
X560784500Y-470614500D02*
X557069500Y-474329500D01*
X545969000Y-451521000D02*
X547036500Y-450453500D01*
X557069500Y-474329500D02*
X555037500Y-474329500D01*
X555037500Y-474329500D02*
X547036500Y-466328500D01*
X576731000Y-470614500D02*
X560784500Y-470614500D01*
X560784500Y-461788500D02*
X557323500Y-458327500D01*
X545969000Y-465261000D02*
X545969000Y-451521000D01*
X547036500Y-466328500D02*
X545969000Y-465261000D01*
%TO.N,SEGR F*%
X557323500Y-341804500D02*
X557006000Y-341487000D01*
X536938500Y-394541500D02*
X542718500Y-394541500D01*
X557196500Y-312023500D02*
X552497500Y-316722500D01*
X552497500Y-344344500D02*
X552497500Y-330914500D01*
X547163500Y-349678500D02*
X552497500Y-344344500D01*
X552497500Y-325485500D02*
X552497500Y-331041500D01*
X566848500Y-345392500D02*
X573325500Y-345392500D01*
X552497500Y-309483500D02*
X552497500Y-319611500D01*
X552497500Y-319611500D02*
X552497500Y-330914500D01*
X557006000Y-336883500D02*
X557006000Y-335550000D01*
X557006000Y-341487000D02*
X557006000Y-336883500D01*
X557323500Y-328152500D02*
X557323500Y-336566000D01*
X552497500Y-330914500D02*
X552497500Y-331041500D01*
X547036500Y-320024500D02*
X552497500Y-325485500D01*
X557323500Y-336566000D02*
X557006000Y-336883500D01*
X547163500Y-304149500D02*
X552497500Y-309483500D01*
X552497500Y-316722500D02*
X552497500Y-319611500D01*
X552497500Y-331041500D02*
X557006000Y-335550000D01*
X557006000Y-335550000D02*
X566848500Y-345392500D01*
X549735500Y-333676500D02*
X552497500Y-330914500D01*
X547290500Y-333676500D02*
X549735500Y-333676500D01*
%TO.N,Net-(D105-A)*%
X557196500Y-309673500D02*
X549322500Y-301799500D01*
X546096000Y-316734000D02*
X547036500Y-317674500D01*
X547163500Y-301799500D02*
X546096000Y-302867000D01*
X559387500Y-311864500D02*
X559387500Y-323738500D01*
X546096000Y-302867000D02*
X546096000Y-316734000D01*
X576731000Y-311864500D02*
X559387500Y-311864500D01*
X559387500Y-323738500D02*
X557323500Y-325802500D01*
X549322500Y-301799500D02*
X547163500Y-301799500D01*
X559387500Y-311864500D02*
X557196500Y-309673500D01*
%TO.N,Net-(D109-A)*%
X555291500Y-360156500D02*
X547163500Y-352028500D01*
X546096000Y-337221000D02*
X547290500Y-336026500D01*
X567261500Y-349964500D02*
X561276500Y-355949500D01*
X576731000Y-349964500D02*
X567261500Y-349964500D01*
X547163500Y-352028500D02*
X546096000Y-350961000D01*
X557323500Y-344154500D02*
X561276500Y-348107500D01*
X561276500Y-355949500D02*
X557069500Y-360156500D01*
X546096000Y-350961000D02*
X546096000Y-337221000D01*
X561276500Y-348107500D02*
X561276500Y-355949500D01*
X557069500Y-360156500D02*
X555291500Y-360156500D01*
%TO.N,SEGR G*%
X628284500Y-392890500D02*
X627300500Y-392890500D01*
X622474500Y-388064500D02*
X609647500Y-388064500D01*
X587581500Y-388064500D02*
X595423500Y-388064500D01*
X636412500Y-382984500D02*
X631332500Y-388064500D01*
X590502500Y-383143500D02*
X595423500Y-388064500D01*
X609647500Y-386127500D02*
X609647500Y-388064500D01*
X598503500Y-392890500D02*
X603329500Y-388064500D01*
X582501500Y-393144500D02*
X587581500Y-388064500D01*
X536938500Y-395811500D02*
X542718500Y-395811500D01*
X612123500Y-390540500D02*
X609647500Y-388064500D01*
X597455500Y-400256500D02*
X576881500Y-400256500D01*
X609647500Y-388064500D02*
X597455500Y-400256500D01*
X612123500Y-392890500D02*
X612123500Y-390540500D01*
X595423500Y-388064500D02*
X609647500Y-388064500D01*
X627300500Y-392890500D02*
X622474500Y-388064500D01*
X606504500Y-382984500D02*
X609647500Y-386127500D01*
X603329500Y-388064500D02*
X609647500Y-388064500D01*
X590502500Y-383111500D02*
X590502500Y-383143500D01*
X631332500Y-388064500D02*
X622474500Y-388064500D01*
%TO.N,Net-(D113-A)*%
X638762500Y-379555500D02*
X638762500Y-382984500D01*
X638762500Y-384762500D02*
X630634500Y-392890500D01*
X626062500Y-379555500D02*
X622506500Y-383111500D01*
X634793500Y-363577000D02*
X638762500Y-367546000D01*
X615541000Y-393958000D02*
X614473500Y-392890500D01*
X638762500Y-367546000D02*
X638762500Y-379555500D01*
X630634500Y-392890500D02*
X629567000Y-393958000D01*
X629567000Y-393958000D02*
X615541000Y-393958000D01*
X638762500Y-382984500D02*
X638762500Y-384762500D01*
X638762500Y-379555500D02*
X626062500Y-379555500D01*
%TO.N,Net-(D117-A)*%
X600122500Y-378952500D02*
X604154500Y-382984500D01*
X583993500Y-378952500D02*
X588152500Y-383111500D01*
X580151500Y-391112500D02*
X580151500Y-393144500D01*
X594832000Y-394212000D02*
X596153500Y-392890500D01*
X580151500Y-393144500D02*
X581219000Y-394212000D01*
X588152500Y-383111500D02*
X580151500Y-391112500D01*
X583993500Y-363577000D02*
X583993500Y-378952500D01*
X583993500Y-378952500D02*
X600122500Y-378952500D01*
X581219000Y-394212000D02*
X594832000Y-394212000D01*
D27*
%TO.N,+12V*%
X583993500Y-476052000D02*
X581465250Y-473523750D01*
X578556000Y-407900000D02*
X578556000Y-419814500D01*
X554783500Y-384000500D02*
X558593500Y-387810500D01*
X558593500Y-376277000D02*
X558593500Y-376277000D01*
X634793500Y-361752000D02*
X583993500Y-361752000D01*
X558593500Y-376253500D02*
X558593500Y-376277000D01*
D28*
X638349500Y-300077000D02*
X634793500Y-300077000D01*
D27*
X634793500Y-300077000D02*
X634793500Y-306427000D01*
X583993500Y-306427000D02*
X578556000Y-311864500D01*
X637385250Y-473460250D02*
X634793500Y-476052000D01*
X640231000Y-470614500D02*
X637385250Y-473460250D01*
X583993500Y-300077000D02*
X634793500Y-300077000D01*
X583993500Y-300077000D02*
X583993500Y-306427000D01*
X535249000Y-300077000D02*
X583993500Y-300077000D01*
X578556000Y-356314500D02*
X583993500Y-361752000D01*
X578556000Y-470614500D02*
X578556000Y-419814500D01*
X634793500Y-306427000D02*
X640231000Y-311864500D01*
D28*
X638349500Y-274677000D02*
X638349500Y-300077000D01*
D27*
X531288500Y-296116500D02*
X535249000Y-300077000D01*
X578556000Y-356314500D02*
X558617000Y-376253500D01*
X578556000Y-311864500D02*
X578556000Y-349964500D01*
X514143500Y-379858500D02*
X516351500Y-377650500D01*
X639864000Y-470247500D02*
X640231000Y-470614500D01*
X554783500Y-381714500D02*
X554783500Y-384000500D01*
X578556000Y-349964500D02*
X578556000Y-356314500D01*
X558593500Y-387810500D02*
X558593500Y-387937500D01*
X554783500Y-380063500D02*
X558593500Y-376253500D01*
X553998000Y-248491500D02*
X546020500Y-248491500D01*
X546020500Y-248491500D02*
X545893500Y-248364500D01*
X640231000Y-311864500D02*
X640231000Y-349964500D01*
X554783500Y-381714500D02*
X554783500Y-380063500D01*
D28*
X664789000Y-248237500D02*
X638349500Y-274677000D01*
D27*
X516351500Y-377650500D02*
X518467500Y-377650500D01*
X581465250Y-473523750D02*
X578556000Y-470614500D01*
X558617000Y-376253500D02*
X558593500Y-376253500D01*
X639864000Y-420181500D02*
X639864000Y-470247500D01*
X640231000Y-349964500D02*
X640231000Y-356314500D01*
X558593500Y-376277000D02*
X558593500Y-387810500D01*
X640231000Y-356314500D02*
X634793500Y-361752000D01*
X514143500Y-381714500D02*
X514143500Y-379858500D01*
X634793500Y-476052000D02*
X583993500Y-476052000D01*
X558593500Y-387937500D02*
X578556000Y-407900000D01*
X640231000Y-419814500D02*
X639864000Y-420181500D01*
%TO.N,GND*%
X534219000Y-370040000D02*
X528113500Y-363934500D01*
X518907500Y-359362500D02*
X518207500Y-359362500D01*
X528113500Y-363934500D02*
X528113500Y-366298500D01*
X534219000Y-395949000D02*
X534219000Y-370040000D01*
X533086500Y-397081500D02*
X534219000Y-395949000D01*
X518207500Y-359362500D02*
X517064500Y-360505500D01*
X531988500Y-397081500D02*
X533086500Y-397081500D01*
X528029500Y-366298500D02*
X525567500Y-368760500D01*
X528113500Y-366298500D02*
X528029500Y-366298500D01*
D29*
%TO.N,LI3*%
X512873500Y-311864500D02*
X514173000Y-310565000D01*
X514173000Y-288975000D02*
X515413500Y-287734500D01*
X514173000Y-310565000D02*
X514173000Y-288975000D01*
%TO.N,LI2*%
X516654000Y-310624000D02*
X516654000Y-287220668D01*
X514114000Y-286494000D02*
X512873500Y-287734500D01*
X515927332Y-286494000D02*
X514114000Y-286494000D01*
X515413500Y-311864500D02*
X516654000Y-310624000D01*
X516654000Y-287220668D02*
X515927332Y-286494000D01*
%TO.N,RA*%
X518969500Y-403690500D02*
X521758500Y-403690500D01*
X531519118Y-388191500D02*
X521763500Y-397947118D01*
X521763500Y-457914500D02*
X519030500Y-460647500D01*
X521763500Y-423624500D02*
X521763500Y-426672500D01*
X521763500Y-408384500D02*
X521763500Y-411559500D01*
X521763500Y-403685500D02*
X521763500Y-408384500D01*
X518852500Y-444135600D02*
X521699400Y-444135600D01*
X521763500Y-435054500D02*
X521763500Y-436070500D01*
X518852500Y-436009500D02*
X521702500Y-436009500D01*
X521763500Y-411559500D02*
X521763500Y-419687500D01*
X521763500Y-426672500D02*
X521763500Y-435054500D01*
X519030500Y-460647500D02*
X518852500Y-460647500D01*
X521699400Y-444135600D02*
X521763500Y-444071500D01*
X521763500Y-419687500D02*
X521763500Y-423624500D01*
X521758500Y-403690500D02*
X521763500Y-403685500D01*
X516302500Y-427053500D02*
X515921500Y-426672500D01*
X516302500Y-427810500D02*
X516302500Y-427053500D01*
X521763500Y-444071500D02*
X521763500Y-457914500D01*
X521763500Y-397947118D02*
X521763500Y-403685500D01*
X521763500Y-436070500D02*
X521763500Y-444071500D01*
X518842500Y-419687500D02*
X521763500Y-419687500D01*
X518847500Y-411689600D02*
X521633400Y-411689600D01*
X531988500Y-388191500D02*
X531519118Y-388191500D01*
X521633400Y-411689600D02*
X521763500Y-411559500D01*
X521702500Y-436009500D02*
X521763500Y-436070500D01*
%TO.N,RB*%
X518852500Y-431884500D02*
X520488500Y-431884500D01*
X531519118Y-389461500D02*
X523033500Y-397947118D01*
X523033500Y-427815500D02*
X523033500Y-431879500D01*
X523033500Y-423370500D02*
X523033500Y-427815500D01*
X523033500Y-415877500D02*
X523033500Y-418798500D01*
X520488500Y-427810500D02*
X520493500Y-427815500D01*
X531988500Y-389461500D02*
X531519118Y-389461500D01*
X516292500Y-419687500D02*
X517181500Y-418798500D01*
X520491600Y-448260600D02*
X520493500Y-448262500D01*
X518852500Y-440073500D02*
X520366500Y-440073500D01*
X523033500Y-404701500D02*
X523033500Y-408384500D01*
X520493500Y-456390500D02*
X520432500Y-456329500D01*
X520488500Y-440073500D02*
X520427500Y-440073500D01*
X520493500Y-415877500D02*
X520491600Y-415875600D01*
X520366500Y-440073500D02*
X520493500Y-440134500D01*
X520493500Y-440134500D02*
X520488500Y-440073500D01*
X523033500Y-440134500D02*
X523033500Y-448262500D01*
X517181500Y-418798500D02*
X519731500Y-418798500D01*
X523033500Y-448262500D02*
X523033500Y-452199500D01*
X523033500Y-397947118D02*
X523033500Y-404701500D01*
X523033500Y-408384500D02*
X523033500Y-415877500D01*
X518847500Y-448260600D02*
X520491600Y-448260600D01*
X523033500Y-431879500D02*
X523033500Y-435054500D01*
X518847500Y-415875600D02*
X520493500Y-415877500D01*
X518852500Y-452199500D02*
X520493500Y-452199500D01*
X518852500Y-427810500D02*
X520488500Y-427810500D01*
X518852500Y-456329500D02*
X520493500Y-456390500D01*
X523033500Y-452199500D02*
X523033500Y-456390500D01*
X520488500Y-431884500D02*
X520493500Y-431879500D01*
X523033500Y-418798500D02*
X523033500Y-423370500D01*
X523033500Y-435054500D02*
X523033500Y-440134500D01*
%TO.N,RC*%
X531988500Y-390731500D02*
X531519118Y-390731500D01*
X518969500Y-397589500D02*
X520493500Y-397589500D01*
X520488500Y-454099500D02*
X520493500Y-454104500D01*
X520488500Y-421587500D02*
X520493500Y-421592500D01*
X524303500Y-409654500D02*
X524303500Y-421592500D01*
X524303500Y-423497500D02*
X524303500Y-430609500D01*
X516302500Y-440073500D02*
X517384500Y-438991500D01*
X524303500Y-408384500D02*
X524303500Y-409654500D01*
X524303500Y-397970500D02*
X524303500Y-408384500D01*
X518847500Y-413589600D02*
X520493500Y-413591500D01*
X518852500Y-446035600D02*
X520493500Y-446103500D01*
X524303500Y-438991500D02*
X524303500Y-446103500D01*
X516302500Y-456329500D02*
X516622500Y-456329500D01*
X520493500Y-413591500D02*
X520491600Y-413589600D01*
X516622500Y-456329500D02*
X518852500Y-454099500D01*
X524303500Y-397947118D02*
X524303500Y-397970500D01*
X524303500Y-421592500D02*
X524303500Y-423497500D01*
X520493500Y-446103500D02*
X520425600Y-446035600D01*
X517201500Y-430609500D02*
X519731500Y-430609500D01*
X516302500Y-429710500D02*
X517201500Y-430609500D01*
X518842500Y-409654500D02*
X520493500Y-409654500D01*
X524303500Y-446103500D02*
X524303500Y-454104500D01*
X518852500Y-454099500D02*
X520488500Y-454099500D01*
X524303500Y-433784500D02*
X524303500Y-438991500D01*
X524303500Y-430609500D02*
X524303500Y-433784500D01*
X517384500Y-438991500D02*
X519223500Y-438991500D01*
X531519118Y-390731500D02*
X524303500Y-397947118D01*
X518842500Y-421587500D02*
X520488500Y-421587500D01*
%TO.N,RD*%
X525573500Y-450167500D02*
X525573500Y-458041500D01*
X518969500Y-401653500D02*
X520493500Y-401653500D01*
X525573500Y-397947118D02*
X525573500Y-401653500D01*
X531519118Y-392001500D02*
X525573500Y-397947118D01*
X518852500Y-429710500D02*
X520483500Y-429710500D01*
X525573500Y-401653500D02*
X525573500Y-406733500D01*
X525573500Y-429720500D02*
X525573500Y-435054500D01*
X516302500Y-436009500D02*
X516302500Y-435689500D01*
X520305500Y-458229500D02*
X520427500Y-458229500D01*
X516292500Y-406850500D02*
X515911500Y-406850500D01*
X515911500Y-406850500D02*
X515794500Y-406733500D01*
X525573500Y-458041500D02*
X525573500Y-458295500D01*
X525573500Y-406733500D02*
X525573500Y-408384500D01*
X525573500Y-408384500D02*
X525573500Y-423370500D01*
X520483500Y-429710500D02*
X520493500Y-429720500D01*
X525573500Y-435054500D02*
X525573500Y-450167500D01*
X531988500Y-392001500D02*
X531519118Y-392001500D01*
X525573500Y-423370500D02*
X525573500Y-429720500D01*
X516292500Y-407754500D02*
X516292500Y-406850500D01*
X520239500Y-458295500D02*
X520305500Y-458229500D01*
X520486600Y-450160600D02*
X520493500Y-450167500D01*
X516302500Y-435689500D02*
X515667500Y-435054500D01*
X518852500Y-458229500D02*
X520173500Y-458229500D01*
X520173500Y-458229500D02*
X520239500Y-458295500D01*
X518847500Y-450160600D02*
X520486600Y-450160600D01*
%TO.N,RE*%
X531519118Y-393271500D02*
X529129500Y-395661118D01*
X529106118Y-395684500D02*
X526843500Y-397947118D01*
X529129500Y-395684500D02*
X529106118Y-395684500D01*
X526843500Y-423243500D02*
X526843500Y-423624500D01*
X529129500Y-395661118D02*
X529129500Y-395684500D01*
X531988500Y-393271500D02*
X531519118Y-393271500D01*
X526843500Y-406098500D02*
X526843500Y-408384500D01*
X526843500Y-408384500D02*
X526843500Y-423243500D01*
X526843500Y-423624500D02*
X526843500Y-433784500D01*
X526843500Y-397947118D02*
X526843500Y-406098500D01*
X518969500Y-395689500D02*
X520488500Y-395689500D01*
X517255600Y-443182500D02*
X519477500Y-443182500D01*
X520488500Y-395689500D02*
X520493500Y-395684500D01*
X518852500Y-423624500D02*
X520493500Y-423624500D01*
X516302500Y-444135600D02*
X517255600Y-443182500D01*
X526843500Y-435054500D02*
X526843500Y-443182500D01*
X518852500Y-433784500D02*
X520493500Y-433784500D01*
X526843500Y-433784500D02*
X526843500Y-435054500D01*
%TO.N,RF*%
X528113500Y-441023500D02*
X528113500Y-449405500D01*
X520493500Y-417782500D02*
X520486600Y-417775600D01*
X516297500Y-448260600D02*
X516261151Y-448260600D01*
X528113500Y-425529500D02*
X528113500Y-435054500D01*
X516302500Y-441973500D02*
X517866151Y-441973500D01*
X518816151Y-441023500D02*
X519604500Y-441023500D01*
X520488500Y-399753500D02*
X520493500Y-399748500D01*
X517866151Y-441973500D02*
X518816151Y-441023500D01*
X518852500Y-425524500D02*
X520488500Y-425524500D01*
X516026876Y-448494876D02*
X515413500Y-449108252D01*
X516261151Y-448260600D02*
X516026876Y-448494876D01*
X528113500Y-397947118D02*
X528113500Y-399748500D01*
X518847500Y-417775600D02*
X520493500Y-417782500D01*
X518969500Y-399753500D02*
X520488500Y-399753500D01*
X520488500Y-425524500D02*
X520493500Y-425529500D01*
X528113500Y-435054500D02*
X528113500Y-441023500D01*
X520488500Y-407754500D02*
X520493500Y-407749500D01*
X528113500Y-417782500D02*
X528113500Y-422989500D01*
X518842500Y-407754500D02*
X520488500Y-407754500D01*
X528113500Y-422989500D02*
X528113500Y-425529500D01*
X531519118Y-394541500D02*
X528113500Y-397947118D01*
X528113500Y-407749500D02*
X528113500Y-408384500D01*
X515413500Y-449108252D02*
X515413500Y-449405500D01*
X531988500Y-394541500D02*
X531519118Y-394541500D01*
X528113500Y-408384500D02*
X528113500Y-417782500D01*
X528113500Y-399748500D02*
X528113500Y-407749500D01*
%TO.N,RG*%
X518852500Y-437909500D02*
X520366500Y-437909500D01*
X520493500Y-437848500D02*
X520488500Y-437909500D01*
X524623500Y-462547500D02*
X529383500Y-457787500D01*
X516297500Y-415875600D02*
X516297500Y-415237500D01*
X516383151Y-395689500D02*
X515667500Y-396405151D01*
X516302500Y-446035600D02*
X516302500Y-446611500D01*
X529383500Y-442039500D02*
X529383500Y-447119500D01*
X529383500Y-414734500D02*
X529383500Y-423243500D01*
X515667500Y-396405151D02*
X515667500Y-398605500D01*
X518852500Y-441973500D02*
X520493500Y-442039500D01*
X520366500Y-437909500D02*
X520493500Y-437848500D01*
X529383500Y-408384500D02*
X529383500Y-414734500D01*
X518969500Y-405590500D02*
X520493500Y-405590500D01*
X529383500Y-423243500D02*
X529383500Y-434927500D01*
X529383500Y-437848500D02*
X529383500Y-442039500D01*
X531988500Y-395811500D02*
X531519118Y-395811500D01*
X515667500Y-398605500D02*
X516175500Y-398605500D01*
X529383500Y-405590500D02*
X529383500Y-408384500D01*
X520488500Y-437909500D02*
X520427500Y-437909500D01*
X520493500Y-442039500D02*
X520432500Y-441973500D01*
X531519118Y-395811500D02*
X529383500Y-397947118D01*
X529383500Y-434927500D02*
X529383500Y-437848500D01*
X529383500Y-397947118D02*
X529383500Y-398351500D01*
X529383500Y-447119500D02*
X529383500Y-457787500D01*
X518852500Y-462547500D02*
X524623500Y-462547500D01*
X516419500Y-395689500D02*
X516383151Y-395689500D01*
X516302500Y-446611500D02*
X515794500Y-447119500D01*
X529383500Y-398351500D02*
X529383500Y-405590500D01*
X516297500Y-415237500D02*
X515794500Y-414734500D01*
D28*
%TO.N,SEGR A*%
X598630500Y-278844500D02*
X603583500Y-273891500D01*
X612282500Y-276780500D02*
X609393500Y-273891500D01*
X606504500Y-271002500D02*
X609393500Y-273891500D01*
X623331500Y-273891500D02*
X620442500Y-273891500D01*
X620410500Y-268684500D02*
X614600500Y-268684500D01*
X598376500Y-268684500D02*
X603583500Y-273891500D01*
X612282500Y-278844500D02*
X612282500Y-276780500D01*
X628284500Y-278844500D02*
X623331500Y-273891500D01*
X536938500Y-388191500D02*
X542591500Y-388191500D01*
X631205500Y-273891500D02*
X620442500Y-273891500D01*
X603932500Y-273891500D02*
X609393500Y-273891500D01*
X563800500Y-363553500D02*
X542591500Y-384762500D01*
X609393500Y-273891500D02*
X591613500Y-291671500D01*
X614600500Y-268684500D02*
X609393500Y-273891500D01*
X620442500Y-273891500D02*
X609393500Y-273891500D01*
X590502500Y-268684500D02*
X598376500Y-268684500D01*
X603583500Y-273891500D02*
X603932500Y-273891500D01*
X542591500Y-384762500D02*
X542591500Y-388191500D01*
X606504500Y-268684500D02*
X606504500Y-271002500D01*
X587454500Y-273891500D02*
X603932500Y-273891500D01*
X582501500Y-278844500D02*
X587454500Y-273891500D01*
X636412500Y-268684500D02*
X631205500Y-273891500D01*
D29*
%TO.N,R4*%
X512181500Y-436938849D02*
X512181500Y-394725500D01*
X527716500Y-383254500D02*
X529707500Y-381263500D01*
X529707500Y-381263500D02*
X529707500Y-377974500D01*
X523652500Y-383254500D02*
X527716500Y-383254500D01*
X516266151Y-441023500D02*
X512181500Y-436938849D01*
X516302500Y-441023500D02*
X516266151Y-441023500D01*
X529383500Y-377650500D02*
X525567500Y-377650500D01*
X512181500Y-394725500D02*
X523652500Y-383254500D01*
X529707500Y-377974500D02*
X529383500Y-377650500D01*
%TO.N,R2*%
X530288500Y-377097408D02*
X529571592Y-376380500D01*
X530288500Y-381714500D02*
X530288500Y-377097408D01*
X512762500Y-395041184D02*
X523968184Y-383835500D01*
X516302500Y-432834500D02*
X516266151Y-432834500D01*
X516968000Y-433463651D02*
X516338849Y-432834500D01*
X512762500Y-429330849D02*
X512762500Y-395041184D01*
X528167500Y-383835500D02*
X530288500Y-381714500D01*
X516338848Y-436959500D02*
X516968000Y-436330348D01*
X516338849Y-432834500D02*
X516302500Y-432834500D01*
X516302500Y-436959500D02*
X516338848Y-436959500D01*
X529571592Y-376380500D02*
X525567500Y-376380500D01*
X523968184Y-383835500D02*
X528167500Y-383835500D01*
X516266151Y-432834500D02*
X512762500Y-429330849D01*
X516968000Y-436330348D02*
X516968000Y-433463651D01*
%TO.N,R0*%
X516338849Y-424574500D02*
X516302500Y-424574500D01*
X516968000Y-425203651D02*
X516338849Y-424574500D01*
X516302500Y-428760500D02*
X516338849Y-428760500D01*
X516338849Y-428760500D02*
X516968000Y-428131349D01*
X524208842Y-384416500D02*
X528942842Y-384416500D01*
X513343500Y-421651849D02*
X513343500Y-395281842D01*
X529123250Y-375110500D02*
X525567500Y-375110500D01*
X528942842Y-384416500D02*
X530869500Y-382489842D01*
X530869500Y-382489842D02*
X530869500Y-376856750D01*
X530869500Y-376856750D02*
X529123250Y-375110500D01*
X513343500Y-395281842D02*
X524208842Y-384416500D01*
X516302500Y-424574500D02*
X516266151Y-424574500D01*
X516266151Y-424574500D02*
X513343500Y-421651849D01*
X516968000Y-428131349D02*
X516968000Y-425203651D01*
%TO.N,R7*%
X513924500Y-395522500D02*
X524449500Y-384997500D01*
X516256151Y-420637500D02*
X513924500Y-418305849D01*
X531450500Y-376616092D02*
X528674908Y-373840500D01*
X513924500Y-418305849D02*
X513924500Y-395522500D01*
X516292500Y-420637500D02*
X516256151Y-420637500D01*
X531450500Y-382730500D02*
X531450500Y-376616092D01*
X524449500Y-384997500D02*
X529183500Y-384997500D01*
X528674908Y-373840500D02*
X525567500Y-373840500D01*
X529183500Y-384997500D02*
X531450500Y-382730500D01*
%TO.N,R9*%
X532031500Y-376375434D02*
X528226566Y-372570500D01*
X532031500Y-383873500D02*
X532031500Y-376375434D01*
X516963000Y-412728000D02*
X516874600Y-412639600D01*
X516874600Y-412639600D02*
X516297500Y-412639600D01*
X516333849Y-416825600D02*
X516963000Y-416196449D01*
X516261151Y-412639600D02*
X514505500Y-410883949D01*
X514505500Y-410883949D02*
X514505500Y-395770842D01*
X516963000Y-416196449D02*
X516963000Y-412728000D01*
X516297500Y-416825600D02*
X516333849Y-416825600D01*
X516297500Y-412639600D02*
X516261151Y-412639600D01*
X530326500Y-385578500D02*
X532031500Y-383873500D01*
X524697842Y-385578500D02*
X530326500Y-385578500D01*
X528226566Y-372570500D02*
X525567500Y-372570500D01*
X514505500Y-395770842D02*
X524697842Y-385578500D01*
%TO.N,R5*%
X517085000Y-404976000D02*
X516749500Y-404640500D01*
X516328849Y-408704500D02*
X517085000Y-407948349D01*
X516749500Y-404640500D02*
X516419500Y-404640500D01*
X516419500Y-404640500D02*
X516383151Y-404640500D01*
X515086500Y-396011500D02*
X524938500Y-386159500D01*
X516383151Y-404640500D02*
X515086500Y-403343849D01*
X515086500Y-403343849D02*
X515086500Y-396011500D01*
X524938500Y-386159500D02*
X531342500Y-386159500D01*
X527778224Y-371300500D02*
X525567500Y-371300500D01*
X532612500Y-384889500D02*
X532612500Y-376134776D01*
X532612500Y-376134776D02*
X527778224Y-371300500D01*
X516292500Y-408704500D02*
X516328849Y-408704500D01*
X531342500Y-386159500D02*
X532612500Y-384889500D01*
X517085000Y-407948349D02*
X517085000Y-404976000D01*
%TO.N,R6*%
X516419500Y-400703500D02*
X516455849Y-400703500D01*
X516455849Y-400703500D02*
X517085000Y-400074349D01*
X517085000Y-396848000D02*
X517085000Y-396587651D01*
X526878151Y-386794500D02*
X533193500Y-386794500D01*
X517085000Y-400074349D02*
X517085000Y-396848000D01*
X517085000Y-396587651D02*
X526878151Y-386794500D01*
X516876500Y-396639500D02*
X516419500Y-396639500D01*
X533193500Y-375894118D02*
X527329882Y-370030500D01*
X527329882Y-370030500D02*
X525567500Y-370030500D01*
X533193500Y-386794500D02*
X533193500Y-375894118D01*
X517085000Y-396848000D02*
X516876500Y-396639500D01*
%TO.N,R8*%
X515284600Y-445085600D02*
X516302500Y-445085600D01*
X516333849Y-449210600D02*
X516968000Y-448576449D01*
X516968000Y-448576449D02*
X516968000Y-445626000D01*
X522271500Y-383813842D02*
X522271500Y-372114500D01*
X511600500Y-394484842D02*
X511600500Y-441401500D01*
X522271500Y-383813842D02*
X511600500Y-394484842D01*
X516427600Y-445085600D02*
X516302500Y-445085600D01*
X511600500Y-441401500D02*
X515284600Y-445085600D01*
X516297500Y-449210600D02*
X516333849Y-449210600D01*
X522271500Y-372114500D02*
X518917500Y-368760500D01*
X516968000Y-445626000D02*
X516427600Y-445085600D01*
X518917500Y-368760500D02*
X518467500Y-368760500D01*
%TO.N,RI0*%
X515832118Y-370030500D02*
X518467500Y-370030500D01*
X513387332Y-318185000D02*
X512395000Y-318185000D01*
X511633000Y-318947000D02*
X511633000Y-365831382D01*
X514114000Y-317458332D02*
X513387332Y-318185000D01*
X514114000Y-315704000D02*
X514114000Y-317458332D01*
X515413500Y-314404500D02*
X514114000Y-315704000D01*
X512395000Y-318185000D02*
X511633000Y-318947000D01*
X511633000Y-365831382D02*
X515832118Y-370030500D01*
%TO.N,RI3*%
X511052000Y-366520382D02*
X515832118Y-371300500D01*
X515832118Y-371300500D02*
X518467500Y-371300500D01*
X511052000Y-318409500D02*
X511052000Y-366520382D01*
X512873500Y-316944500D02*
X512517000Y-316944500D01*
X512517000Y-316944500D02*
X511052000Y-318409500D01*
%TO.N,RI2*%
X512873500Y-372570500D02*
X518467500Y-372570500D01*
%TO.N,RI1*%
X513025564Y-373840500D02*
X518467500Y-373840500D01*
X510471000Y-316807000D02*
X510471000Y-371285936D01*
X512873500Y-314404500D02*
X510471000Y-316807000D01*
X510471000Y-371285936D02*
X513025564Y-373840500D01*
%TO.N,R1*%
X516266151Y-453149500D02*
X511019500Y-447902849D01*
X521636500Y-377829500D02*
X518917500Y-375110500D01*
X521636500Y-383627184D02*
X521636500Y-377829500D01*
X511019500Y-447902849D02*
X511019500Y-394244184D01*
X511019500Y-394244184D02*
X521636500Y-383627184D01*
X518917500Y-375110500D02*
X518467500Y-375110500D01*
X516302500Y-453149500D02*
X516266151Y-453149500D01*
%TO.N,R3*%
X518917500Y-376380500D02*
X518467500Y-376380500D01*
X516968000Y-460968349D02*
X516968000Y-457908651D01*
X516338849Y-461597500D02*
X516968000Y-460968349D01*
X510438500Y-451451849D02*
X510438500Y-394003526D01*
X516968000Y-457908651D02*
X516338849Y-457279500D01*
X521055500Y-378518500D02*
X518917500Y-376380500D01*
X521055500Y-383386526D02*
X521055500Y-378518500D01*
X510438500Y-394003526D02*
X521055500Y-383386526D01*
X516302500Y-461597500D02*
X516338849Y-461597500D01*
X516302500Y-457279500D02*
X516266151Y-457279500D01*
X516266151Y-457279500D02*
X510438500Y-451451849D01*
X516338849Y-457279500D02*
X516302500Y-457279500D01*
%TO.N,LEDA*%
X518907500Y-350472500D02*
X518907500Y-328058500D01*
X518907500Y-328058500D02*
X515413500Y-324564500D01*
%TO.N,LEDB*%
X518907500Y-351742500D02*
X519376882Y-351742500D01*
X520273000Y-326884000D02*
X516683500Y-323294500D01*
X520273000Y-350846382D02*
X520273000Y-326884000D01*
X516683500Y-323294500D02*
X514143500Y-323294500D01*
X519376882Y-351742500D02*
X520273000Y-350846382D01*
X514143500Y-323294500D02*
X512873500Y-324564500D01*
%TO.N,LEDC*%
X515413500Y-349987882D02*
X515413500Y-327104500D01*
X518907500Y-353012500D02*
X518438118Y-353012500D01*
X518438118Y-353012500D02*
X515413500Y-349987882D01*
%TO.N,LEDD*%
X512873500Y-348717882D02*
X512873500Y-327104500D01*
X518438118Y-354282500D02*
X512873500Y-348717882D01*
X518907500Y-354282500D02*
X518438118Y-354282500D01*
%TO.N,LEDE*%
X516654000Y-318244000D02*
X516654000Y-313890668D01*
X515927332Y-313164000D02*
X512359668Y-313164000D01*
X511633000Y-281355000D02*
X512873500Y-280114500D01*
X515413500Y-319484500D02*
X516654000Y-318244000D01*
X516654000Y-313890668D02*
X515927332Y-313164000D01*
X511633000Y-312437332D02*
X511633000Y-281355000D01*
X512359668Y-313164000D02*
X511633000Y-312437332D01*
%TO.N,LEDF*%
X516098500Y-320725000D02*
X517445500Y-319378000D01*
X517445500Y-319378000D02*
X517445500Y-282146500D01*
X514114000Y-320725000D02*
X516098500Y-320725000D01*
X517445500Y-282146500D02*
X515413500Y-280114500D01*
X512873500Y-319484500D02*
X514114000Y-320725000D01*
%TO.N,LEDG*%
X514143500Y-276304500D02*
X512873500Y-277574500D01*
X515413500Y-322024500D02*
X516615581Y-322024500D01*
X518026500Y-278433168D02*
X515897832Y-276304500D01*
X515897832Y-276304500D02*
X514143500Y-276304500D01*
X516615581Y-322024500D02*
X518026500Y-320613581D01*
X518026500Y-320613581D02*
X518026500Y-278433168D01*
%TD*%
M02*
