%TF.GenerationSoftware,KiCad,Pcbnew,7.0.7*%
%TF.CreationDate,2024-03-05T16:40:33-06:00*%
%TF.ProjectId,LED Array,4c454420-4172-4726-9179-2e6b69636164,rev?*%
%TF.SameCoordinates,Original*%
%TF.FileFunction,Copper,L2,Bot*%
%TF.FilePolarity,Positive*%
%FSLAX46Y46*%
G04 Gerber Fmt 4.6, Leading zero omitted, Abs format (unit mm)*
G04 Created by KiCad (PCBNEW 7.0.7) date 2024-03-05 16:40:33*
%MOMM*%
%LPD*%
G01*
G04 APERTURE LIST*
G04 Aperture macros list*
%AMRoundRect*
0 Rectangle with rounded corners*
0 $1 Rounding radius*
0 $2 $3 $4 $5 $6 $7 $8 $9 X,Y pos of 4 corners*
0 Add a 4 corners polygon primitive as box body*
4,1,4,$2,$3,$4,$5,$6,$7,$8,$9,$2,$3,0*
0 Add four circle primitives for the rounded corners*
1,1,$1+$1,$2,$3*
1,1,$1+$1,$4,$5*
1,1,$1+$1,$6,$7*
1,1,$1+$1,$8,$9*
0 Add four rect primitives between the rounded corners*
20,1,$1+$1,$2,$3,$4,$5,0*
20,1,$1+$1,$4,$5,$6,$7,0*
20,1,$1+$1,$6,$7,$8,$9,0*
20,1,$1+$1,$8,$9,$2,$3,0*%
G04 Aperture macros list end*
%TA.AperFunction,ComponentPad*%
%ADD10R,2.100000X2.100000*%
%TD*%
%TA.AperFunction,ComponentPad*%
%ADD11C,2.100000*%
%TD*%
%TA.AperFunction,ComponentPad*%
%ADD12RoundRect,0.250000X0.600000X0.600000X-0.600000X0.600000X-0.600000X-0.600000X0.600000X-0.600000X0*%
%TD*%
%TA.AperFunction,ComponentPad*%
%ADD13C,1.700000*%
%TD*%
%TA.AperFunction,ComponentPad*%
%ADD14RoundRect,0.250000X-0.600000X-0.600000X0.600000X-0.600000X0.600000X0.600000X-0.600000X0.600000X0*%
%TD*%
%TA.AperFunction,ViaPad*%
%ADD15C,0.800000*%
%TD*%
%TA.AperFunction,Conductor*%
%ADD16C,1.270000*%
%TD*%
%TA.AperFunction,Conductor*%
%ADD17C,0.635000*%
%TD*%
%TA.AperFunction,Conductor*%
%ADD18C,0.381000*%
%TD*%
G04 APERTURE END LIST*
D10*
%TO.P,J2,1,Pin_1*%
%TO.N,+12V*%
X531288500Y-296116500D03*
D11*
%TO.P,J2,2,Pin_2*%
%TO.N,GND*%
X531288500Y-291036500D03*
%TD*%
D12*
%TO.P,J1,1,Pin_1*%
%TO.N,LI0*%
X515413500Y-309324500D03*
D13*
%TO.P,J1,2,Pin_2*%
%TO.N,LI1*%
X512873500Y-309324500D03*
%TO.P,J1,3,Pin_3*%
%TO.N,LI2*%
X515413500Y-311864500D03*
%TO.P,J1,4,Pin_4*%
%TO.N,LI3*%
X512873500Y-311864500D03*
%TO.P,J1,5,Pin_5*%
%TO.N,RI0*%
X515413500Y-314404500D03*
%TO.P,J1,6,Pin_6*%
%TO.N,RI1*%
X512873500Y-314404500D03*
%TO.P,J1,7,Pin_7*%
%TO.N,RI2*%
X515413500Y-316944500D03*
%TO.P,J1,8,Pin_8*%
%TO.N,RI3*%
X512873500Y-316944500D03*
%TO.P,J1,9,Pin_9*%
%TO.N,LEDE*%
X515413500Y-319484500D03*
%TO.P,J1,10,Pin_10*%
%TO.N,LEDF*%
X512873500Y-319484500D03*
%TO.P,J1,11,Pin_11*%
%TO.N,LEDG*%
X515413500Y-322024500D03*
%TO.P,J1,12,Pin_12*%
%TO.N,LEDH*%
X512873500Y-322024500D03*
%TO.P,J1,13,Pin_13*%
%TO.N,LEDA*%
X515413500Y-324564500D03*
%TO.P,J1,14,Pin_14*%
%TO.N,LEDB*%
X512873500Y-324564500D03*
%TO.P,J1,15,Pin_15*%
%TO.N,LEDC*%
X515413500Y-327104500D03*
%TO.P,J1,16,Pin_16*%
%TO.N,LEDD*%
X512873500Y-327104500D03*
%TD*%
D10*
%TO.P,J4,1,Pin_1*%
%TO.N,+12V*%
X531161500Y-281638500D03*
D11*
%TO.P,J4,2,Pin_2*%
%TO.N,GND*%
X531161500Y-276558500D03*
%TD*%
D14*
%TO.P,J3,1,Pin_1*%
%TO.N,unconnected-(J3-Pin_1-Pad1)*%
X512873500Y-295354500D03*
D13*
%TO.P,J3,2,Pin_2*%
%TO.N,unconnected-(J3-Pin_2-Pad2)*%
X515413500Y-295354500D03*
%TO.P,J3,3,Pin_3*%
%TO.N,unconnected-(J3-Pin_3-Pad3)*%
X512873500Y-292814500D03*
%TO.P,J3,4,Pin_4*%
%TO.N,unconnected-(J3-Pin_4-Pad4)*%
X515413500Y-292814500D03*
%TO.P,J3,5,Pin_5*%
%TO.N,LI0*%
X512873500Y-290274500D03*
%TO.P,J3,6,Pin_6*%
%TO.N,LI1*%
X515413500Y-290274500D03*
%TO.P,J3,7,Pin_7*%
%TO.N,LI2*%
X512873500Y-287734500D03*
%TO.P,J3,8,Pin_8*%
%TO.N,LI3*%
X515413500Y-287734500D03*
%TO.P,J3,9,Pin_9*%
%TO.N,unconnected-(J3-Pin_9-Pad9)*%
X512873500Y-285194500D03*
%TO.P,J3,10,Pin_10*%
%TO.N,unconnected-(J3-Pin_10-Pad10)*%
X515413500Y-285194500D03*
%TO.P,J3,11,Pin_11*%
%TO.N,unconnected-(J3-Pin_11-Pad11)*%
X512873500Y-282654500D03*
%TO.P,J3,12,Pin_12*%
%TO.N,unconnected-(J3-Pin_12-Pad12)*%
X515413500Y-282654500D03*
%TO.P,J3,13,Pin_13*%
%TO.N,LEDE*%
X512873500Y-280114500D03*
%TO.P,J3,14,Pin_14*%
%TO.N,LEDF*%
X515413500Y-280114500D03*
%TO.P,J3,15,Pin_15*%
%TO.N,LEDG*%
X512873500Y-277574500D03*
%TO.P,J3,16,Pin_16*%
%TO.N,LEDH*%
X515413500Y-277574500D03*
%TD*%
D15*
%TO.N,LED B*%
X565070500Y-375364500D03*
X527732500Y-351869500D03*
%TO.N,SEGR B*%
X654986500Y-316690500D03*
X566594500Y-365077500D03*
%TO.N,SEGR C*%
X566213500Y-398224500D03*
X647874500Y-426545500D03*
%TO.N,SEGR D*%
X629586500Y-482171500D03*
X564943500Y-399494500D03*
%TO.N,SEGR E*%
X572817500Y-465788500D03*
X563673500Y-400764500D03*
%TO.N,SEGR F*%
X542718500Y-394541500D03*
X573325500Y-345392500D03*
%TO.N,SEGR G*%
X542718500Y-395811500D03*
X576881500Y-400256500D03*
%TO.N,+12V*%
X545893500Y-248364500D03*
X514143500Y-381714500D03*
X558593500Y-387810500D03*
X554783500Y-381714500D03*
X558593500Y-376253500D03*
%TO.N,GND*%
X528113500Y-363934500D03*
X517064500Y-360505500D03*
%TO.N,RA*%
X515921500Y-426672500D03*
X521763500Y-426672500D03*
%TO.N,RB*%
X523033500Y-427815500D03*
X520493500Y-456390500D03*
X520493500Y-452199500D03*
X523033500Y-452199500D03*
X523033500Y-418798500D03*
X523033500Y-431879500D03*
X520493500Y-440134500D03*
X520493500Y-415877500D03*
X520493500Y-431879500D03*
X519731500Y-418798500D03*
X523033500Y-440134500D03*
X520493500Y-427815500D03*
X523033500Y-456390500D03*
X523033500Y-448262500D03*
X520493500Y-448262500D03*
X523033500Y-415877500D03*
%TO.N,RC*%
X524303500Y-409654500D03*
X524303500Y-454104500D03*
X520493500Y-446103500D03*
X524303500Y-430609500D03*
X520493500Y-421592500D03*
X519223500Y-438991500D03*
X524303500Y-397970500D03*
X524303500Y-438991500D03*
X520493500Y-409654500D03*
X524303500Y-421592500D03*
X524303500Y-446103500D03*
X520493500Y-454104500D03*
X520493500Y-397589500D03*
X520493500Y-413591500D03*
X519731500Y-430609500D03*
%TO.N,RD*%
X525573500Y-450167500D03*
X520493500Y-401653500D03*
X515794500Y-406733500D03*
X525573500Y-458295500D03*
X520493500Y-429720500D03*
X525573500Y-401653500D03*
X525573500Y-435054500D03*
X525573500Y-429720500D03*
X520239500Y-458295500D03*
X525573500Y-406733500D03*
X515667500Y-435054500D03*
X520493500Y-450167500D03*
%TO.N,RE*%
X529129500Y-395684500D03*
X526843500Y-433784500D03*
X526843500Y-443182500D03*
X520493500Y-433784500D03*
X520493500Y-423624500D03*
X520493500Y-395684500D03*
X519477500Y-443182500D03*
X526843500Y-423624500D03*
%TO.N,RF*%
X520493500Y-417782500D03*
X528113500Y-399748500D03*
X520493500Y-399748500D03*
X520493500Y-407749500D03*
X515413500Y-449405500D03*
X528113500Y-441023500D03*
X528113500Y-425529500D03*
X528113500Y-417782500D03*
X519604500Y-441023500D03*
X528113500Y-407749500D03*
X520493500Y-425529500D03*
X528113500Y-449405500D03*
%TO.N,RG*%
X520493500Y-437848500D03*
X529383500Y-398351500D03*
X529383500Y-442039500D03*
X529383500Y-437848500D03*
X515794500Y-414734500D03*
X529383500Y-447119500D03*
X520493500Y-405590500D03*
X529383500Y-414734500D03*
X520493500Y-442039500D03*
X529383500Y-405590500D03*
X515794500Y-447119500D03*
X516175500Y-398605500D03*
%TO.N,SEGR A*%
X563800500Y-363553500D03*
X591613500Y-291671500D03*
%TO.N,RI2*%
X512873500Y-372570500D03*
%TD*%
D16*
%TO.N,GND*%
X526542000Y-281178000D02*
X526542000Y-286290000D01*
X531161500Y-276558500D02*
X526542000Y-281178000D01*
X526542000Y-286290000D02*
X531288500Y-291036500D01*
%TO.N,+12V*%
X531415500Y-281638500D02*
X531161500Y-281638500D01*
X545893500Y-267160500D02*
X531415500Y-281638500D01*
X545893500Y-248364500D02*
X545893500Y-267160500D01*
D17*
%TO.N,LED B*%
X541575500Y-351869500D02*
X527732500Y-351869500D01*
X565070500Y-375364500D02*
X541575500Y-351869500D01*
%TO.N,SEGR B*%
X596916513Y-316690500D02*
X567071513Y-346535500D01*
X654986500Y-316690500D02*
X596916513Y-316690500D01*
X566594500Y-346535500D02*
X566594500Y-362791500D01*
X567071513Y-346535500D02*
X566594500Y-346535500D01*
X566594500Y-362791500D02*
X566594500Y-365077500D01*
%TO.N,SEGR C*%
X647874500Y-426545500D02*
X629205500Y-426545500D01*
X594534500Y-426545500D02*
X566213500Y-398224500D01*
X629205500Y-426545500D02*
X594534500Y-426545500D01*
%TO.N,SEGR D*%
X629586500Y-464175368D02*
X629586500Y-482171500D01*
X629586500Y-464175368D02*
X629586500Y-464137500D01*
X629586500Y-464137500D02*
X564943500Y-399494500D01*
%TO.N,SEGR E*%
X572817500Y-465788500D02*
X572817500Y-409908500D01*
X572817500Y-409908500D02*
X563673500Y-400764500D01*
%TO.N,SEGR F*%
X573325500Y-345392500D02*
X573325500Y-390223500D01*
X573325500Y-390223500D02*
X569007500Y-394541500D01*
X569007500Y-394541500D02*
X542718500Y-394541500D01*
%TO.N,SEGR G*%
X572436500Y-395811500D02*
X542718500Y-395811500D01*
X576881500Y-400256500D02*
X572436500Y-395811500D01*
D16*
%TO.N,+12V*%
X514143500Y-381714500D02*
X554783500Y-381714500D01*
%TO.N,GND*%
X528113500Y-363934500D02*
X526497500Y-362318500D01*
X526497500Y-295827500D02*
X531288500Y-291036500D01*
X526497500Y-362318500D02*
X526497500Y-295827500D01*
X524684500Y-360505500D02*
X528113500Y-363934500D01*
X517064500Y-360505500D02*
X524684500Y-360505500D01*
D18*
%TO.N,LI0*%
X514173000Y-291574000D02*
X512873500Y-290274500D01*
X514173000Y-308084000D02*
X514173000Y-291574000D01*
X515413500Y-309324500D02*
X514173000Y-308084000D01*
%TO.N,LI1*%
X511633000Y-308084000D02*
X511633000Y-289760668D01*
X514173000Y-289034000D02*
X515413500Y-290274500D01*
X512359668Y-289034000D02*
X514173000Y-289034000D01*
X511633000Y-289760668D02*
X512359668Y-289034000D01*
X512873500Y-309324500D02*
X511633000Y-308084000D01*
%TO.N,RA*%
X515921500Y-426672500D02*
X521763500Y-426672500D01*
%TO.N,RB*%
X519731500Y-418798500D02*
X523033500Y-418798500D01*
X520493500Y-452199500D02*
X523033500Y-452199500D01*
X520493500Y-448262500D02*
X523033500Y-448262500D01*
X520493500Y-427815500D02*
X523033500Y-427815500D01*
X520493500Y-431879500D02*
X523033500Y-431879500D01*
X520493500Y-440134500D02*
X523033500Y-440134500D01*
X520493500Y-456390500D02*
X523033500Y-456390500D01*
X520493500Y-415877500D02*
X523033500Y-415877500D01*
%TO.N,RC*%
X520493500Y-454104500D02*
X524303500Y-454104500D01*
X520493500Y-413591500D02*
X520493500Y-409654500D01*
X520493500Y-409654500D02*
X524303500Y-409654500D01*
X520493500Y-446103500D02*
X524303500Y-446103500D01*
X524303500Y-421592500D02*
X520493500Y-421592500D01*
X523922500Y-397589500D02*
X524303500Y-397970500D01*
X519731500Y-430609500D02*
X524303500Y-430609500D01*
X519223500Y-438991500D02*
X524303500Y-438991500D01*
X520493500Y-397589500D02*
X523922500Y-397589500D01*
%TO.N,RD*%
X515667500Y-435054500D02*
X525573500Y-435054500D01*
X520493500Y-450167500D02*
X525573500Y-450167500D01*
X520493500Y-401653500D02*
X525573500Y-401653500D01*
X525573500Y-406733500D02*
X515794500Y-406733500D01*
X520239500Y-458295500D02*
X525573500Y-458295500D01*
X520493500Y-429720500D02*
X525573500Y-429720500D01*
%TO.N,RE*%
X520493500Y-423624500D02*
X526843500Y-423624500D01*
X520493500Y-395684500D02*
X529129500Y-395684500D01*
X519477500Y-443182500D02*
X526843500Y-443182500D01*
X520493500Y-433784500D02*
X526843500Y-433784500D01*
%TO.N,RF*%
X520493500Y-399748500D02*
X528113500Y-399748500D01*
X520493500Y-425529500D02*
X528113500Y-425529500D01*
X520493500Y-417782500D02*
X528113500Y-417782500D01*
X520493500Y-407749500D02*
X528113500Y-407749500D01*
X515442000Y-449377000D02*
X528085000Y-449377000D01*
X519604500Y-441023500D02*
X528113500Y-441023500D01*
X515413500Y-449405500D02*
X515442000Y-449377000D01*
X528085000Y-449377000D02*
X528113500Y-449405500D01*
%TO.N,RG*%
X516331000Y-398761000D02*
X528974000Y-398761000D01*
X520493500Y-442039500D02*
X529383500Y-442039500D01*
X529383500Y-447119500D02*
X515794500Y-447119500D01*
X516175500Y-398605500D02*
X516331000Y-398761000D01*
X529383500Y-414734500D02*
X515794500Y-414734500D01*
X528974000Y-398761000D02*
X529383500Y-398351500D01*
X520493500Y-437848500D02*
X529383500Y-437848500D01*
X520493500Y-405590500D02*
X529383500Y-405590500D01*
D17*
%TO.N,SEGR A*%
X579294500Y-291671500D02*
X563800500Y-307165500D01*
X591613500Y-291671500D02*
X579294500Y-291671500D01*
X563800500Y-307165500D02*
X563800500Y-363553500D01*
D18*
%TO.N,RI2*%
X516039000Y-369405000D02*
X516039000Y-337655000D01*
X521255500Y-317706500D02*
X520493500Y-316944500D01*
X521255500Y-332438500D02*
X521255500Y-317706500D01*
X516039000Y-337655000D02*
X521255500Y-332438500D01*
X520493500Y-316944500D02*
X515413500Y-316944500D01*
X512873500Y-372570500D02*
X516039000Y-369405000D01*
%TO.N,LEDH*%
X514114000Y-320784000D02*
X514114000Y-316466000D01*
X519253000Y-315645000D02*
X520493500Y-314404500D01*
X520493500Y-314404500D02*
X520493500Y-282654500D01*
X512873500Y-322024500D02*
X514114000Y-320784000D01*
X520493500Y-282654500D02*
X515413500Y-277574500D01*
X514935000Y-315645000D02*
X519253000Y-315645000D01*
X514114000Y-316466000D02*
X514935000Y-315645000D01*
%TD*%
M02*
