%TF.GenerationSoftware,KiCad,Pcbnew,7.0.7*%
%TF.CreationDate,2024-03-05T16:40:33-06:00*%
%TF.ProjectId,LED Array,4c454420-4172-4726-9179-2e6b69636164,rev?*%
%TF.SameCoordinates,Original*%
%TF.FileFunction,Paste,Top*%
%TF.FilePolarity,Positive*%
%FSLAX46Y46*%
G04 Gerber Fmt 4.6, Leading zero omitted, Abs format (unit mm)*
G04 Created by KiCad (PCBNEW 7.0.7) date 2024-03-05 16:40:33*
%MOMM*%
%LPD*%
G01*
G04 APERTURE LIST*
G04 Aperture macros list*
%AMRoundRect*
0 Rectangle with rounded corners*
0 $1 Rounding radius*
0 $2 $3 $4 $5 $6 $7 $8 $9 X,Y pos of 4 corners*
0 Add a 4 corners polygon primitive as box body*
4,1,4,$2,$3,$4,$5,$6,$7,$8,$9,$2,$3,0*
0 Add four circle primitives for the rounded corners*
1,1,$1+$1,$2,$3*
1,1,$1+$1,$4,$5*
1,1,$1+$1,$6,$7*
1,1,$1+$1,$8,$9*
0 Add four rect primitives between the rounded corners*
20,1,$1+$1,$2,$3,$4,$5,0*
20,1,$1+$1,$4,$5,$6,$7,0*
20,1,$1+$1,$6,$7,$8,$9,0*
20,1,$1+$1,$8,$9,$2,$3,0*%
G04 Aperture macros list end*
%ADD10RoundRect,0.250000X0.450000X-0.262500X0.450000X0.262500X-0.450000X0.262500X-0.450000X-0.262500X0*%
%ADD11RoundRect,0.275000X0.350000X0.275000X-0.350000X0.275000X-0.350000X-0.275000X0.350000X-0.275000X0*%
%ADD12RoundRect,0.275000X-0.275000X0.350000X-0.275000X-0.350000X0.275000X-0.350000X0.275000X0.350000X0*%
%ADD13RoundRect,0.112500X-0.162500X-0.112500X0.162500X-0.112500X0.162500X0.112500X-0.162500X0.112500X0*%
%ADD14RoundRect,0.275000X0.275000X-0.350000X0.275000X0.350000X-0.275000X0.350000X-0.275000X-0.350000X0*%
%ADD15RoundRect,0.275000X-0.350000X-0.275000X0.350000X-0.275000X0.350000X0.275000X-0.350000X0.275000X0*%
%ADD16RoundRect,0.250000X-0.262500X-0.450000X0.262500X-0.450000X0.262500X0.450000X-0.262500X0.450000X0*%
%ADD17RoundRect,0.250000X-0.450000X0.262500X-0.450000X-0.262500X0.450000X-0.262500X0.450000X0.262500X0*%
%ADD18RoundRect,0.250000X0.262500X0.450000X-0.262500X0.450000X-0.262500X-0.450000X0.262500X-0.450000X0*%
%ADD19RoundRect,0.150000X-0.825000X-0.150000X0.825000X-0.150000X0.825000X0.150000X-0.825000X0.150000X0*%
%ADD20R,1.500000X0.600000*%
G04 APERTURE END LIST*
D10*
%TO.C,R24*%
X583993500Y-477877000D03*
X583993500Y-476052000D03*
%TD*%
D11*
%TO.C,D91*%
X598630500Y-507317500D03*
X596280500Y-507317500D03*
%TD*%
D12*
%TO.C,D84*%
X661463500Y-447976500D03*
X661463500Y-450326500D03*
%TD*%
D13*
%TO.C,U33*%
X516302500Y-436009500D03*
X516302500Y-436959500D03*
X516302500Y-437909500D03*
X518852500Y-437909500D03*
X518852500Y-436009500D03*
%TD*%
D14*
%TO.C,D98*%
X557323500Y-426323500D03*
X557323500Y-423973500D03*
%TD*%
D10*
%TO.C,R27*%
X634793500Y-477877000D03*
X634793500Y-476052000D03*
%TD*%
D14*
%TO.C,D107*%
X547036500Y-320024500D03*
X547036500Y-317674500D03*
%TD*%
D12*
%TO.C,D73*%
X671623500Y-357679500D03*
X671623500Y-360029500D03*
%TD*%
D15*
%TO.C,D69*%
X636412500Y-268684500D03*
X638762500Y-268684500D03*
%TD*%
%TO.C,D94*%
X628157500Y-507444500D03*
X630507500Y-507444500D03*
%TD*%
D12*
%TO.C,D81*%
X671369500Y-471979500D03*
X671369500Y-474329500D03*
%TD*%
D14*
%TO.C,D13*%
X583993500Y-530114500D03*
X583993500Y-527764500D03*
%TD*%
D15*
%TO.C,D72*%
X612282500Y-278844500D03*
X614632500Y-278844500D03*
%TD*%
D16*
%TO.C,R16*%
X576731000Y-470614500D03*
X578556000Y-470614500D03*
%TD*%
D13*
%TO.C,U28*%
X516419500Y-399753500D03*
X516419500Y-400703500D03*
X516419500Y-401653500D03*
X518969500Y-401653500D03*
X518969500Y-399753500D03*
%TD*%
%TO.C,U24*%
X516419500Y-395689500D03*
X516419500Y-396639500D03*
X516419500Y-397589500D03*
X518969500Y-397589500D03*
X518969500Y-395689500D03*
%TD*%
D14*
%TO.C,D108*%
X557323500Y-328152500D03*
X557323500Y-325802500D03*
%TD*%
D13*
%TO.C,U31*%
X516302500Y-440073500D03*
X516302500Y-441023500D03*
X516302500Y-441973500D03*
X518852500Y-441973500D03*
X518852500Y-440073500D03*
%TD*%
D15*
%TO.C,D113*%
X636412500Y-382984500D03*
X638762500Y-382984500D03*
%TD*%
D13*
%TO.C,U26*%
X516302500Y-423624500D03*
X516302500Y-424574500D03*
X516302500Y-425524500D03*
X518852500Y-425524500D03*
X518852500Y-423624500D03*
%TD*%
D14*
%TO.C,D100*%
X557196500Y-442452500D03*
X557196500Y-440102500D03*
%TD*%
D10*
%TO.C,R25*%
X634793500Y-363577000D03*
X634793500Y-361752000D03*
%TD*%
D17*
%TO.C,R17*%
X583993500Y-298252000D03*
X583993500Y-300077000D03*
%TD*%
D16*
%TO.C,R31*%
X583970000Y-523573500D03*
X585795000Y-523573500D03*
%TD*%
D13*
%TO.C,U35*%
X518847500Y-448260600D03*
X518847500Y-450160600D03*
X516297500Y-450160600D03*
X516297500Y-449210600D03*
X516297500Y-448260600D03*
%TD*%
D16*
%TO.C,R15*%
X576731000Y-419814500D03*
X578556000Y-419814500D03*
%TD*%
D15*
%TO.C,D70*%
X620410500Y-268684500D03*
X622760500Y-268684500D03*
%TD*%
D13*
%TO.C,U22*%
X516302500Y-427810500D03*
X516302500Y-428760500D03*
X516302500Y-429710500D03*
X518852500Y-429710500D03*
X518852500Y-427810500D03*
%TD*%
D15*
%TO.C,D93*%
X636158500Y-497284500D03*
X638508500Y-497284500D03*
%TD*%
D13*
%TO.C,U30*%
X516302500Y-452199500D03*
X516302500Y-453149500D03*
X516302500Y-454099500D03*
X518852500Y-454099500D03*
X518852500Y-452199500D03*
%TD*%
D12*
%TO.C,D76*%
X661463500Y-333676500D03*
X661463500Y-336026500D03*
%TD*%
%TO.C,D104*%
X547036500Y-448103500D03*
X547036500Y-450453500D03*
%TD*%
D11*
%TO.C,D67*%
X606504500Y-268684500D03*
X604154500Y-268684500D03*
%TD*%
D16*
%TO.C,R22*%
X576731000Y-349964500D03*
X578556000Y-349964500D03*
%TD*%
D15*
%TO.C,D114*%
X628284500Y-392890500D03*
X630634500Y-392890500D03*
%TD*%
D18*
%TO.C,R21*%
X642056000Y-419814500D03*
X640231000Y-419814500D03*
%TD*%
D13*
%TO.C,U38*%
X516302500Y-444135600D03*
X516302500Y-445085600D03*
X516302500Y-446035600D03*
X518852500Y-446035600D03*
X518852500Y-444135600D03*
%TD*%
%TO.C,U32*%
X516292500Y-419687500D03*
X516292500Y-420637500D03*
X516292500Y-421587500D03*
X518842500Y-421587500D03*
X518842500Y-419687500D03*
%TD*%
%TO.C,U36*%
X516302500Y-431884500D03*
X516302500Y-432834500D03*
X516302500Y-433784500D03*
X518852500Y-433784500D03*
X518852500Y-431884500D03*
%TD*%
%TO.C,U34*%
X516292500Y-407754500D03*
X516292500Y-408704500D03*
X516292500Y-409654500D03*
X518842500Y-409654500D03*
X518842500Y-407754500D03*
%TD*%
D19*
%TO.C,U3*%
X531988500Y-388191500D03*
X531988500Y-389461500D03*
X531988500Y-390731500D03*
X531988500Y-392001500D03*
X531988500Y-393271500D03*
X531988500Y-394541500D03*
X531988500Y-395811500D03*
X531988500Y-397081500D03*
X536938500Y-397081500D03*
X536938500Y-395811500D03*
X536938500Y-394541500D03*
X536938500Y-393271500D03*
X536938500Y-392001500D03*
X536938500Y-390731500D03*
X536938500Y-389461500D03*
X536938500Y-388191500D03*
%TD*%
D11*
%TO.C,D118*%
X590502500Y-383111500D03*
X588152500Y-383111500D03*
%TD*%
D14*
%TO.C,D15*%
X660193500Y-250714500D03*
X660193500Y-248364500D03*
%TD*%
D18*
%TO.C,R29*%
X555823000Y-248491500D03*
X553998000Y-248491500D03*
%TD*%
D11*
%TO.C,D68*%
X590502500Y-268684500D03*
X588152500Y-268684500D03*
%TD*%
%TO.C,D89*%
X582628500Y-507317500D03*
X580278500Y-507317500D03*
%TD*%
D15*
%TO.C,D96*%
X612155500Y-507317500D03*
X614505500Y-507317500D03*
%TD*%
D18*
%TO.C,R23*%
X642056000Y-349964500D03*
X640231000Y-349964500D03*
%TD*%
D13*
%TO.C,U25*%
X516297500Y-415875600D03*
X516297500Y-416825600D03*
X516297500Y-417775600D03*
X518847500Y-417775600D03*
X518847500Y-415875600D03*
%TD*%
D12*
%TO.C,D74*%
X661336500Y-349678500D03*
X661336500Y-352028500D03*
%TD*%
D14*
%TO.C,D88*%
X671623500Y-442452500D03*
X671623500Y-440102500D03*
%TD*%
D15*
%TO.C,D95*%
X620156500Y-497284500D03*
X622506500Y-497284500D03*
%TD*%
D14*
%TO.C,D79*%
X661463500Y-320151500D03*
X661463500Y-317801500D03*
%TD*%
%TO.C,D87*%
X661463500Y-434451500D03*
X661463500Y-432101500D03*
%TD*%
D12*
%TO.C,D101*%
X557069500Y-471979500D03*
X557069500Y-474329500D03*
%TD*%
D11*
%TO.C,D120*%
X606504500Y-382984500D03*
X604154500Y-382984500D03*
%TD*%
D12*
%TO.C,D109*%
X557069500Y-357806500D03*
X557069500Y-360156500D03*
%TD*%
%TO.C,D82*%
X661336500Y-464105500D03*
X661336500Y-466455500D03*
%TD*%
D16*
%TO.C,R32*%
X662964000Y-248237500D03*
X664789000Y-248237500D03*
%TD*%
D14*
%TO.C,D85*%
X661463500Y-418322500D03*
X661463500Y-415972500D03*
%TD*%
%TO.C,D97*%
X547036500Y-418322500D03*
X547036500Y-415972500D03*
%TD*%
D18*
%TO.C,R26*%
X642056000Y-311864500D03*
X640231000Y-311864500D03*
%TD*%
D20*
%TO.C,U4*%
X525567500Y-377650500D03*
X525567500Y-376380500D03*
X525567500Y-375110500D03*
X525567500Y-373840500D03*
X525567500Y-372570500D03*
X525567500Y-371300500D03*
X525567500Y-370030500D03*
X525567500Y-368760500D03*
X518467500Y-368760500D03*
X518467500Y-370030500D03*
X518467500Y-371300500D03*
X518467500Y-372570500D03*
X518467500Y-373840500D03*
X518467500Y-375110500D03*
X518467500Y-376380500D03*
X518467500Y-377650500D03*
%TD*%
D15*
%TO.C,D115*%
X620156500Y-383111500D03*
X622506500Y-383111500D03*
%TD*%
D11*
%TO.C,D119*%
X598503500Y-392890500D03*
X596153500Y-392890500D03*
%TD*%
D12*
%TO.C,D112*%
X547290500Y-333676500D03*
X547290500Y-336026500D03*
%TD*%
%TO.C,D111*%
X557323500Y-341804500D03*
X557323500Y-344154500D03*
%TD*%
D18*
%TO.C,R18*%
X642056000Y-470614500D03*
X640231000Y-470614500D03*
%TD*%
D11*
%TO.C,D65*%
X582501500Y-278844500D03*
X580151500Y-278844500D03*
%TD*%
D19*
%TO.C,U39*%
X518907500Y-350472500D03*
X518907500Y-351742500D03*
X518907500Y-353012500D03*
X518907500Y-354282500D03*
X518907500Y-355552500D03*
X518907500Y-356822500D03*
X518907500Y-358092500D03*
X518907500Y-359362500D03*
X523857500Y-359362500D03*
X523857500Y-358092500D03*
X523857500Y-356822500D03*
X523857500Y-355552500D03*
X523857500Y-354282500D03*
X523857500Y-353012500D03*
X523857500Y-351742500D03*
X523857500Y-350472500D03*
%TD*%
D13*
%TO.C,U23*%
X516302500Y-456329500D03*
X516302500Y-457279500D03*
X516302500Y-458229500D03*
X518852500Y-458229500D03*
X518852500Y-456329500D03*
%TD*%
D12*
%TO.C,D102*%
X547036500Y-463978500D03*
X547036500Y-466328500D03*
%TD*%
D14*
%TO.C,D106*%
X557196500Y-312023500D03*
X557196500Y-309673500D03*
%TD*%
D15*
%TO.C,D71*%
X628284500Y-278844500D03*
X630634500Y-278844500D03*
%TD*%
D13*
%TO.C,U37*%
X516419500Y-403690500D03*
X516419500Y-404640500D03*
X516419500Y-405590500D03*
X518969500Y-405590500D03*
X518969500Y-403690500D03*
%TD*%
D16*
%TO.C,R30*%
X634770000Y-524462500D03*
X636595000Y-524462500D03*
%TD*%
D10*
%TO.C,R28*%
X583993500Y-363577000D03*
X583993500Y-361752000D03*
%TD*%
D11*
%TO.C,D117*%
X582501500Y-393144500D03*
X580151500Y-393144500D03*
%TD*%
D14*
%TO.C,D1*%
X558593500Y-250714500D03*
X558593500Y-248364500D03*
%TD*%
D11*
%TO.C,D92*%
X606631500Y-497284500D03*
X604281500Y-497284500D03*
%TD*%
%TO.C,D90*%
X590629500Y-497411500D03*
X588279500Y-497411500D03*
%TD*%
D17*
%TO.C,R20*%
X634793500Y-298252000D03*
X634793500Y-300077000D03*
%TD*%
D14*
%TO.C,D77*%
X661590500Y-304022500D03*
X661590500Y-301672500D03*
%TD*%
%TO.C,D105*%
X547163500Y-304149500D03*
X547163500Y-301799500D03*
%TD*%
D12*
%TO.C,D83*%
X671623500Y-455850500D03*
X671623500Y-458200500D03*
%TD*%
%TO.C,D75*%
X671750500Y-341677500D03*
X671750500Y-344027500D03*
%TD*%
D14*
%TO.C,D11*%
X634793500Y-530114500D03*
X634793500Y-527764500D03*
%TD*%
%TO.C,D86*%
X671496500Y-426323500D03*
X671496500Y-423973500D03*
%TD*%
D13*
%TO.C,U27*%
X516302500Y-460647500D03*
X516302500Y-461597500D03*
X516302500Y-462547500D03*
X518852500Y-462547500D03*
X518852500Y-460647500D03*
%TD*%
D14*
%TO.C,D80*%
X671496500Y-328152500D03*
X671496500Y-325802500D03*
%TD*%
%TO.C,D78*%
X671623500Y-312023500D03*
X671623500Y-309673500D03*
%TD*%
D11*
%TO.C,D66*%
X598630500Y-278844500D03*
X596280500Y-278844500D03*
%TD*%
D12*
%TO.C,D103*%
X557323500Y-455977500D03*
X557323500Y-458327500D03*
%TD*%
D15*
%TO.C,D116*%
X612123500Y-392890500D03*
X614473500Y-392890500D03*
%TD*%
D14*
%TO.C,D99*%
X547163500Y-434451500D03*
X547163500Y-432101500D03*
%TD*%
D16*
%TO.C,R19*%
X576731000Y-311864500D03*
X578556000Y-311864500D03*
%TD*%
D12*
%TO.C,D110*%
X547163500Y-349678500D03*
X547163500Y-352028500D03*
%TD*%
D13*
%TO.C,U29*%
X516297500Y-411689600D03*
X516297500Y-412639600D03*
X516297500Y-413589600D03*
X518847500Y-413589600D03*
X518847500Y-411689600D03*
%TD*%
M02*
