%TF.GenerationSoftware,KiCad,Pcbnew,7.0.7*%
%TF.CreationDate,2024-03-05T16:40:33-06:00*%
%TF.ProjectId,LED Array,4c454420-4172-4726-9179-2e6b69636164,rev?*%
%TF.SameCoordinates,Original*%
%TF.FileFunction,Soldermask,Bot*%
%TF.FilePolarity,Negative*%
%FSLAX46Y46*%
G04 Gerber Fmt 4.6, Leading zero omitted, Abs format (unit mm)*
G04 Created by KiCad (PCBNEW 7.0.7) date 2024-03-05 16:40:33*
%MOMM*%
%LPD*%
G01*
G04 APERTURE LIST*
G04 Aperture macros list*
%AMRoundRect*
0 Rectangle with rounded corners*
0 $1 Rounding radius*
0 $2 $3 $4 $5 $6 $7 $8 $9 X,Y pos of 4 corners*
0 Add a 4 corners polygon primitive as box body*
4,1,4,$2,$3,$4,$5,$6,$7,$8,$9,$2,$3,0*
0 Add four circle primitives for the rounded corners*
1,1,$1+$1,$2,$3*
1,1,$1+$1,$4,$5*
1,1,$1+$1,$6,$7*
1,1,$1+$1,$8,$9*
0 Add four rect primitives between the rounded corners*
20,1,$1+$1,$2,$3,$4,$5,0*
20,1,$1+$1,$4,$5,$6,$7,0*
20,1,$1+$1,$6,$7,$8,$9,0*
20,1,$1+$1,$8,$9,$2,$3,0*%
G04 Aperture macros list end*
%ADD10C,3.200000*%
%ADD11R,2.100000X2.100000*%
%ADD12C,2.100000*%
%ADD13RoundRect,0.250000X0.600000X0.600000X-0.600000X0.600000X-0.600000X-0.600000X0.600000X-0.600000X0*%
%ADD14C,1.700000*%
%ADD15RoundRect,0.250000X-0.600000X-0.600000X0.600000X-0.600000X0.600000X0.600000X-0.600000X0.600000X0*%
G04 APERTURE END LIST*
D10*
%TO.C,H6*%
X685038000Y-249174000D03*
%TD*%
%TO.C,H5*%
X685038000Y-527812000D03*
%TD*%
%TO.C,H7*%
X512064000Y-249174000D03*
%TD*%
%TO.C,H8*%
X512064000Y-527812000D03*
%TD*%
D11*
%TO.C,J2*%
X531288500Y-296116500D03*
D12*
X531288500Y-291036500D03*
%TD*%
D13*
%TO.C,J1*%
X515413500Y-309324500D03*
D14*
X512873500Y-309324500D03*
X515413500Y-311864500D03*
X512873500Y-311864500D03*
X515413500Y-314404500D03*
X512873500Y-314404500D03*
X515413500Y-316944500D03*
X512873500Y-316944500D03*
X515413500Y-319484500D03*
X512873500Y-319484500D03*
X515413500Y-322024500D03*
X512873500Y-322024500D03*
X515413500Y-324564500D03*
X512873500Y-324564500D03*
X515413500Y-327104500D03*
X512873500Y-327104500D03*
%TD*%
D11*
%TO.C,J4*%
X531161500Y-281638500D03*
D12*
X531161500Y-276558500D03*
%TD*%
D15*
%TO.C,J3*%
X512873500Y-295354500D03*
D14*
X515413500Y-295354500D03*
X512873500Y-292814500D03*
X515413500Y-292814500D03*
X512873500Y-290274500D03*
X515413500Y-290274500D03*
X512873500Y-287734500D03*
X515413500Y-287734500D03*
X512873500Y-285194500D03*
X515413500Y-285194500D03*
X512873500Y-282654500D03*
X515413500Y-282654500D03*
X512873500Y-280114500D03*
X515413500Y-280114500D03*
X512873500Y-277574500D03*
X515413500Y-277574500D03*
%TD*%
M02*
