M48
; DRILL file {KiCad 7.0.7} date Fri Feb 16 12:13:31 2024
; FORMAT={-:-/ absolute / inch / decimal}
; #@! TF.CreationDate,2024-02-16T12:13:31-06:00
; #@! TF.GenerationSoftware,Kicad,Pcbnew,7.0.7
; #@! TF.FileFunction,Plated,1,2,PTH
FMAT,2
INCH
; #@! TA.AperFunction,Plated,PTH,ComponentDrill
T1C0.0079
; #@! TA.AperFunction,Plated,PTH,ViaDrill
T2C0.0157
; #@! TA.AperFunction,Plated,PTH,ComponentDrill
T3C0.0394
; #@! TA.AperFunction,Plated,PTH,ComponentDrill
T4C0.0433
%
G90
G05
T1
X6.0399Y-2.87
X6.0399Y-2.9301
X6.0699Y-2.84
X6.0699Y-2.9
X6.0699Y-2.9601
X6.1Y-2.87
X6.1Y-2.9301
X6.13Y-2.84
X6.13Y-2.9
X6.13Y-2.9601
X6.16Y-2.87
X6.16Y-2.9301
T2
X4.86Y-4.07
X4.93Y-3.81
X5.1Y-4.03
X5.22Y-2.89
X5.28Y-2.64
X5.32Y-4.32
X5.32Y-4.4
X5.36Y-3.52
X5.38Y-2.64
X5.39Y-3.99
X5.43Y-3.45
X5.45Y-4.04
X5.4685Y-3.132
X5.49Y-3.7125
X5.4914Y-3.1
X5.5Y-3.99
X5.55Y-3.93
X5.58Y-4.26
X5.59Y-3.68
X5.61Y-3.9
X5.63Y-4.04
X5.66Y-4.33
X5.66Y-4.4
X5.68Y-2.64
X5.72Y-3.6826
X5.7247Y-2.8156
X5.7291Y-2.76
X5.84Y-2.61
X5.9Y-3.11
X5.9Y-3.26
X5.92Y-2.7611
X5.92Y-2.81
X6.26Y-2.87
X6.4098Y-3.0792
X6.41Y-2.95
X6.41Y-3.0
X6.4105Y-3.0398
X6.42Y-2.61
X6.6075Y-3.0325
X6.6098Y-2.9902
X6.61Y-2.95
X6.61Y-3.0798
X6.68Y-2.59
X6.75Y-3.27
X6.91Y-3.27
X6.95Y-3.22
X6.97Y-2.95
T3
X6.04Y-3.72
X6.04Y-3.82
X6.14Y-3.72
X6.14Y-3.82
X6.24Y-3.72
X6.24Y-3.82
X6.34Y-3.72
X6.34Y-3.82
X6.44Y-3.72
X6.44Y-3.82
X6.54Y-3.72
X6.54Y-3.82
X6.64Y-3.72
X6.64Y-3.82
X6.74Y-3.72
X6.74Y-3.82
T4
X4.9869Y-2.9498
X4.9869Y-3.1498
X4.9869Y-3.39
X4.9869Y-3.59
X5.8602Y-4.3531
X6.0602Y-4.3531
X6.3002Y-4.3531
X6.5002Y-4.3531
X6.7404Y-4.3531
X6.8298Y-2.7469
X6.9404Y-4.3531
X7.0298Y-2.7469
X7.2431Y-3.0496
X7.2431Y-3.2496
X7.2431Y-3.4896
X7.2431Y-3.6896
X7.2431Y-3.9298
X7.2431Y-4.1298
T0
M30
