%TF.GenerationSoftware,KiCad,Pcbnew,7.0.7*%
%TF.CreationDate,2024-02-16T12:13:28-06:00*%
%TF.ProjectId,Senior_Design_MCU_Board,53656e69-6f72-45f4-9465-7369676e5f4d,rev?*%
%TF.SameCoordinates,Original*%
%TF.FileFunction,Copper,L2,Bot*%
%TF.FilePolarity,Positive*%
%FSLAX46Y46*%
G04 Gerber Fmt 4.6, Leading zero omitted, Abs format (unit mm)*
G04 Created by KiCad (PCBNEW 7.0.7) date 2024-02-16 12:13:28*
%MOMM*%
%LPD*%
G01*
G04 APERTURE LIST*
G04 Aperture macros list*
%AMRoundRect*
0 Rectangle with rounded corners*
0 $1 Rounding radius*
0 $2 $3 $4 $5 $6 $7 $8 $9 X,Y pos of 4 corners*
0 Add a 4 corners polygon primitive as box body*
4,1,4,$2,$3,$4,$5,$6,$7,$8,$9,$2,$3,0*
0 Add four circle primitives for the rounded corners*
1,1,$1+$1,$2,$3*
1,1,$1+$1,$4,$5*
1,1,$1+$1,$6,$7*
1,1,$1+$1,$8,$9*
0 Add four rect primitives between the rounded corners*
20,1,$1+$1,$2,$3,$4,$5,0*
20,1,$1+$1,$4,$5,$6,$7,0*
20,1,$1+$1,$6,$7,$8,$9,0*
20,1,$1+$1,$8,$9,$2,$3,0*%
G04 Aperture macros list end*
%TA.AperFunction,ComponentPad*%
%ADD10R,2.100000X2.100000*%
%TD*%
%TA.AperFunction,ComponentPad*%
%ADD11C,2.100000*%
%TD*%
%TA.AperFunction,ComponentPad*%
%ADD12RoundRect,0.250000X-0.600000X0.600000X-0.600000X-0.600000X0.600000X-0.600000X0.600000X0.600000X0*%
%TD*%
%TA.AperFunction,ComponentPad*%
%ADD13C,1.700000*%
%TD*%
%TA.AperFunction,HeatsinkPad*%
%ADD14C,0.600000*%
%TD*%
%TA.AperFunction,ViaPad*%
%ADD15C,0.800000*%
%TD*%
%TA.AperFunction,Conductor*%
%ADD16C,0.254000*%
%TD*%
%TA.AperFunction,Conductor*%
%ADD17C,0.381000*%
%TD*%
%TA.AperFunction,Conductor*%
%ADD18C,0.250000*%
%TD*%
G04 APERTURE END LIST*
D10*
%TO.P,J4,1,Pin_1*%
%TO.N,+12V*%
X126667000Y-91186000D03*
D11*
%TO.P,J4,2,Pin_2*%
%TO.N,GND*%
X126667000Y-86106000D03*
%TD*%
D10*
%TO.P,J6,1,Pin_1*%
%TO.N,Net-(J6-Pin_1)*%
X165105000Y-110569000D03*
D11*
%TO.P,J6,2,Pin_2*%
%TO.N,GND*%
X160025000Y-110569000D03*
%TD*%
D10*
%TO.P,J8,1,Pin_1*%
%TO.N,Net-(J8-Pin_1)*%
X183975000Y-99817000D03*
D11*
%TO.P,J8,2,Pin_2*%
%TO.N,GND*%
X183975000Y-104897000D03*
%TD*%
D10*
%TO.P,J5,1,Pin_1*%
%TO.N,Net-(J5-Pin_1)*%
X153929000Y-110569000D03*
D11*
%TO.P,J5,2,Pin_2*%
%TO.N,GND*%
X148849000Y-110569000D03*
%TD*%
D10*
%TO.P,J11,1,Pin_1*%
%TO.N,Net-(J11-Pin_1)*%
X173477000Y-69771000D03*
D11*
%TO.P,J11,2,Pin_2*%
%TO.N,GND*%
X178557000Y-69771000D03*
%TD*%
D10*
%TO.P,J3,1,Pin_1*%
%TO.N,+12V*%
X126667000Y-80005000D03*
D11*
%TO.P,J3,2,Pin_2*%
%TO.N,GND*%
X126667000Y-74925000D03*
%TD*%
D10*
%TO.P,J7,1,Pin_1*%
%TO.N,Net-(J7-Pin_1)*%
X176286000Y-110569000D03*
D11*
%TO.P,J7,2,Pin_2*%
%TO.N,GND*%
X171206000Y-110569000D03*
%TD*%
D12*
%TO.P,J2,1,Pin_1*%
%TO.N,SEG1_BIT1*%
X171196000Y-94488000D03*
D13*
%TO.P,J2,2,Pin_2*%
%TO.N,SEG1_BIT2*%
X171196000Y-97028000D03*
%TO.P,J2,3,Pin_3*%
%TO.N,SEG1_BIT3*%
X168656000Y-94488000D03*
%TO.P,J2,4,Pin_4*%
%TO.N,SEG1_BIT4*%
X168656000Y-97028000D03*
%TO.P,J2,5,Pin_5*%
%TO.N,SEG2_BIT1*%
X166116000Y-94488000D03*
%TO.P,J2,6,Pin_6*%
%TO.N,SEG2_BIT2*%
X166116000Y-97028000D03*
%TO.P,J2,7,Pin_7*%
%TO.N,SEG2_BIT3*%
X163576000Y-94488000D03*
%TO.P,J2,8,Pin_8*%
%TO.N,SEG2_BIT4*%
X163576000Y-97028000D03*
%TO.P,J2,9,Pin_9*%
%TO.N,L_MUL*%
X161036000Y-94488000D03*
%TO.P,J2,10,Pin_10*%
%TO.N,L_SET_LED2*%
X161036000Y-97028000D03*
%TO.P,J2,11,Pin_11*%
%TO.N,L_SET_LED1*%
X158496000Y-94488000D03*
%TO.P,J2,12,Pin_12*%
%TO.N,L_HOME*%
X158496000Y-97028000D03*
%TO.P,J2,13,Pin_13*%
%TO.N,R_SET_LED1*%
X155956000Y-94488000D03*
%TO.P,J2,14,Pin_14*%
%TO.N,R_SET_LED2*%
X155956000Y-97028000D03*
%TO.P,J2,15,Pin_15*%
%TO.N,R_MUL*%
X153416000Y-94488000D03*
%TO.P,J2,16,Pin_16*%
%TO.N,R_HOME*%
X153416000Y-97028000D03*
%TD*%
D14*
%TO.P,U3,39,GND*%
%TO.N,GND*%
X153414000Y-72898500D03*
X153414000Y-74423500D03*
X154176500Y-72136000D03*
X154176500Y-73661000D03*
X154176500Y-75186000D03*
X154939000Y-72898500D03*
X154939000Y-74423500D03*
X155701500Y-72136000D03*
X155701500Y-73661000D03*
X155701500Y-75186000D03*
X156464000Y-72898500D03*
X156464000Y-74423500D03*
%TD*%
D10*
%TO.P,J10,1,Pin_1*%
%TO.N,Net-(J10-Pin_1)*%
X183975000Y-77460000D03*
D11*
%TO.P,J10,2,Pin_2*%
%TO.N,GND*%
X183975000Y-82540000D03*
%TD*%
D10*
%TO.P,J9,1,Pin_1*%
%TO.N,Net-(J9-Pin_1)*%
X183975000Y-88636000D03*
D11*
%TO.P,J9,2,Pin_2*%
%TO.N,GND*%
X183975000Y-93716000D03*
%TD*%
D15*
%TO.N,GPIO0*%
X149860000Y-78994000D03*
X139481500Y-78740000D03*
%TO.N,+3.3V*%
X175514000Y-83058000D03*
X136906000Y-101346000D03*
X171450000Y-83058000D03*
X142494000Y-99060000D03*
X139700000Y-101346000D03*
X140970000Y-99822000D03*
%TO.N,RXD*%
X150368000Y-70131000D03*
X145519498Y-70104000D03*
%TO.N,TXD*%
X145408291Y-71516307D03*
X150368000Y-71374000D03*
%TO.N,OUT4*%
X167894000Y-78226500D03*
X162810140Y-78211140D03*
%TO.N,OUT5*%
X162826684Y-77211775D03*
X167831002Y-77024998D03*
%TO.N,OUT6*%
X167889701Y-75950299D03*
X162814000Y-76200000D03*
%TO.N,OUT7*%
X162814000Y-74930000D03*
X167894000Y-74930000D03*
%TO.N,GND*%
X143764000Y-111760000D03*
X135128000Y-111760000D03*
X141732000Y-108204000D03*
X159004000Y-72898000D03*
X143002000Y-102616000D03*
X135128000Y-109728000D03*
X134112000Y-67056000D03*
X144272000Y-67056000D03*
X125222000Y-96774000D03*
X139446000Y-94297417D03*
X169672000Y-65786000D03*
X176530000Y-81788000D03*
X132588000Y-73406000D03*
X177038000Y-74930000D03*
X163068000Y-66294000D03*
X149860000Y-82804000D03*
X138430000Y-102616000D03*
X148336000Y-66294000D03*
X141986000Y-93472000D03*
X145288000Y-93538000D03*
X137922000Y-87630000D03*
X129540000Y-102362000D03*
X136144000Y-89408000D03*
X123444000Y-103378000D03*
X143764000Y-109982000D03*
X138901107Y-79553725D03*
X136652000Y-67056000D03*
%TD*%
D16*
%TO.N,GPIO0*%
X149606000Y-78740000D02*
X139481500Y-78740000D01*
X149860000Y-78994000D02*
X149606000Y-78740000D01*
D17*
%TO.N,+3.3V*%
X140970000Y-99822000D02*
X141732000Y-99822000D01*
X171450000Y-83058000D02*
X175514000Y-83058000D01*
X139700000Y-101346000D02*
X136906000Y-101346000D01*
X141732000Y-99822000D02*
X142494000Y-99060000D01*
D18*
%TO.N,RXD*%
X150341000Y-70104000D02*
X150368000Y-70131000D01*
X145519498Y-70104000D02*
X150341000Y-70104000D01*
%TO.N,TXD*%
X150337385Y-71404615D02*
X150368000Y-71374000D01*
X145408291Y-71516307D02*
X145519983Y-71404615D01*
X145519983Y-71404615D02*
X150337385Y-71404615D01*
%TO.N,OUT4*%
X167878640Y-78211140D02*
X167894000Y-78226500D01*
X162810140Y-78211140D02*
X167878640Y-78211140D01*
%TO.N,OUT5*%
X167644225Y-77211775D02*
X167831002Y-77024998D01*
X162826684Y-77211775D02*
X167644225Y-77211775D01*
%TO.N,OUT6*%
X167885402Y-75946000D02*
X167889701Y-75950299D01*
X162814000Y-76200000D02*
X163068000Y-75946000D01*
X163068000Y-75946000D02*
X167885402Y-75946000D01*
%TO.N,OUT7*%
X167894000Y-74930000D02*
X162814000Y-74930000D01*
%TD*%
%TA.AperFunction,Conductor*%
%TO.N,GND*%
G36*
X131568841Y-64771000D02*
G01*
X131619000Y-64771000D01*
X179666212Y-64771000D01*
X179670862Y-64770500D01*
X188851500Y-64770500D01*
X188918539Y-64790185D01*
X188964294Y-64842989D01*
X188975500Y-64894500D01*
X188975500Y-115445500D01*
X188955815Y-115512539D01*
X188903011Y-115558294D01*
X188851500Y-115569500D01*
X121282500Y-115569500D01*
X121215461Y-115549815D01*
X121169706Y-115497011D01*
X121158500Y-115445500D01*
X121158500Y-112081763D01*
X122859787Y-112081763D01*
X122889413Y-112351013D01*
X122889415Y-112351024D01*
X122957926Y-112613082D01*
X122957928Y-112613088D01*
X123063870Y-112862390D01*
X123135998Y-112980575D01*
X123204979Y-113093605D01*
X123204986Y-113093615D01*
X123378253Y-113301819D01*
X123378259Y-113301824D01*
X123579998Y-113482582D01*
X123805910Y-113632044D01*
X124051176Y-113747020D01*
X124051183Y-113747022D01*
X124051185Y-113747023D01*
X124310557Y-113825057D01*
X124310564Y-113825058D01*
X124310569Y-113825060D01*
X124578561Y-113864500D01*
X124578566Y-113864500D01*
X124781636Y-113864500D01*
X124833133Y-113860730D01*
X124984156Y-113849677D01*
X125096758Y-113824593D01*
X125248546Y-113790782D01*
X125248548Y-113790781D01*
X125248553Y-113790780D01*
X125501558Y-113694014D01*
X125737777Y-113561441D01*
X125952177Y-113395888D01*
X126140186Y-113200881D01*
X126297799Y-112980579D01*
X126371787Y-112836669D01*
X126421649Y-112739690D01*
X126421651Y-112739684D01*
X126421656Y-112739675D01*
X126509118Y-112483305D01*
X126558319Y-112216933D01*
X126568212Y-111946235D01*
X126538586Y-111676982D01*
X126470072Y-111414912D01*
X126364130Y-111165610D01*
X126223018Y-110934390D01*
X126175536Y-110877334D01*
X126135359Y-110829056D01*
X136545500Y-110829056D01*
X136557399Y-110877334D01*
X136586210Y-110994226D01*
X136665263Y-111144849D01*
X136665266Y-111144852D01*
X136778071Y-111272183D01*
X136868318Y-111334476D01*
X136918068Y-111368817D01*
X136918069Y-111368817D01*
X136918070Y-111368818D01*
X137019358Y-111407231D01*
X137039624Y-111414917D01*
X137077128Y-111429140D01*
X137153028Y-111438356D01*
X137203626Y-111444500D01*
X137203628Y-111444500D01*
X137288374Y-111444500D01*
X137330538Y-111439380D01*
X137414872Y-111429140D01*
X137573930Y-111368818D01*
X137713929Y-111272183D01*
X137826734Y-111144852D01*
X137828487Y-111141513D01*
X137880007Y-111043349D01*
X137905790Y-110994225D01*
X137946500Y-110829056D01*
X140945500Y-110829056D01*
X140957399Y-110877334D01*
X140986210Y-110994226D01*
X141065263Y-111144849D01*
X141065266Y-111144852D01*
X141178071Y-111272183D01*
X141268318Y-111334476D01*
X141318068Y-111368817D01*
X141318069Y-111368817D01*
X141318070Y-111368818D01*
X141419358Y-111407231D01*
X141439624Y-111414917D01*
X141477128Y-111429140D01*
X141553028Y-111438356D01*
X141603626Y-111444500D01*
X141603628Y-111444500D01*
X141688374Y-111444500D01*
X141730538Y-111439380D01*
X141814872Y-111429140D01*
X141973930Y-111368818D01*
X142113929Y-111272183D01*
X142226734Y-111144852D01*
X142228487Y-111141513D01*
X142280007Y-111043349D01*
X142305790Y-110994225D01*
X142346500Y-110829056D01*
X142346500Y-110658944D01*
X142324331Y-110569000D01*
X147294207Y-110569000D01*
X147313348Y-110812219D01*
X147370303Y-111049457D01*
X147463668Y-111274861D01*
X147587504Y-111476942D01*
X148200482Y-110863964D01*
X148261805Y-110830479D01*
X148331496Y-110835463D01*
X148387430Y-110877334D01*
X148390514Y-110882249D01*
X148390549Y-110882225D01*
X148395441Y-110889156D01*
X148493570Y-110994226D01*
X148498638Y-110999652D01*
X148533698Y-111020973D01*
X148580749Y-111072623D01*
X148592407Y-111141513D01*
X148564970Y-111205770D01*
X148556950Y-111214601D01*
X147941056Y-111830494D01*
X148143138Y-111954331D01*
X148368542Y-112047696D01*
X148605780Y-112104651D01*
X148605779Y-112104651D01*
X148848999Y-112123792D01*
X149092219Y-112104651D01*
X149329457Y-112047696D01*
X149554861Y-111954331D01*
X149756942Y-111830494D01*
X149593318Y-111666870D01*
X152378500Y-111666870D01*
X152378501Y-111666876D01*
X152384908Y-111726483D01*
X152435202Y-111861328D01*
X152435206Y-111861335D01*
X152521452Y-111976544D01*
X152521455Y-111976547D01*
X152636664Y-112062793D01*
X152636671Y-112062797D01*
X152771517Y-112113091D01*
X152771516Y-112113091D01*
X152778444Y-112113835D01*
X152831127Y-112119500D01*
X155026872Y-112119499D01*
X155086483Y-112113091D01*
X155221331Y-112062796D01*
X155336546Y-111976546D01*
X155422796Y-111861331D01*
X155473091Y-111726483D01*
X155479500Y-111666873D01*
X155479499Y-110568999D01*
X158470207Y-110568999D01*
X158489348Y-110812219D01*
X158546303Y-111049457D01*
X158639668Y-111274861D01*
X158763504Y-111476942D01*
X159376482Y-110863964D01*
X159437805Y-110830479D01*
X159507496Y-110835463D01*
X159563430Y-110877334D01*
X159566514Y-110882249D01*
X159566549Y-110882225D01*
X159571441Y-110889156D01*
X159669570Y-110994226D01*
X159674638Y-110999652D01*
X159709698Y-111020973D01*
X159756749Y-111072623D01*
X159768407Y-111141513D01*
X159740970Y-111205770D01*
X159732950Y-111214601D01*
X159117056Y-111830494D01*
X159319138Y-111954331D01*
X159544542Y-112047696D01*
X159781780Y-112104651D01*
X159781779Y-112104651D01*
X160025000Y-112123792D01*
X160268219Y-112104651D01*
X160505457Y-112047696D01*
X160730861Y-111954331D01*
X160932942Y-111830494D01*
X160769318Y-111666870D01*
X163554500Y-111666870D01*
X163554501Y-111666876D01*
X163560908Y-111726483D01*
X163611202Y-111861328D01*
X163611206Y-111861335D01*
X163697452Y-111976544D01*
X163697455Y-111976547D01*
X163812664Y-112062793D01*
X163812671Y-112062797D01*
X163947517Y-112113091D01*
X163947516Y-112113091D01*
X163954444Y-112113835D01*
X164007127Y-112119500D01*
X166202872Y-112119499D01*
X166262483Y-112113091D01*
X166397331Y-112062796D01*
X166512546Y-111976546D01*
X166598796Y-111861331D01*
X166649091Y-111726483D01*
X166655500Y-111666873D01*
X166655499Y-110569000D01*
X169651207Y-110569000D01*
X169670348Y-110812219D01*
X169727303Y-111049457D01*
X169820668Y-111274861D01*
X169944504Y-111476942D01*
X170557482Y-110863964D01*
X170618805Y-110830479D01*
X170688496Y-110835463D01*
X170744430Y-110877334D01*
X170747514Y-110882249D01*
X170747549Y-110882225D01*
X170752441Y-110889156D01*
X170850570Y-110994226D01*
X170855638Y-110999652D01*
X170890698Y-111020973D01*
X170937749Y-111072623D01*
X170949407Y-111141513D01*
X170921970Y-111205770D01*
X170913950Y-111214601D01*
X170298056Y-111830494D01*
X170500138Y-111954331D01*
X170725542Y-112047696D01*
X170962780Y-112104651D01*
X170962779Y-112104651D01*
X171206000Y-112123792D01*
X171449219Y-112104651D01*
X171686457Y-112047696D01*
X171911861Y-111954331D01*
X172113942Y-111830494D01*
X171950318Y-111666870D01*
X174735500Y-111666870D01*
X174735501Y-111666876D01*
X174741908Y-111726483D01*
X174792202Y-111861328D01*
X174792206Y-111861335D01*
X174878452Y-111976544D01*
X174878455Y-111976547D01*
X174993664Y-112062793D01*
X174993671Y-112062797D01*
X175128517Y-112113091D01*
X175128516Y-112113091D01*
X175135444Y-112113835D01*
X175188127Y-112119500D01*
X177383872Y-112119499D01*
X177443483Y-112113091D01*
X177527478Y-112081763D01*
X183565787Y-112081763D01*
X183595413Y-112351013D01*
X183595415Y-112351024D01*
X183663926Y-112613082D01*
X183663928Y-112613088D01*
X183769870Y-112862390D01*
X183841998Y-112980575D01*
X183910979Y-113093605D01*
X183910986Y-113093615D01*
X184084253Y-113301819D01*
X184084259Y-113301824D01*
X184285998Y-113482582D01*
X184511910Y-113632044D01*
X184757176Y-113747020D01*
X184757183Y-113747022D01*
X184757185Y-113747023D01*
X185016557Y-113825057D01*
X185016564Y-113825058D01*
X185016569Y-113825060D01*
X185284561Y-113864500D01*
X185284566Y-113864500D01*
X185487636Y-113864500D01*
X185539133Y-113860730D01*
X185690156Y-113849677D01*
X185802758Y-113824593D01*
X185954546Y-113790782D01*
X185954548Y-113790781D01*
X185954553Y-113790780D01*
X186207558Y-113694014D01*
X186443777Y-113561441D01*
X186658177Y-113395888D01*
X186846186Y-113200881D01*
X187003799Y-112980579D01*
X187077787Y-112836669D01*
X187127649Y-112739690D01*
X187127651Y-112739684D01*
X187127656Y-112739675D01*
X187215118Y-112483305D01*
X187264319Y-112216933D01*
X187274212Y-111946235D01*
X187244586Y-111676982D01*
X187176072Y-111414912D01*
X187070130Y-111165610D01*
X186929018Y-110934390D01*
X186881536Y-110877334D01*
X186755746Y-110726180D01*
X186755740Y-110726175D01*
X186554002Y-110545418D01*
X186328092Y-110395957D01*
X186328090Y-110395956D01*
X186082824Y-110280980D01*
X186082819Y-110280978D01*
X186082814Y-110280976D01*
X185823442Y-110202942D01*
X185823428Y-110202939D01*
X185707791Y-110185921D01*
X185555439Y-110163500D01*
X185352369Y-110163500D01*
X185352364Y-110163500D01*
X185149844Y-110178323D01*
X185149831Y-110178325D01*
X184885453Y-110237217D01*
X184885446Y-110237220D01*
X184632439Y-110333987D01*
X184396226Y-110466557D01*
X184396224Y-110466558D01*
X184396223Y-110466559D01*
X184360977Y-110493775D01*
X184181822Y-110632112D01*
X183993822Y-110827109D01*
X183993816Y-110827116D01*
X183836202Y-111047419D01*
X183836199Y-111047424D01*
X183712350Y-111288309D01*
X183712343Y-111288327D01*
X183624884Y-111544685D01*
X183624881Y-111544699D01*
X183575681Y-111811068D01*
X183575680Y-111811075D01*
X183565787Y-112081763D01*
X177527478Y-112081763D01*
X177578331Y-112062796D01*
X177693546Y-111976546D01*
X177779796Y-111861331D01*
X177830091Y-111726483D01*
X177836500Y-111666873D01*
X177836499Y-109471128D01*
X177830091Y-109411517D01*
X177779796Y-109276669D01*
X177779795Y-109276668D01*
X177779793Y-109276664D01*
X177693547Y-109161455D01*
X177693544Y-109161452D01*
X177578335Y-109075206D01*
X177578328Y-109075202D01*
X177443482Y-109024908D01*
X177443483Y-109024908D01*
X177383883Y-109018501D01*
X177383881Y-109018500D01*
X177383873Y-109018500D01*
X177383864Y-109018500D01*
X175188129Y-109018500D01*
X175188123Y-109018501D01*
X175128516Y-109024908D01*
X174993671Y-109075202D01*
X174993664Y-109075206D01*
X174878455Y-109161452D01*
X174878452Y-109161455D01*
X174792206Y-109276664D01*
X174792202Y-109276671D01*
X174741908Y-109411517D01*
X174735501Y-109471116D01*
X174735501Y-109471123D01*
X174735500Y-109471135D01*
X174735500Y-111666870D01*
X171950318Y-111666870D01*
X171499166Y-111215718D01*
X171465681Y-111154395D01*
X171470665Y-111084703D01*
X171508588Y-111031853D01*
X171611739Y-110947934D01*
X171662052Y-110876655D01*
X171716793Y-110833239D01*
X171786318Y-110826310D01*
X171848553Y-110858068D01*
X171851037Y-110860484D01*
X172467494Y-111476942D01*
X172591331Y-111274861D01*
X172684696Y-111049457D01*
X172741651Y-110812219D01*
X172760792Y-110569000D01*
X172741651Y-110325780D01*
X172684696Y-110088542D01*
X172591331Y-109863138D01*
X172467494Y-109661056D01*
X171854517Y-110274034D01*
X171793194Y-110307519D01*
X171723502Y-110302535D01*
X171667569Y-110260663D01*
X171664486Y-110255750D01*
X171664451Y-110255775D01*
X171659558Y-110248843D01*
X171579852Y-110163500D01*
X171556362Y-110138348D01*
X171521300Y-110117026D01*
X171474248Y-110065374D01*
X171462591Y-109996484D01*
X171490029Y-109932227D01*
X171498048Y-109923397D01*
X172113942Y-109307504D01*
X171911861Y-109183668D01*
X171686457Y-109090303D01*
X171449219Y-109033348D01*
X171449220Y-109033348D01*
X171206000Y-109014207D01*
X170962780Y-109033348D01*
X170725542Y-109090303D01*
X170500146Y-109183665D01*
X170500141Y-109183668D01*
X170298056Y-109307504D01*
X170912833Y-109922280D01*
X170946318Y-109983603D01*
X170941334Y-110053294D01*
X170903408Y-110106148D01*
X170800262Y-110190064D01*
X170800258Y-110190069D01*
X170749947Y-110261343D01*
X170695204Y-110304760D01*
X170625679Y-110311689D01*
X170563444Y-110279930D01*
X170560962Y-110277515D01*
X169944504Y-109661056D01*
X169820668Y-109863141D01*
X169820665Y-109863146D01*
X169727303Y-110088542D01*
X169670348Y-110325780D01*
X169651207Y-110569000D01*
X166655499Y-110569000D01*
X166655499Y-109471128D01*
X166649091Y-109411517D01*
X166598796Y-109276669D01*
X166598795Y-109276668D01*
X166598793Y-109276664D01*
X166512547Y-109161455D01*
X166512544Y-109161452D01*
X166397335Y-109075206D01*
X166397328Y-109075202D01*
X166262482Y-109024908D01*
X166262483Y-109024908D01*
X166202883Y-109018501D01*
X166202881Y-109018500D01*
X166202873Y-109018500D01*
X166202864Y-109018500D01*
X164007129Y-109018500D01*
X164007123Y-109018501D01*
X163947516Y-109024908D01*
X163812671Y-109075202D01*
X163812664Y-109075206D01*
X163697455Y-109161452D01*
X163697452Y-109161455D01*
X163611206Y-109276664D01*
X163611202Y-109276671D01*
X163560908Y-109411517D01*
X163554501Y-109471116D01*
X163554501Y-109471123D01*
X163554500Y-109471135D01*
X163554500Y-111666870D01*
X160769318Y-111666870D01*
X160318166Y-111215718D01*
X160284681Y-111154395D01*
X160289665Y-111084703D01*
X160327588Y-111031853D01*
X160430739Y-110947934D01*
X160481052Y-110876655D01*
X160535793Y-110833239D01*
X160605318Y-110826310D01*
X160667553Y-110858068D01*
X160670037Y-110860484D01*
X161286494Y-111476942D01*
X161410331Y-111274861D01*
X161503696Y-111049457D01*
X161560651Y-110812219D01*
X161579792Y-110568999D01*
X161560651Y-110325780D01*
X161503696Y-110088542D01*
X161410331Y-109863138D01*
X161286494Y-109661056D01*
X160673517Y-110274034D01*
X160612194Y-110307519D01*
X160542502Y-110302535D01*
X160486569Y-110260663D01*
X160483486Y-110255750D01*
X160483451Y-110255775D01*
X160478558Y-110248843D01*
X160398852Y-110163500D01*
X160375362Y-110138348D01*
X160340300Y-110117026D01*
X160293248Y-110065374D01*
X160281591Y-109996484D01*
X160309029Y-109932227D01*
X160317048Y-109923397D01*
X160932942Y-109307504D01*
X160730861Y-109183668D01*
X160505457Y-109090303D01*
X160268219Y-109033348D01*
X160268220Y-109033348D01*
X160025000Y-109014207D01*
X159781780Y-109033348D01*
X159544542Y-109090303D01*
X159319146Y-109183665D01*
X159319141Y-109183668D01*
X159117056Y-109307504D01*
X159731833Y-109922280D01*
X159765318Y-109983603D01*
X159760334Y-110053294D01*
X159722408Y-110106148D01*
X159619262Y-110190064D01*
X159619258Y-110190069D01*
X159568947Y-110261343D01*
X159514204Y-110304760D01*
X159444679Y-110311689D01*
X159382444Y-110279930D01*
X159379962Y-110277515D01*
X158763504Y-109661056D01*
X158639668Y-109863141D01*
X158639665Y-109863146D01*
X158546303Y-110088542D01*
X158489348Y-110325780D01*
X158470207Y-110568999D01*
X155479499Y-110568999D01*
X155479499Y-109471128D01*
X155473091Y-109411517D01*
X155422796Y-109276669D01*
X155422795Y-109276668D01*
X155422793Y-109276664D01*
X155336547Y-109161455D01*
X155336544Y-109161452D01*
X155221335Y-109075206D01*
X155221328Y-109075202D01*
X155086482Y-109024908D01*
X155086483Y-109024908D01*
X155026883Y-109018501D01*
X155026881Y-109018500D01*
X155026873Y-109018500D01*
X155026864Y-109018500D01*
X152831129Y-109018500D01*
X152831123Y-109018501D01*
X152771516Y-109024908D01*
X152636671Y-109075202D01*
X152636664Y-109075206D01*
X152521455Y-109161452D01*
X152521452Y-109161455D01*
X152435206Y-109276664D01*
X152435202Y-109276671D01*
X152384908Y-109411517D01*
X152378501Y-109471116D01*
X152378501Y-109471123D01*
X152378500Y-109471135D01*
X152378500Y-111666870D01*
X149593318Y-111666870D01*
X149142166Y-111215718D01*
X149108681Y-111154395D01*
X149113665Y-111084703D01*
X149151588Y-111031853D01*
X149254739Y-110947934D01*
X149305052Y-110876655D01*
X149359793Y-110833239D01*
X149429318Y-110826310D01*
X149491553Y-110858068D01*
X149494037Y-110860484D01*
X150110494Y-111476942D01*
X150234331Y-111274861D01*
X150327696Y-111049457D01*
X150384651Y-110812219D01*
X150403792Y-110569000D01*
X150384651Y-110325780D01*
X150327696Y-110088542D01*
X150234331Y-109863138D01*
X150110494Y-109661056D01*
X149497517Y-110274034D01*
X149436194Y-110307519D01*
X149366502Y-110302535D01*
X149310569Y-110260663D01*
X149307486Y-110255750D01*
X149307451Y-110255775D01*
X149302558Y-110248843D01*
X149222852Y-110163500D01*
X149199362Y-110138348D01*
X149164300Y-110117026D01*
X149117248Y-110065374D01*
X149105591Y-109996484D01*
X149133029Y-109932227D01*
X149141048Y-109923397D01*
X149756942Y-109307504D01*
X149554861Y-109183668D01*
X149329457Y-109090303D01*
X149092219Y-109033348D01*
X149092220Y-109033348D01*
X148849000Y-109014207D01*
X148605780Y-109033348D01*
X148368542Y-109090303D01*
X148143146Y-109183665D01*
X148143141Y-109183668D01*
X147941056Y-109307504D01*
X148555833Y-109922280D01*
X148589318Y-109983603D01*
X148584334Y-110053294D01*
X148546408Y-110106148D01*
X148443262Y-110190064D01*
X148443258Y-110190069D01*
X148392947Y-110261343D01*
X148338204Y-110304760D01*
X148268679Y-110311689D01*
X148206444Y-110279930D01*
X148203962Y-110277515D01*
X147587504Y-109661056D01*
X147463668Y-109863141D01*
X147463665Y-109863146D01*
X147370303Y-110088542D01*
X147313348Y-110325780D01*
X147294207Y-110569000D01*
X142324331Y-110569000D01*
X142305790Y-110493775D01*
X142254451Y-110395957D01*
X142226736Y-110343150D01*
X142207560Y-110321505D01*
X142113929Y-110215817D01*
X142059610Y-110178323D01*
X141973931Y-110119182D01*
X141814874Y-110058860D01*
X141814868Y-110058859D01*
X141688374Y-110043500D01*
X141688372Y-110043500D01*
X141603628Y-110043500D01*
X141603626Y-110043500D01*
X141477131Y-110058859D01*
X141477125Y-110058860D01*
X141318068Y-110119182D01*
X141178072Y-110215816D01*
X141065263Y-110343150D01*
X140986210Y-110493773D01*
X140973481Y-110545418D01*
X140945500Y-110658944D01*
X140945500Y-110829056D01*
X137946500Y-110829056D01*
X137946500Y-110658944D01*
X137905790Y-110493775D01*
X137854451Y-110395957D01*
X137826736Y-110343150D01*
X137807560Y-110321505D01*
X137713929Y-110215817D01*
X137659610Y-110178323D01*
X137573931Y-110119182D01*
X137414874Y-110058860D01*
X137414868Y-110058859D01*
X137288374Y-110043500D01*
X137288372Y-110043500D01*
X137203628Y-110043500D01*
X137203626Y-110043500D01*
X137077131Y-110058859D01*
X137077125Y-110058860D01*
X136918068Y-110119182D01*
X136778072Y-110215816D01*
X136665263Y-110343150D01*
X136586210Y-110493773D01*
X136573481Y-110545418D01*
X136545500Y-110658944D01*
X136545500Y-110829056D01*
X126135359Y-110829056D01*
X126049746Y-110726180D01*
X126049740Y-110726175D01*
X125848002Y-110545418D01*
X125622092Y-110395957D01*
X125622090Y-110395956D01*
X125376824Y-110280980D01*
X125376819Y-110280978D01*
X125376814Y-110280976D01*
X125117442Y-110202942D01*
X125117428Y-110202939D01*
X125001791Y-110185921D01*
X124849439Y-110163500D01*
X124646369Y-110163500D01*
X124646364Y-110163500D01*
X124443844Y-110178323D01*
X124443831Y-110178325D01*
X124179453Y-110237217D01*
X124179446Y-110237220D01*
X123926439Y-110333987D01*
X123690226Y-110466557D01*
X123690224Y-110466558D01*
X123690223Y-110466559D01*
X123654977Y-110493775D01*
X123475822Y-110632112D01*
X123287822Y-110827109D01*
X123287816Y-110827116D01*
X123130202Y-111047419D01*
X123130199Y-111047424D01*
X123006350Y-111288309D01*
X123006343Y-111288327D01*
X122918884Y-111544685D01*
X122918881Y-111544699D01*
X122869681Y-111811068D01*
X122869680Y-111811075D01*
X122859787Y-112081763D01*
X121158500Y-112081763D01*
X121158500Y-104896999D01*
X182420207Y-104896999D01*
X182439348Y-105140219D01*
X182496303Y-105377457D01*
X182589668Y-105602861D01*
X182713504Y-105804942D01*
X183326482Y-105191964D01*
X183387805Y-105158479D01*
X183457496Y-105163463D01*
X183513430Y-105205334D01*
X183516514Y-105210249D01*
X183516549Y-105210225D01*
X183521441Y-105217156D01*
X183624637Y-105327651D01*
X183624638Y-105327652D01*
X183659698Y-105348973D01*
X183706749Y-105400623D01*
X183718407Y-105469513D01*
X183690970Y-105533770D01*
X183682950Y-105542601D01*
X183067056Y-106158494D01*
X183269138Y-106282331D01*
X183494542Y-106375696D01*
X183731780Y-106432651D01*
X183731779Y-106432651D01*
X183975000Y-106451792D01*
X184218219Y-106432651D01*
X184455457Y-106375696D01*
X184680861Y-106282331D01*
X184882942Y-106158494D01*
X184268166Y-105543718D01*
X184234681Y-105482395D01*
X184239665Y-105412703D01*
X184277588Y-105359853D01*
X184380739Y-105275934D01*
X184431052Y-105204655D01*
X184485793Y-105161239D01*
X184555318Y-105154310D01*
X184617553Y-105186068D01*
X184620037Y-105188484D01*
X185236494Y-105804942D01*
X185360331Y-105602861D01*
X185453696Y-105377457D01*
X185510651Y-105140219D01*
X185529792Y-104896999D01*
X185510651Y-104653780D01*
X185453696Y-104416542D01*
X185360331Y-104191138D01*
X185236494Y-103989056D01*
X184623517Y-104602034D01*
X184562194Y-104635519D01*
X184492502Y-104630535D01*
X184436569Y-104588663D01*
X184433486Y-104583750D01*
X184433451Y-104583775D01*
X184428558Y-104576843D01*
X184373661Y-104518064D01*
X184325362Y-104466348D01*
X184290300Y-104445026D01*
X184243248Y-104393374D01*
X184231591Y-104324484D01*
X184259029Y-104260227D01*
X184267048Y-104251397D01*
X184882942Y-103635504D01*
X184680861Y-103511668D01*
X184455457Y-103418303D01*
X184218219Y-103361348D01*
X184218220Y-103361348D01*
X183975000Y-103342207D01*
X183731780Y-103361348D01*
X183494542Y-103418303D01*
X183269146Y-103511665D01*
X183269141Y-103511668D01*
X183067056Y-103635504D01*
X183681833Y-104250280D01*
X183715318Y-104311603D01*
X183710334Y-104381294D01*
X183672408Y-104434148D01*
X183569262Y-104518064D01*
X183569258Y-104518069D01*
X183518947Y-104589343D01*
X183464204Y-104632760D01*
X183394679Y-104639689D01*
X183332444Y-104607930D01*
X183329962Y-104605515D01*
X182713504Y-103989056D01*
X182589668Y-104191141D01*
X182589665Y-104191146D01*
X182496303Y-104416542D01*
X182439348Y-104653780D01*
X182420207Y-104896999D01*
X121158500Y-104896999D01*
X121158500Y-101346000D01*
X136000540Y-101346000D01*
X136020326Y-101534256D01*
X136020327Y-101534259D01*
X136078818Y-101714277D01*
X136078821Y-101714284D01*
X136173467Y-101878216D01*
X136300128Y-102018888D01*
X136300129Y-102018888D01*
X136453265Y-102130148D01*
X136453270Y-102130151D01*
X136626192Y-102207142D01*
X136626197Y-102207144D01*
X136811354Y-102246500D01*
X136811355Y-102246500D01*
X137000644Y-102246500D01*
X137000646Y-102246500D01*
X137185803Y-102207144D01*
X137358730Y-102130151D01*
X137374762Y-102118502D01*
X137454347Y-102060682D01*
X137520153Y-102037202D01*
X137527232Y-102037000D01*
X139078768Y-102037000D01*
X139145807Y-102056685D01*
X139151653Y-102060682D01*
X139247265Y-102130148D01*
X139247270Y-102130151D01*
X139420192Y-102207142D01*
X139420197Y-102207144D01*
X139605354Y-102246500D01*
X139605355Y-102246500D01*
X139794644Y-102246500D01*
X139794646Y-102246500D01*
X139979803Y-102207144D01*
X140152730Y-102130151D01*
X140305871Y-102018888D01*
X140432533Y-101878216D01*
X140527179Y-101714284D01*
X140585674Y-101534256D01*
X140605460Y-101346000D01*
X140585674Y-101157744D01*
X140527179Y-100977716D01*
X140490895Y-100914870D01*
X182424500Y-100914870D01*
X182424501Y-100914876D01*
X182430908Y-100974483D01*
X182481202Y-101109328D01*
X182481206Y-101109335D01*
X182567452Y-101224544D01*
X182567455Y-101224547D01*
X182682664Y-101310793D01*
X182682671Y-101310797D01*
X182817517Y-101361091D01*
X182817516Y-101361091D01*
X182824444Y-101361835D01*
X182877127Y-101367500D01*
X185072872Y-101367499D01*
X185132483Y-101361091D01*
X185267331Y-101310796D01*
X185382546Y-101224546D01*
X185468796Y-101109331D01*
X185519091Y-100974483D01*
X185525500Y-100914873D01*
X185525499Y-98719128D01*
X185519091Y-98659517D01*
X185468796Y-98524669D01*
X185468795Y-98524668D01*
X185468793Y-98524664D01*
X185382547Y-98409455D01*
X185382544Y-98409452D01*
X185267335Y-98323206D01*
X185267328Y-98323202D01*
X185132482Y-98272908D01*
X185132483Y-98272908D01*
X185072883Y-98266501D01*
X185072881Y-98266500D01*
X185072873Y-98266500D01*
X185072864Y-98266500D01*
X182877129Y-98266500D01*
X182877123Y-98266501D01*
X182817516Y-98272908D01*
X182682671Y-98323202D01*
X182682664Y-98323206D01*
X182567455Y-98409452D01*
X182567452Y-98409455D01*
X182481206Y-98524664D01*
X182481202Y-98524671D01*
X182430908Y-98659517D01*
X182427447Y-98691715D01*
X182424501Y-98719123D01*
X182424500Y-98719135D01*
X182424500Y-100914870D01*
X140490895Y-100914870D01*
X140432678Y-100814035D01*
X140416205Y-100746135D01*
X140439058Y-100680108D01*
X140493979Y-100636917D01*
X140563532Y-100630276D01*
X140590501Y-100638756D01*
X140690197Y-100683144D01*
X140875354Y-100722500D01*
X140875355Y-100722500D01*
X141064644Y-100722500D01*
X141064646Y-100722500D01*
X141249803Y-100683144D01*
X141422730Y-100606151D01*
X141483707Y-100561849D01*
X141518347Y-100536682D01*
X141584153Y-100513202D01*
X141591232Y-100513000D01*
X141709247Y-100513000D01*
X141712992Y-100513113D01*
X141774026Y-100516805D01*
X141774026Y-100516804D01*
X141774028Y-100516805D01*
X141834185Y-100505779D01*
X141837870Y-100505219D01*
X141898582Y-100497848D01*
X141907788Y-100494356D01*
X141929403Y-100488330D01*
X141939085Y-100486557D01*
X141994865Y-100461451D01*
X141998281Y-100460037D01*
X142055482Y-100438344D01*
X142063579Y-100432754D01*
X142083139Y-100421722D01*
X142092105Y-100417688D01*
X142140249Y-100379968D01*
X142143255Y-100377757D01*
X142193583Y-100343020D01*
X142234144Y-100297234D01*
X142236678Y-100294542D01*
X142539913Y-99991308D01*
X142601234Y-99957825D01*
X142601557Y-99957755D01*
X142773803Y-99921144D01*
X142946730Y-99844151D01*
X143099871Y-99732888D01*
X143226533Y-99592216D01*
X143321179Y-99428284D01*
X143379674Y-99248256D01*
X143399460Y-99060000D01*
X143379674Y-98871744D01*
X143321179Y-98691716D01*
X143226533Y-98527784D01*
X143099871Y-98387112D01*
X143099870Y-98387111D01*
X142946734Y-98275851D01*
X142946729Y-98275848D01*
X142773807Y-98198857D01*
X142773802Y-98198855D01*
X142628000Y-98167865D01*
X142588646Y-98159500D01*
X142399354Y-98159500D01*
X142366897Y-98166398D01*
X142214197Y-98198855D01*
X142214192Y-98198857D01*
X142041270Y-98275848D01*
X142041265Y-98275851D01*
X141888129Y-98387111D01*
X141761466Y-98527785D01*
X141666821Y-98691715D01*
X141666818Y-98691722D01*
X141608327Y-98871740D01*
X141608326Y-98871744D01*
X141603097Y-98921500D01*
X141601558Y-98936140D01*
X141574973Y-99000754D01*
X141565918Y-99010858D01*
X141563392Y-99013384D01*
X141502069Y-99046869D01*
X141432377Y-99041885D01*
X141425275Y-99038982D01*
X141249807Y-98960857D01*
X141249802Y-98960855D01*
X141104000Y-98929865D01*
X141064646Y-98921500D01*
X140875354Y-98921500D01*
X140842897Y-98928398D01*
X140690197Y-98960855D01*
X140690192Y-98960857D01*
X140517270Y-99037848D01*
X140517265Y-99037851D01*
X140364129Y-99149111D01*
X140237466Y-99289785D01*
X140142821Y-99453715D01*
X140142818Y-99453722D01*
X140097820Y-99592214D01*
X140084326Y-99633744D01*
X140064540Y-99822000D01*
X140084326Y-100010256D01*
X140084327Y-100010259D01*
X140142818Y-100190277D01*
X140142821Y-100190284D01*
X140237321Y-100353964D01*
X140253794Y-100421865D01*
X140230941Y-100487892D01*
X140176020Y-100531082D01*
X140106466Y-100537723D01*
X140079498Y-100529243D01*
X139979807Y-100484857D01*
X139979802Y-100484855D01*
X139834000Y-100453865D01*
X139794646Y-100445500D01*
X139605354Y-100445500D01*
X139572897Y-100452398D01*
X139420197Y-100484855D01*
X139420192Y-100484857D01*
X139247270Y-100561848D01*
X139247265Y-100561851D01*
X139151653Y-100631318D01*
X139085847Y-100654798D01*
X139078768Y-100655000D01*
X137527232Y-100655000D01*
X137460193Y-100635315D01*
X137454347Y-100631318D01*
X137358734Y-100561851D01*
X137358729Y-100561848D01*
X137185807Y-100484857D01*
X137185802Y-100484855D01*
X137040001Y-100453865D01*
X137000646Y-100445500D01*
X136811354Y-100445500D01*
X136778897Y-100452398D01*
X136626197Y-100484855D01*
X136626192Y-100484857D01*
X136453270Y-100561848D01*
X136453265Y-100561851D01*
X136300129Y-100673111D01*
X136173466Y-100813785D01*
X136078821Y-100977715D01*
X136078818Y-100977722D01*
X136036057Y-101109328D01*
X136020326Y-101157744D01*
X136000540Y-101346000D01*
X121158500Y-101346000D01*
X121158500Y-97028000D01*
X152060341Y-97028000D01*
X152080936Y-97263403D01*
X152080938Y-97263413D01*
X152142094Y-97491655D01*
X152142096Y-97491659D01*
X152142097Y-97491663D01*
X152146000Y-97500032D01*
X152241965Y-97705830D01*
X152241967Y-97705834D01*
X152350281Y-97860521D01*
X152377505Y-97899401D01*
X152544599Y-98066495D01*
X152641384Y-98134264D01*
X152738165Y-98202032D01*
X152738167Y-98202033D01*
X152738170Y-98202035D01*
X152952337Y-98301903D01*
X153180592Y-98363063D01*
X153368918Y-98379539D01*
X153415999Y-98383659D01*
X153416000Y-98383659D01*
X153416001Y-98383659D01*
X153455234Y-98380226D01*
X153651408Y-98363063D01*
X153879663Y-98301903D01*
X154093830Y-98202035D01*
X154287401Y-98066495D01*
X154454495Y-97899401D01*
X154584424Y-97713842D01*
X154639002Y-97670217D01*
X154708500Y-97663023D01*
X154770855Y-97694546D01*
X154787575Y-97713842D01*
X154917500Y-97899395D01*
X154917505Y-97899401D01*
X155084599Y-98066495D01*
X155181384Y-98134264D01*
X155278165Y-98202032D01*
X155278167Y-98202033D01*
X155278170Y-98202035D01*
X155492337Y-98301903D01*
X155720592Y-98363063D01*
X155908918Y-98379539D01*
X155955999Y-98383659D01*
X155956000Y-98383659D01*
X155956001Y-98383659D01*
X155995234Y-98380226D01*
X156191408Y-98363063D01*
X156419663Y-98301903D01*
X156633830Y-98202035D01*
X156827401Y-98066495D01*
X156994495Y-97899401D01*
X157124424Y-97713842D01*
X157179002Y-97670217D01*
X157248500Y-97663023D01*
X157310855Y-97694546D01*
X157327575Y-97713842D01*
X157457500Y-97899395D01*
X157457505Y-97899401D01*
X157624599Y-98066495D01*
X157721384Y-98134264D01*
X157818165Y-98202032D01*
X157818167Y-98202033D01*
X157818170Y-98202035D01*
X158032337Y-98301903D01*
X158260592Y-98363063D01*
X158448918Y-98379539D01*
X158495999Y-98383659D01*
X158496000Y-98383659D01*
X158496001Y-98383659D01*
X158535234Y-98380226D01*
X158731408Y-98363063D01*
X158959663Y-98301903D01*
X159173830Y-98202035D01*
X159367401Y-98066495D01*
X159534495Y-97899401D01*
X159664424Y-97713842D01*
X159719002Y-97670217D01*
X159788500Y-97663023D01*
X159850855Y-97694546D01*
X159867575Y-97713842D01*
X159997500Y-97899395D01*
X159997505Y-97899401D01*
X160164599Y-98066495D01*
X160261384Y-98134264D01*
X160358165Y-98202032D01*
X160358167Y-98202033D01*
X160358170Y-98202035D01*
X160572337Y-98301903D01*
X160800592Y-98363063D01*
X160988918Y-98379539D01*
X161035999Y-98383659D01*
X161036000Y-98383659D01*
X161036001Y-98383659D01*
X161075234Y-98380226D01*
X161271408Y-98363063D01*
X161499663Y-98301903D01*
X161713830Y-98202035D01*
X161907401Y-98066495D01*
X162074495Y-97899401D01*
X162204424Y-97713842D01*
X162259002Y-97670217D01*
X162328500Y-97663023D01*
X162390855Y-97694546D01*
X162407575Y-97713842D01*
X162537500Y-97899395D01*
X162537505Y-97899401D01*
X162704599Y-98066495D01*
X162801384Y-98134264D01*
X162898165Y-98202032D01*
X162898167Y-98202033D01*
X162898170Y-98202035D01*
X163112337Y-98301903D01*
X163340592Y-98363063D01*
X163528918Y-98379539D01*
X163575999Y-98383659D01*
X163576000Y-98383659D01*
X163576001Y-98383659D01*
X163615234Y-98380226D01*
X163811408Y-98363063D01*
X164039663Y-98301903D01*
X164253830Y-98202035D01*
X164447401Y-98066495D01*
X164614495Y-97899401D01*
X164744424Y-97713842D01*
X164799002Y-97670217D01*
X164868500Y-97663023D01*
X164930855Y-97694546D01*
X164947575Y-97713842D01*
X165077500Y-97899395D01*
X165077505Y-97899401D01*
X165244599Y-98066495D01*
X165341384Y-98134264D01*
X165438165Y-98202032D01*
X165438167Y-98202033D01*
X165438170Y-98202035D01*
X165652337Y-98301903D01*
X165880592Y-98363063D01*
X166068918Y-98379539D01*
X166115999Y-98383659D01*
X166116000Y-98383659D01*
X166116001Y-98383659D01*
X166155234Y-98380226D01*
X166351408Y-98363063D01*
X166579663Y-98301903D01*
X166793830Y-98202035D01*
X166987401Y-98066495D01*
X167154495Y-97899401D01*
X167284424Y-97713842D01*
X167339002Y-97670217D01*
X167408500Y-97663023D01*
X167470855Y-97694546D01*
X167487575Y-97713842D01*
X167617500Y-97899395D01*
X167617505Y-97899401D01*
X167784599Y-98066495D01*
X167881384Y-98134264D01*
X167978165Y-98202032D01*
X167978167Y-98202033D01*
X167978170Y-98202035D01*
X168192337Y-98301903D01*
X168420592Y-98363063D01*
X168608918Y-98379539D01*
X168655999Y-98383659D01*
X168656000Y-98383659D01*
X168656001Y-98383659D01*
X168695234Y-98380226D01*
X168891408Y-98363063D01*
X169119663Y-98301903D01*
X169333830Y-98202035D01*
X169527401Y-98066495D01*
X169694495Y-97899401D01*
X169824424Y-97713842D01*
X169879002Y-97670217D01*
X169948500Y-97663023D01*
X170010855Y-97694546D01*
X170027575Y-97713842D01*
X170157500Y-97899395D01*
X170157505Y-97899401D01*
X170324599Y-98066495D01*
X170421384Y-98134264D01*
X170518165Y-98202032D01*
X170518167Y-98202033D01*
X170518170Y-98202035D01*
X170732337Y-98301903D01*
X170960592Y-98363063D01*
X171148918Y-98379539D01*
X171195999Y-98383659D01*
X171196000Y-98383659D01*
X171196001Y-98383659D01*
X171235234Y-98380226D01*
X171431408Y-98363063D01*
X171659663Y-98301903D01*
X171873830Y-98202035D01*
X172067401Y-98066495D01*
X172234495Y-97899401D01*
X172370035Y-97705830D01*
X172469903Y-97491663D01*
X172531063Y-97263408D01*
X172551659Y-97028000D01*
X172531063Y-96792592D01*
X172469903Y-96564337D01*
X172370035Y-96350171D01*
X172364425Y-96342158D01*
X172234494Y-96156597D01*
X172067398Y-95989501D01*
X172066030Y-95988354D01*
X172065592Y-95987696D01*
X172063573Y-95985677D01*
X172063978Y-95985271D01*
X172027330Y-95930182D01*
X172026224Y-95860321D01*
X172063063Y-95800952D01*
X172106737Y-95775662D01*
X172115334Y-95772814D01*
X172264656Y-95680712D01*
X172388712Y-95556656D01*
X172480814Y-95407334D01*
X172535999Y-95240797D01*
X172546500Y-95138009D01*
X172546499Y-93837992D01*
X172537907Y-93753886D01*
X172535999Y-93735203D01*
X172535998Y-93735200D01*
X172529636Y-93716000D01*
X182420207Y-93716000D01*
X182439348Y-93959219D01*
X182496303Y-94196457D01*
X182589668Y-94421861D01*
X182713504Y-94623942D01*
X183326482Y-94010964D01*
X183387805Y-93977479D01*
X183457496Y-93982463D01*
X183513430Y-94024334D01*
X183516514Y-94029249D01*
X183516549Y-94029225D01*
X183521441Y-94036156D01*
X183624637Y-94146651D01*
X183624638Y-94146652D01*
X183659698Y-94167973D01*
X183706749Y-94219623D01*
X183718407Y-94288513D01*
X183690970Y-94352770D01*
X183682950Y-94361601D01*
X183067056Y-94977494D01*
X183269138Y-95101331D01*
X183494542Y-95194696D01*
X183731780Y-95251651D01*
X183731779Y-95251651D01*
X183975000Y-95270792D01*
X184218219Y-95251651D01*
X184455457Y-95194696D01*
X184680861Y-95101331D01*
X184882942Y-94977494D01*
X184268166Y-94362718D01*
X184234681Y-94301395D01*
X184239665Y-94231703D01*
X184277588Y-94178853D01*
X184380739Y-94094934D01*
X184431052Y-94023655D01*
X184485793Y-93980239D01*
X184555318Y-93973310D01*
X184617553Y-94005068D01*
X184620037Y-94007484D01*
X185236494Y-94623942D01*
X185360331Y-94421861D01*
X185453696Y-94196457D01*
X185510651Y-93959219D01*
X185529792Y-93716000D01*
X185510651Y-93472780D01*
X185453696Y-93235542D01*
X185360331Y-93010138D01*
X185236494Y-92808056D01*
X184623517Y-93421034D01*
X184562194Y-93454519D01*
X184492502Y-93449535D01*
X184436569Y-93407663D01*
X184433486Y-93402750D01*
X184433451Y-93402775D01*
X184428558Y-93395843D01*
X184352087Y-93313964D01*
X184325362Y-93285348D01*
X184290300Y-93264026D01*
X184243248Y-93212374D01*
X184231591Y-93143484D01*
X184259029Y-93079227D01*
X184267048Y-93070397D01*
X184882942Y-92454504D01*
X184680861Y-92330668D01*
X184455457Y-92237303D01*
X184218219Y-92180348D01*
X184218220Y-92180348D01*
X183975000Y-92161207D01*
X183731780Y-92180348D01*
X183494542Y-92237303D01*
X183269146Y-92330665D01*
X183269141Y-92330668D01*
X183067056Y-92454504D01*
X183681833Y-93069280D01*
X183715318Y-93130603D01*
X183710334Y-93200294D01*
X183672408Y-93253148D01*
X183569262Y-93337064D01*
X183569258Y-93337069D01*
X183518947Y-93408343D01*
X183464204Y-93451760D01*
X183394679Y-93458689D01*
X183332444Y-93426930D01*
X183329962Y-93424515D01*
X182713504Y-92808056D01*
X182589668Y-93010141D01*
X182589665Y-93010146D01*
X182496303Y-93235542D01*
X182439348Y-93472780D01*
X182420207Y-93716000D01*
X172529636Y-93716000D01*
X172480814Y-93568666D01*
X172388712Y-93419344D01*
X172264656Y-93295288D01*
X172167792Y-93235542D01*
X172115336Y-93203187D01*
X172115331Y-93203185D01*
X172113862Y-93202698D01*
X171948797Y-93148001D01*
X171948795Y-93148000D01*
X171846010Y-93137500D01*
X170545998Y-93137500D01*
X170545981Y-93137501D01*
X170443203Y-93148000D01*
X170443200Y-93148001D01*
X170276668Y-93203185D01*
X170276663Y-93203187D01*
X170127342Y-93295289D01*
X170003289Y-93419342D01*
X169911187Y-93568663D01*
X169911183Y-93568673D01*
X169908335Y-93577268D01*
X169868560Y-93634711D01*
X169804044Y-93661531D01*
X169735268Y-93649214D01*
X169698517Y-93620233D01*
X169698324Y-93620427D01*
X169696682Y-93618785D01*
X169695642Y-93617965D01*
X169694494Y-93616597D01*
X169527402Y-93449506D01*
X169527395Y-93449501D01*
X169333834Y-93313967D01*
X169333830Y-93313965D01*
X169293777Y-93295288D01*
X169119663Y-93214097D01*
X169119659Y-93214096D01*
X169119655Y-93214094D01*
X168891413Y-93152938D01*
X168891403Y-93152936D01*
X168656001Y-93132341D01*
X168655999Y-93132341D01*
X168420596Y-93152936D01*
X168420586Y-93152938D01*
X168192344Y-93214094D01*
X168192335Y-93214098D01*
X167978171Y-93313964D01*
X167978169Y-93313965D01*
X167784597Y-93449505D01*
X167617505Y-93616597D01*
X167487575Y-93802158D01*
X167432998Y-93845783D01*
X167363500Y-93852977D01*
X167301145Y-93821454D01*
X167284425Y-93802158D01*
X167154494Y-93616597D01*
X166987402Y-93449506D01*
X166987395Y-93449501D01*
X166793834Y-93313967D01*
X166793830Y-93313965D01*
X166753777Y-93295288D01*
X166579663Y-93214097D01*
X166579659Y-93214096D01*
X166579655Y-93214094D01*
X166351413Y-93152938D01*
X166351403Y-93152936D01*
X166116001Y-93132341D01*
X166115999Y-93132341D01*
X165880596Y-93152936D01*
X165880586Y-93152938D01*
X165652344Y-93214094D01*
X165652335Y-93214098D01*
X165438171Y-93313964D01*
X165438169Y-93313965D01*
X165244597Y-93449505D01*
X165077505Y-93616597D01*
X164947575Y-93802158D01*
X164892998Y-93845783D01*
X164823500Y-93852977D01*
X164761145Y-93821454D01*
X164744425Y-93802158D01*
X164614494Y-93616597D01*
X164447402Y-93449506D01*
X164447395Y-93449501D01*
X164253834Y-93313967D01*
X164253830Y-93313965D01*
X164213777Y-93295288D01*
X164039663Y-93214097D01*
X164039659Y-93214096D01*
X164039655Y-93214094D01*
X163811413Y-93152938D01*
X163811403Y-93152936D01*
X163576001Y-93132341D01*
X163575999Y-93132341D01*
X163340596Y-93152936D01*
X163340586Y-93152938D01*
X163112344Y-93214094D01*
X163112335Y-93214098D01*
X162898171Y-93313964D01*
X162898169Y-93313965D01*
X162704597Y-93449505D01*
X162537505Y-93616597D01*
X162407575Y-93802158D01*
X162352998Y-93845783D01*
X162283500Y-93852977D01*
X162221145Y-93821454D01*
X162204425Y-93802158D01*
X162074494Y-93616597D01*
X161907402Y-93449506D01*
X161907395Y-93449501D01*
X161713834Y-93313967D01*
X161713830Y-93313965D01*
X161673777Y-93295288D01*
X161499663Y-93214097D01*
X161499659Y-93214096D01*
X161499655Y-93214094D01*
X161271413Y-93152938D01*
X161271403Y-93152936D01*
X161036001Y-93132341D01*
X161035999Y-93132341D01*
X160800596Y-93152936D01*
X160800586Y-93152938D01*
X160572344Y-93214094D01*
X160572335Y-93214098D01*
X160358171Y-93313964D01*
X160358169Y-93313965D01*
X160164597Y-93449505D01*
X159997505Y-93616597D01*
X159867575Y-93802158D01*
X159812998Y-93845783D01*
X159743500Y-93852977D01*
X159681145Y-93821454D01*
X159664425Y-93802158D01*
X159534494Y-93616597D01*
X159367402Y-93449506D01*
X159367395Y-93449501D01*
X159173834Y-93313967D01*
X159173830Y-93313965D01*
X159133777Y-93295288D01*
X158959663Y-93214097D01*
X158959659Y-93214096D01*
X158959655Y-93214094D01*
X158731413Y-93152938D01*
X158731403Y-93152936D01*
X158496001Y-93132341D01*
X158495999Y-93132341D01*
X158260596Y-93152936D01*
X158260586Y-93152938D01*
X158032344Y-93214094D01*
X158032335Y-93214098D01*
X157818171Y-93313964D01*
X157818169Y-93313965D01*
X157624597Y-93449505D01*
X157457505Y-93616597D01*
X157327575Y-93802158D01*
X157272998Y-93845783D01*
X157203500Y-93852977D01*
X157141145Y-93821454D01*
X157124425Y-93802158D01*
X156994494Y-93616597D01*
X156827402Y-93449506D01*
X156827395Y-93449501D01*
X156633834Y-93313967D01*
X156633830Y-93313965D01*
X156593777Y-93295288D01*
X156419663Y-93214097D01*
X156419659Y-93214096D01*
X156419655Y-93214094D01*
X156191413Y-93152938D01*
X156191403Y-93152936D01*
X155956001Y-93132341D01*
X155955999Y-93132341D01*
X155720596Y-93152936D01*
X155720586Y-93152938D01*
X155492344Y-93214094D01*
X155492335Y-93214098D01*
X155278171Y-93313964D01*
X155278169Y-93313965D01*
X155084597Y-93449505D01*
X154917505Y-93616597D01*
X154787575Y-93802158D01*
X154732998Y-93845783D01*
X154663500Y-93852977D01*
X154601145Y-93821454D01*
X154584425Y-93802158D01*
X154454494Y-93616597D01*
X154287402Y-93449506D01*
X154287395Y-93449501D01*
X154093834Y-93313967D01*
X154093830Y-93313965D01*
X154053777Y-93295288D01*
X153879663Y-93214097D01*
X153879659Y-93214096D01*
X153879655Y-93214094D01*
X153651413Y-93152938D01*
X153651403Y-93152936D01*
X153416001Y-93132341D01*
X153415999Y-93132341D01*
X153180596Y-93152936D01*
X153180586Y-93152938D01*
X152952344Y-93214094D01*
X152952335Y-93214098D01*
X152738171Y-93313964D01*
X152738169Y-93313965D01*
X152544597Y-93449505D01*
X152377505Y-93616597D01*
X152241965Y-93810169D01*
X152241964Y-93810171D01*
X152142098Y-94024335D01*
X152142094Y-94024344D01*
X152080938Y-94252586D01*
X152080936Y-94252596D01*
X152060341Y-94487999D01*
X152060341Y-94488000D01*
X152080936Y-94723403D01*
X152080938Y-94723413D01*
X152142094Y-94951655D01*
X152142096Y-94951659D01*
X152142097Y-94951663D01*
X152211889Y-95101331D01*
X152241965Y-95165830D01*
X152241967Y-95165834D01*
X152315460Y-95270792D01*
X152377501Y-95359396D01*
X152377506Y-95359402D01*
X152544597Y-95526493D01*
X152544603Y-95526498D01*
X152730158Y-95656425D01*
X152773783Y-95711002D01*
X152780977Y-95780500D01*
X152749454Y-95842855D01*
X152730158Y-95859575D01*
X152544597Y-95989505D01*
X152377505Y-96156597D01*
X152241965Y-96350169D01*
X152241964Y-96350171D01*
X152142098Y-96564335D01*
X152142094Y-96564344D01*
X152080938Y-96792586D01*
X152080936Y-96792596D01*
X152060341Y-97027999D01*
X152060341Y-97028000D01*
X121158500Y-97028000D01*
X121158500Y-92283870D01*
X125116500Y-92283870D01*
X125116501Y-92283876D01*
X125122908Y-92343483D01*
X125173202Y-92478328D01*
X125173206Y-92478335D01*
X125259452Y-92593544D01*
X125259455Y-92593547D01*
X125374664Y-92679793D01*
X125374671Y-92679797D01*
X125509517Y-92730091D01*
X125509516Y-92730091D01*
X125516444Y-92730835D01*
X125569127Y-92736500D01*
X127764872Y-92736499D01*
X127824483Y-92730091D01*
X127959331Y-92679796D01*
X128074546Y-92593546D01*
X128160796Y-92478331D01*
X128211091Y-92343483D01*
X128217500Y-92283873D01*
X128217499Y-90088128D01*
X128211091Y-90028517D01*
X128160796Y-89893669D01*
X128160795Y-89893668D01*
X128160793Y-89893664D01*
X128074547Y-89778455D01*
X128074544Y-89778452D01*
X128014991Y-89733870D01*
X182424500Y-89733870D01*
X182424501Y-89733876D01*
X182430908Y-89793483D01*
X182481202Y-89928328D01*
X182481206Y-89928335D01*
X182567452Y-90043544D01*
X182567455Y-90043547D01*
X182682664Y-90129793D01*
X182682671Y-90129797D01*
X182817517Y-90180091D01*
X182817516Y-90180091D01*
X182824444Y-90180835D01*
X182877127Y-90186500D01*
X185072872Y-90186499D01*
X185132483Y-90180091D01*
X185267331Y-90129796D01*
X185382546Y-90043546D01*
X185468796Y-89928331D01*
X185519091Y-89793483D01*
X185525500Y-89733873D01*
X185525499Y-87538128D01*
X185519091Y-87478517D01*
X185468796Y-87343669D01*
X185468795Y-87343668D01*
X185468793Y-87343664D01*
X185382547Y-87228455D01*
X185382544Y-87228452D01*
X185267335Y-87142206D01*
X185267328Y-87142202D01*
X185132482Y-87091908D01*
X185132483Y-87091908D01*
X185072883Y-87085501D01*
X185072881Y-87085500D01*
X185072873Y-87085500D01*
X185072864Y-87085500D01*
X182877129Y-87085500D01*
X182877123Y-87085501D01*
X182817516Y-87091908D01*
X182682671Y-87142202D01*
X182682664Y-87142206D01*
X182567455Y-87228452D01*
X182567452Y-87228455D01*
X182481206Y-87343664D01*
X182481202Y-87343671D01*
X182430908Y-87478517D01*
X182424501Y-87538116D01*
X182424501Y-87538123D01*
X182424500Y-87538135D01*
X182424500Y-89733870D01*
X128014991Y-89733870D01*
X127959335Y-89692206D01*
X127959328Y-89692202D01*
X127824482Y-89641908D01*
X127824483Y-89641908D01*
X127764883Y-89635501D01*
X127764881Y-89635500D01*
X127764873Y-89635500D01*
X127764864Y-89635500D01*
X125569129Y-89635500D01*
X125569123Y-89635501D01*
X125509516Y-89641908D01*
X125374671Y-89692202D01*
X125374664Y-89692206D01*
X125259455Y-89778452D01*
X125259452Y-89778455D01*
X125173206Y-89893664D01*
X125173202Y-89893671D01*
X125122908Y-90028517D01*
X125116501Y-90088116D01*
X125116501Y-90088123D01*
X125116500Y-90088135D01*
X125116500Y-92283870D01*
X121158500Y-92283870D01*
X121158500Y-86106000D01*
X125112207Y-86106000D01*
X125131348Y-86349219D01*
X125188303Y-86586457D01*
X125281668Y-86811861D01*
X125405504Y-87013942D01*
X126018482Y-86400964D01*
X126079805Y-86367479D01*
X126149496Y-86372463D01*
X126205430Y-86414334D01*
X126208514Y-86419249D01*
X126208549Y-86419225D01*
X126213441Y-86426156D01*
X126316637Y-86536651D01*
X126316638Y-86536652D01*
X126351698Y-86557973D01*
X126398749Y-86609623D01*
X126410407Y-86678513D01*
X126382970Y-86742770D01*
X126374950Y-86751601D01*
X125759056Y-87367494D01*
X125961138Y-87491331D01*
X126186542Y-87584696D01*
X126423780Y-87641651D01*
X126423779Y-87641651D01*
X126667000Y-87660792D01*
X126910219Y-87641651D01*
X127147457Y-87584696D01*
X127372861Y-87491331D01*
X127574942Y-87367494D01*
X126960166Y-86752718D01*
X126926681Y-86691395D01*
X126931665Y-86621703D01*
X126969588Y-86568853D01*
X127072739Y-86484934D01*
X127123052Y-86413655D01*
X127177793Y-86370239D01*
X127247318Y-86363310D01*
X127309553Y-86395068D01*
X127312037Y-86397484D01*
X127928494Y-87013942D01*
X128052331Y-86811861D01*
X128145696Y-86586457D01*
X128202651Y-86349219D01*
X128221792Y-86106000D01*
X128202651Y-85862780D01*
X128145696Y-85625542D01*
X128052331Y-85400138D01*
X127928494Y-85198056D01*
X127315517Y-85811034D01*
X127254194Y-85844519D01*
X127184502Y-85839535D01*
X127128569Y-85797663D01*
X127125486Y-85792750D01*
X127125451Y-85792775D01*
X127120558Y-85785843D01*
X127065661Y-85727064D01*
X127017362Y-85675348D01*
X126982300Y-85654026D01*
X126935248Y-85602374D01*
X126923591Y-85533484D01*
X126951029Y-85469227D01*
X126959048Y-85460397D01*
X127574942Y-84844504D01*
X127372861Y-84720668D01*
X127147457Y-84627303D01*
X126910219Y-84570348D01*
X126910220Y-84570348D01*
X126667000Y-84551207D01*
X126423780Y-84570348D01*
X126186542Y-84627303D01*
X125961146Y-84720665D01*
X125961141Y-84720668D01*
X125759056Y-84844504D01*
X126373833Y-85459280D01*
X126407318Y-85520603D01*
X126402334Y-85590294D01*
X126364408Y-85643148D01*
X126261262Y-85727064D01*
X126261258Y-85727069D01*
X126210947Y-85798343D01*
X126156204Y-85841760D01*
X126086679Y-85848689D01*
X126024444Y-85816930D01*
X126021962Y-85814515D01*
X125405504Y-85198056D01*
X125281668Y-85400141D01*
X125281665Y-85400146D01*
X125188303Y-85625542D01*
X125131348Y-85862780D01*
X125112207Y-86106000D01*
X121158500Y-86106000D01*
X121158500Y-83058000D01*
X170544540Y-83058000D01*
X170564326Y-83246256D01*
X170564327Y-83246259D01*
X170622818Y-83426277D01*
X170622821Y-83426284D01*
X170717467Y-83590216D01*
X170844128Y-83730887D01*
X170844129Y-83730888D01*
X170997265Y-83842148D01*
X170997270Y-83842151D01*
X171170192Y-83919142D01*
X171170197Y-83919144D01*
X171355354Y-83958500D01*
X171355355Y-83958500D01*
X171544644Y-83958500D01*
X171544646Y-83958500D01*
X171729803Y-83919144D01*
X171902730Y-83842151D01*
X171958690Y-83801494D01*
X171998347Y-83772682D01*
X172064153Y-83749202D01*
X172071232Y-83749000D01*
X174892768Y-83749000D01*
X174959807Y-83768685D01*
X174965653Y-83772682D01*
X175061265Y-83842148D01*
X175061270Y-83842151D01*
X175234192Y-83919142D01*
X175234197Y-83919144D01*
X175419354Y-83958500D01*
X175419355Y-83958500D01*
X175608644Y-83958500D01*
X175608646Y-83958500D01*
X175793803Y-83919144D01*
X175966730Y-83842151D01*
X176119871Y-83730888D01*
X176246533Y-83590216D01*
X176341179Y-83426284D01*
X176399674Y-83246256D01*
X176419460Y-83058000D01*
X176399674Y-82869744D01*
X176341179Y-82689716D01*
X176254740Y-82539999D01*
X182420207Y-82539999D01*
X182439348Y-82783219D01*
X182496303Y-83020457D01*
X182589668Y-83245861D01*
X182713504Y-83447942D01*
X183326482Y-82834964D01*
X183387805Y-82801479D01*
X183457496Y-82806463D01*
X183513430Y-82848334D01*
X183516514Y-82853249D01*
X183516549Y-82853225D01*
X183521441Y-82860156D01*
X183624637Y-82970651D01*
X183624638Y-82970652D01*
X183659698Y-82991973D01*
X183706749Y-83043623D01*
X183718407Y-83112513D01*
X183690970Y-83176770D01*
X183682950Y-83185601D01*
X183067056Y-83801494D01*
X183269138Y-83925331D01*
X183494542Y-84018696D01*
X183731780Y-84075651D01*
X183731779Y-84075651D01*
X183975000Y-84094792D01*
X184218219Y-84075651D01*
X184455457Y-84018696D01*
X184680861Y-83925331D01*
X184882942Y-83801494D01*
X184268166Y-83186718D01*
X184234681Y-83125395D01*
X184239665Y-83055703D01*
X184277588Y-83002853D01*
X184380739Y-82918934D01*
X184431052Y-82847655D01*
X184485793Y-82804239D01*
X184555318Y-82797310D01*
X184617553Y-82829068D01*
X184620037Y-82831484D01*
X185236494Y-83447942D01*
X185360331Y-83245861D01*
X185453696Y-83020457D01*
X185510651Y-82783219D01*
X185529792Y-82539999D01*
X185510651Y-82296780D01*
X185453696Y-82059542D01*
X185360331Y-81834138D01*
X185236494Y-81632056D01*
X184623517Y-82245034D01*
X184562194Y-82278519D01*
X184492502Y-82273535D01*
X184436569Y-82231663D01*
X184433486Y-82226750D01*
X184433451Y-82226775D01*
X184428558Y-82219843D01*
X184370333Y-82157500D01*
X184325362Y-82109348D01*
X184290300Y-82088026D01*
X184243248Y-82036374D01*
X184231591Y-81967484D01*
X184259029Y-81903227D01*
X184267048Y-81894397D01*
X184882942Y-81278504D01*
X184680861Y-81154668D01*
X184455457Y-81061303D01*
X184218219Y-81004348D01*
X184218220Y-81004348D01*
X183975000Y-80985207D01*
X183731780Y-81004348D01*
X183494542Y-81061303D01*
X183269146Y-81154665D01*
X183269141Y-81154668D01*
X183067056Y-81278504D01*
X183681833Y-81893280D01*
X183715318Y-81954603D01*
X183710334Y-82024294D01*
X183672408Y-82077148D01*
X183569262Y-82161064D01*
X183569258Y-82161069D01*
X183518947Y-82232343D01*
X183464204Y-82275760D01*
X183394679Y-82282689D01*
X183332444Y-82250930D01*
X183329962Y-82248515D01*
X182713504Y-81632056D01*
X182589668Y-81834141D01*
X182589665Y-81834146D01*
X182496303Y-82059542D01*
X182439348Y-82296780D01*
X182420207Y-82539999D01*
X176254740Y-82539999D01*
X176246533Y-82525784D01*
X176119871Y-82385112D01*
X176067848Y-82347315D01*
X175966734Y-82273851D01*
X175966729Y-82273848D01*
X175793807Y-82196857D01*
X175793802Y-82196855D01*
X175648001Y-82165865D01*
X175608646Y-82157500D01*
X175419354Y-82157500D01*
X175386897Y-82164398D01*
X175234197Y-82196855D01*
X175234192Y-82196857D01*
X175061270Y-82273848D01*
X175061265Y-82273851D01*
X174965653Y-82343318D01*
X174899847Y-82366798D01*
X174892768Y-82367000D01*
X172071232Y-82367000D01*
X172004193Y-82347315D01*
X171998347Y-82343318D01*
X171902734Y-82273851D01*
X171902729Y-82273848D01*
X171729807Y-82196857D01*
X171729802Y-82196855D01*
X171584001Y-82165865D01*
X171544646Y-82157500D01*
X171355354Y-82157500D01*
X171322897Y-82164398D01*
X171170197Y-82196855D01*
X171170192Y-82196857D01*
X170997270Y-82273848D01*
X170997265Y-82273851D01*
X170844129Y-82385111D01*
X170717466Y-82525785D01*
X170622821Y-82689715D01*
X170622818Y-82689722D01*
X170567441Y-82860156D01*
X170564326Y-82869744D01*
X170544540Y-83058000D01*
X121158500Y-83058000D01*
X121158500Y-81102870D01*
X125116500Y-81102870D01*
X125116501Y-81102876D01*
X125122908Y-81162483D01*
X125173202Y-81297328D01*
X125173206Y-81297335D01*
X125259452Y-81412544D01*
X125259455Y-81412547D01*
X125374664Y-81498793D01*
X125374671Y-81498797D01*
X125509517Y-81549091D01*
X125509516Y-81549091D01*
X125516444Y-81549835D01*
X125569127Y-81555500D01*
X127764872Y-81555499D01*
X127824483Y-81549091D01*
X127959331Y-81498796D01*
X128074546Y-81412546D01*
X128160796Y-81297331D01*
X128211091Y-81162483D01*
X128217500Y-81102873D01*
X128217499Y-78907128D01*
X128211091Y-78847517D01*
X128208667Y-78841019D01*
X128170990Y-78740000D01*
X138576040Y-78740000D01*
X138595826Y-78928256D01*
X138595827Y-78928259D01*
X138654318Y-79108277D01*
X138654321Y-79108284D01*
X138748967Y-79272216D01*
X138838704Y-79371879D01*
X138875629Y-79412888D01*
X139028765Y-79524148D01*
X139028770Y-79524151D01*
X139201692Y-79601142D01*
X139201697Y-79601144D01*
X139386854Y-79640500D01*
X139386855Y-79640500D01*
X139576144Y-79640500D01*
X139576146Y-79640500D01*
X139761303Y-79601144D01*
X139934230Y-79524151D01*
X140087371Y-79412888D01*
X140091299Y-79408525D01*
X140150786Y-79371879D01*
X140183447Y-79367500D01*
X148964241Y-79367500D01*
X149031280Y-79387185D01*
X149071627Y-79429499D01*
X149127467Y-79526216D01*
X149194931Y-79601142D01*
X149254129Y-79666888D01*
X149407265Y-79778148D01*
X149407270Y-79778151D01*
X149580192Y-79855142D01*
X149580197Y-79855144D01*
X149765354Y-79894500D01*
X149765355Y-79894500D01*
X149954644Y-79894500D01*
X149954646Y-79894500D01*
X150139803Y-79855144D01*
X150312730Y-79778151D01*
X150465871Y-79666888D01*
X150592533Y-79526216D01*
X150687179Y-79362284D01*
X150745674Y-79182256D01*
X150765460Y-78994000D01*
X150745674Y-78805744D01*
X150687179Y-78625716D01*
X150592533Y-78461784D01*
X150465871Y-78321112D01*
X150465870Y-78321111D01*
X150314508Y-78211140D01*
X161904680Y-78211140D01*
X161924466Y-78399396D01*
X161924467Y-78399399D01*
X161982958Y-78579417D01*
X161982961Y-78579424D01*
X162077607Y-78743356D01*
X162189429Y-78867547D01*
X162204269Y-78884028D01*
X162357405Y-78995288D01*
X162357410Y-78995291D01*
X162530332Y-79072282D01*
X162530337Y-79072284D01*
X162715494Y-79111640D01*
X162715495Y-79111640D01*
X162904784Y-79111640D01*
X162904786Y-79111640D01*
X163089943Y-79072284D01*
X163262870Y-78995291D01*
X163416011Y-78884028D01*
X163418928Y-78880787D01*
X163421740Y-78877666D01*
X163481227Y-78841019D01*
X163513888Y-78836640D01*
X167176422Y-78836640D01*
X167243461Y-78856325D01*
X167268571Y-78877667D01*
X167288128Y-78899387D01*
X167288135Y-78899393D01*
X167441265Y-79010648D01*
X167441270Y-79010651D01*
X167614192Y-79087642D01*
X167614197Y-79087644D01*
X167799354Y-79127000D01*
X167799355Y-79127000D01*
X167988644Y-79127000D01*
X167988646Y-79127000D01*
X168173803Y-79087644D01*
X168346730Y-79010651D01*
X168499871Y-78899388D01*
X168626533Y-78758716D01*
X168721179Y-78594784D01*
X168733173Y-78557870D01*
X182424500Y-78557870D01*
X182424501Y-78557876D01*
X182430908Y-78617483D01*
X182481202Y-78752328D01*
X182481206Y-78752335D01*
X182567452Y-78867544D01*
X182567455Y-78867547D01*
X182682664Y-78953793D01*
X182682671Y-78953797D01*
X182817517Y-79004091D01*
X182817516Y-79004091D01*
X182824444Y-79004835D01*
X182877127Y-79010500D01*
X185072872Y-79010499D01*
X185132483Y-79004091D01*
X185267331Y-78953796D01*
X185382546Y-78867546D01*
X185468796Y-78752331D01*
X185519091Y-78617483D01*
X185525500Y-78557873D01*
X185525499Y-76362128D01*
X185519091Y-76302517D01*
X185475817Y-76186494D01*
X185468797Y-76167671D01*
X185468793Y-76167664D01*
X185382547Y-76052455D01*
X185382544Y-76052452D01*
X185267335Y-75966206D01*
X185267328Y-75966202D01*
X185132482Y-75915908D01*
X185132483Y-75915908D01*
X185072883Y-75909501D01*
X185072881Y-75909500D01*
X185072873Y-75909500D01*
X185072864Y-75909500D01*
X182877129Y-75909500D01*
X182877123Y-75909501D01*
X182817516Y-75915908D01*
X182682671Y-75966202D01*
X182682664Y-75966206D01*
X182567455Y-76052452D01*
X182567452Y-76052455D01*
X182481206Y-76167664D01*
X182481202Y-76167671D01*
X182430908Y-76302517D01*
X182424501Y-76362116D01*
X182424501Y-76362123D01*
X182424500Y-76362135D01*
X182424500Y-78557870D01*
X168733173Y-78557870D01*
X168779674Y-78414756D01*
X168799460Y-78226500D01*
X168779674Y-78038244D01*
X168721179Y-77858216D01*
X168626533Y-77694284D01*
X168600211Y-77665050D01*
X168569982Y-77602059D01*
X168578608Y-77532723D01*
X168584975Y-77520079D01*
X168593937Y-77504555D01*
X168658181Y-77393282D01*
X168716676Y-77213254D01*
X168736462Y-77024998D01*
X168716676Y-76836742D01*
X168658181Y-76656714D01*
X168625715Y-76600482D01*
X168609243Y-76532582D01*
X168625715Y-76476485D01*
X168716880Y-76318583D01*
X168775375Y-76138555D01*
X168795161Y-75950299D01*
X168775375Y-75762043D01*
X168716880Y-75582015D01*
X168672917Y-75505869D01*
X168656445Y-75437972D01*
X168672916Y-75381876D01*
X168721179Y-75298284D01*
X168779674Y-75118256D01*
X168799460Y-74930000D01*
X168779674Y-74741744D01*
X168721179Y-74561716D01*
X168626533Y-74397784D01*
X168499871Y-74257112D01*
X168499870Y-74257111D01*
X168346734Y-74145851D01*
X168346729Y-74145848D01*
X168173807Y-74068857D01*
X168173802Y-74068855D01*
X168028000Y-74037865D01*
X167988646Y-74029500D01*
X167799354Y-74029500D01*
X167766897Y-74036398D01*
X167614197Y-74068855D01*
X167614192Y-74068857D01*
X167441270Y-74145848D01*
X167441265Y-74145851D01*
X167288130Y-74257110D01*
X167288126Y-74257114D01*
X167282400Y-74263474D01*
X167222913Y-74300121D01*
X167190252Y-74304500D01*
X163517748Y-74304500D01*
X163450709Y-74284815D01*
X163425600Y-74263474D01*
X163419873Y-74257114D01*
X163419869Y-74257110D01*
X163266734Y-74145851D01*
X163266729Y-74145848D01*
X163093807Y-74068857D01*
X163093802Y-74068855D01*
X162948000Y-74037865D01*
X162908646Y-74029500D01*
X162719354Y-74029500D01*
X162686897Y-74036398D01*
X162534197Y-74068855D01*
X162534192Y-74068857D01*
X162361270Y-74145848D01*
X162361265Y-74145851D01*
X162208129Y-74257111D01*
X162081466Y-74397785D01*
X161986821Y-74561715D01*
X161986818Y-74561722D01*
X161929190Y-74739085D01*
X161928326Y-74741744D01*
X161924615Y-74777053D01*
X161909066Y-74925000D01*
X161908540Y-74930000D01*
X161928326Y-75118256D01*
X161928327Y-75118259D01*
X161986818Y-75298277D01*
X161986819Y-75298279D01*
X161986821Y-75298284D01*
X162081467Y-75462216D01*
X162091806Y-75473699D01*
X162099307Y-75482030D01*
X162129535Y-75545022D01*
X162120909Y-75614357D01*
X162099307Y-75647970D01*
X162081466Y-75667785D01*
X161986821Y-75831715D01*
X161986818Y-75831722D01*
X161941604Y-75970878D01*
X161928326Y-76011744D01*
X161908540Y-76200000D01*
X161928326Y-76388256D01*
X161928327Y-76388259D01*
X161986818Y-76568277D01*
X161986821Y-76568284D01*
X162036812Y-76654871D01*
X162053285Y-76722772D01*
X162036813Y-76778870D01*
X161999504Y-76843491D01*
X161941011Y-77023515D01*
X161941010Y-77023519D01*
X161921224Y-77211775D01*
X161941010Y-77400031D01*
X161941011Y-77400034D01*
X161999505Y-77580060D01*
X162031299Y-77635129D01*
X162047772Y-77703029D01*
X162031300Y-77759127D01*
X161982961Y-77842854D01*
X161982960Y-77842857D01*
X161971263Y-77878857D01*
X161924466Y-78022884D01*
X161904680Y-78211140D01*
X150314508Y-78211140D01*
X150312734Y-78209851D01*
X150312729Y-78209848D01*
X150139807Y-78132857D01*
X150139802Y-78132855D01*
X149994000Y-78101865D01*
X149954646Y-78093500D01*
X149765354Y-78093500D01*
X149702811Y-78106793D01*
X149689655Y-78109590D01*
X149644479Y-78110772D01*
X149625867Y-78107825D01*
X149625866Y-78107825D01*
X149579321Y-78112225D01*
X149573483Y-78112500D01*
X140183447Y-78112500D01*
X140116408Y-78092815D01*
X140091300Y-78071476D01*
X140087371Y-78067112D01*
X140087369Y-78067111D01*
X140087367Y-78067108D01*
X140087364Y-78067106D01*
X139934234Y-77955851D01*
X139934229Y-77955848D01*
X139761307Y-77878857D01*
X139761302Y-77878855D01*
X139615500Y-77847865D01*
X139576146Y-77839500D01*
X139386854Y-77839500D01*
X139354397Y-77846398D01*
X139201697Y-77878855D01*
X139201692Y-77878857D01*
X139028770Y-77955848D01*
X139028765Y-77955851D01*
X138875629Y-78067111D01*
X138748966Y-78207785D01*
X138654321Y-78371715D01*
X138654318Y-78371722D01*
X138595827Y-78551740D01*
X138595826Y-78551744D01*
X138576040Y-78740000D01*
X128170990Y-78740000D01*
X128160797Y-78712671D01*
X128160793Y-78712664D01*
X128074547Y-78597455D01*
X128074544Y-78597452D01*
X127959335Y-78511206D01*
X127959328Y-78511202D01*
X127824482Y-78460908D01*
X127824483Y-78460908D01*
X127764883Y-78454501D01*
X127764881Y-78454500D01*
X127764873Y-78454500D01*
X127764864Y-78454500D01*
X125569129Y-78454500D01*
X125569123Y-78454501D01*
X125509516Y-78460908D01*
X125374671Y-78511202D01*
X125374664Y-78511206D01*
X125259455Y-78597452D01*
X125259452Y-78597455D01*
X125173206Y-78712664D01*
X125173202Y-78712671D01*
X125122908Y-78847517D01*
X125116501Y-78907116D01*
X125116501Y-78907123D01*
X125116500Y-78907135D01*
X125116500Y-81102870D01*
X121158500Y-81102870D01*
X121158500Y-74925000D01*
X125112207Y-74925000D01*
X125131348Y-75168219D01*
X125188303Y-75405457D01*
X125281668Y-75630861D01*
X125405504Y-75832942D01*
X126018482Y-75219964D01*
X126079805Y-75186479D01*
X126149496Y-75191463D01*
X126205430Y-75233334D01*
X126208514Y-75238249D01*
X126208549Y-75238225D01*
X126213441Y-75245156D01*
X126285690Y-75322515D01*
X126316638Y-75355652D01*
X126351698Y-75376973D01*
X126398749Y-75428623D01*
X126410407Y-75497513D01*
X126382970Y-75561770D01*
X126374950Y-75570601D01*
X125759056Y-76186494D01*
X125961138Y-76310331D01*
X126186542Y-76403696D01*
X126423780Y-76460651D01*
X126423779Y-76460651D01*
X126666999Y-76479792D01*
X126910219Y-76460651D01*
X127147457Y-76403696D01*
X127372861Y-76310331D01*
X127574942Y-76186494D01*
X127291108Y-75902660D01*
X153813391Y-75902660D01*
X153827197Y-75911335D01*
X153827201Y-75911337D01*
X153997358Y-75970877D01*
X153997361Y-75970878D01*
X154176497Y-75991062D01*
X154176503Y-75991062D01*
X154355638Y-75970878D01*
X154525807Y-75911333D01*
X154539607Y-75902661D01*
X154539607Y-75902660D01*
X155338391Y-75902660D01*
X155352197Y-75911335D01*
X155352201Y-75911337D01*
X155522358Y-75970877D01*
X155522361Y-75970878D01*
X155701497Y-75991062D01*
X155701503Y-75991062D01*
X155880638Y-75970878D01*
X156050807Y-75911333D01*
X156064607Y-75902661D01*
X156064607Y-75902660D01*
X155701501Y-75539553D01*
X155701500Y-75539553D01*
X155338391Y-75902660D01*
X154539607Y-75902660D01*
X154176501Y-75539553D01*
X154176500Y-75539553D01*
X153813391Y-75902660D01*
X127291108Y-75902660D01*
X126960166Y-75571718D01*
X126926681Y-75510395D01*
X126931665Y-75440703D01*
X126969588Y-75387853D01*
X127072739Y-75303934D01*
X127123052Y-75232655D01*
X127177793Y-75189239D01*
X127247318Y-75182310D01*
X127309553Y-75214068D01*
X127312037Y-75216484D01*
X127928494Y-75832942D01*
X128052331Y-75630861D01*
X128145696Y-75405457D01*
X128202651Y-75168219D01*
X128204859Y-75140160D01*
X153050891Y-75140160D01*
X153064697Y-75148835D01*
X153064701Y-75148837D01*
X153234859Y-75208377D01*
X153277482Y-75213180D01*
X153341896Y-75240246D01*
X153381451Y-75297840D01*
X153386819Y-75322515D01*
X153391621Y-75365138D01*
X153391622Y-75365141D01*
X153451162Y-75535298D01*
X153451167Y-75535308D01*
X153459838Y-75549108D01*
X153790455Y-75218492D01*
X154076500Y-75218492D01*
X154114697Y-75271065D01*
X154160662Y-75286000D01*
X154160663Y-75286000D01*
X154192337Y-75286000D01*
X154192338Y-75286000D01*
X154238303Y-75271065D01*
X154276500Y-75218492D01*
X154276500Y-75186000D01*
X154530053Y-75186000D01*
X154893160Y-75549107D01*
X154925121Y-75545507D01*
X154952887Y-75545508D01*
X154984838Y-75549108D01*
X155315455Y-75218492D01*
X155601500Y-75218492D01*
X155639697Y-75271065D01*
X155685662Y-75286000D01*
X155685663Y-75286000D01*
X155717337Y-75286000D01*
X155717338Y-75286000D01*
X155763303Y-75271065D01*
X155801500Y-75218492D01*
X155801500Y-75185999D01*
X156055053Y-75185999D01*
X156418160Y-75549107D01*
X156418161Y-75549107D01*
X156426833Y-75535307D01*
X156486378Y-75365138D01*
X156491180Y-75322518D01*
X156518246Y-75258103D01*
X156575840Y-75218548D01*
X156600518Y-75213180D01*
X156643138Y-75208378D01*
X156813307Y-75148833D01*
X156827107Y-75140161D01*
X156827107Y-75140160D01*
X156464001Y-74777053D01*
X156464000Y-74777053D01*
X156055053Y-75185998D01*
X156055053Y-75185999D01*
X155801500Y-75185999D01*
X155801500Y-75153508D01*
X155763303Y-75100935D01*
X155763302Y-75100935D01*
X155717339Y-75086000D01*
X155717338Y-75086000D01*
X155685662Y-75086000D01*
X155685660Y-75086000D01*
X155639696Y-75100935D01*
X155627112Y-75118256D01*
X155601500Y-75153508D01*
X155601500Y-75218492D01*
X155315455Y-75218492D01*
X155347947Y-75186000D01*
X155347947Y-75185999D01*
X154939000Y-74777053D01*
X154530053Y-75185999D01*
X154530053Y-75186000D01*
X154276500Y-75186000D01*
X154276500Y-75153508D01*
X154238303Y-75100935D01*
X154238302Y-75100935D01*
X154192339Y-75086000D01*
X154192338Y-75086000D01*
X154160662Y-75086000D01*
X154160660Y-75086000D01*
X154114696Y-75100935D01*
X154102112Y-75118256D01*
X154076500Y-75153508D01*
X154076500Y-75218492D01*
X153790455Y-75218492D01*
X153822947Y-75186000D01*
X153822947Y-75185999D01*
X153414001Y-74777053D01*
X153414000Y-74777053D01*
X153050891Y-75140160D01*
X128204859Y-75140160D01*
X128221792Y-74925000D01*
X128202651Y-74681780D01*
X128145696Y-74444542D01*
X128136981Y-74423502D01*
X152608938Y-74423502D01*
X152629121Y-74602638D01*
X152629122Y-74602641D01*
X152688662Y-74772798D01*
X152688667Y-74772808D01*
X152697338Y-74786608D01*
X153027955Y-74455992D01*
X153314000Y-74455992D01*
X153352197Y-74508565D01*
X153398162Y-74523500D01*
X153398163Y-74523500D01*
X153429837Y-74523500D01*
X153429838Y-74523500D01*
X153475803Y-74508565D01*
X153514000Y-74455992D01*
X153514000Y-74423500D01*
X153767553Y-74423500D01*
X154176500Y-74832447D01*
X154552955Y-74455992D01*
X154839000Y-74455992D01*
X154877197Y-74508565D01*
X154923162Y-74523500D01*
X154923163Y-74523500D01*
X154954837Y-74523500D01*
X154954838Y-74523500D01*
X155000803Y-74508565D01*
X155039000Y-74455992D01*
X155039000Y-74423500D01*
X155292553Y-74423500D01*
X155701500Y-74832447D01*
X156077955Y-74455992D01*
X156364000Y-74455992D01*
X156402197Y-74508565D01*
X156448162Y-74523500D01*
X156448163Y-74523500D01*
X156479837Y-74523500D01*
X156479838Y-74523500D01*
X156525803Y-74508565D01*
X156564000Y-74455992D01*
X156564000Y-74423500D01*
X156817553Y-74423500D01*
X157180660Y-74786607D01*
X157180661Y-74786607D01*
X157189333Y-74772807D01*
X157248878Y-74602638D01*
X157269062Y-74423502D01*
X157269062Y-74423497D01*
X157248878Y-74244361D01*
X157248877Y-74244358D01*
X157189337Y-74074201D01*
X157189335Y-74074197D01*
X157180660Y-74060391D01*
X156817553Y-74423499D01*
X156817553Y-74423500D01*
X156564000Y-74423500D01*
X156564000Y-74391008D01*
X156525803Y-74338435D01*
X156479839Y-74323500D01*
X156479838Y-74323500D01*
X156448162Y-74323500D01*
X156448160Y-74323500D01*
X156402196Y-74338435D01*
X156364430Y-74390416D01*
X156364000Y-74391008D01*
X156364000Y-74455992D01*
X156077955Y-74455992D01*
X156110447Y-74423500D01*
X155701500Y-74014553D01*
X155292553Y-74423499D01*
X155292553Y-74423500D01*
X155039000Y-74423500D01*
X155039000Y-74391008D01*
X155000803Y-74338435D01*
X154954839Y-74323500D01*
X154954838Y-74323500D01*
X154923162Y-74323500D01*
X154923160Y-74323500D01*
X154877196Y-74338435D01*
X154839430Y-74390416D01*
X154839000Y-74391008D01*
X154839000Y-74455992D01*
X154552955Y-74455992D01*
X154585447Y-74423500D01*
X154176500Y-74014553D01*
X153767553Y-74423500D01*
X153514000Y-74423500D01*
X153514000Y-74391008D01*
X153475803Y-74338435D01*
X153429839Y-74323500D01*
X153429838Y-74323500D01*
X153398162Y-74323500D01*
X153398160Y-74323500D01*
X153352196Y-74338435D01*
X153314430Y-74390416D01*
X153314000Y-74391008D01*
X153314000Y-74455992D01*
X153027955Y-74455992D01*
X153060447Y-74423500D01*
X153060447Y-74423499D01*
X152697338Y-74060390D01*
X152697338Y-74060391D01*
X152688664Y-74074196D01*
X152629122Y-74244358D01*
X152629121Y-74244361D01*
X152608938Y-74423497D01*
X152608938Y-74423502D01*
X128136981Y-74423502D01*
X128052331Y-74219138D01*
X127928494Y-74017056D01*
X127315517Y-74630034D01*
X127254194Y-74663519D01*
X127184502Y-74658535D01*
X127128569Y-74616663D01*
X127125486Y-74611750D01*
X127125451Y-74611775D01*
X127120558Y-74604843D01*
X127044587Y-74523499D01*
X127017362Y-74494348D01*
X126982300Y-74473026D01*
X126935248Y-74421374D01*
X126923591Y-74352484D01*
X126951029Y-74288227D01*
X126959048Y-74279397D01*
X127531608Y-73706838D01*
X153050890Y-73706838D01*
X153413999Y-74069947D01*
X153790455Y-73693492D01*
X154076500Y-73693492D01*
X154114697Y-73746065D01*
X154160662Y-73761000D01*
X154160663Y-73761000D01*
X154192337Y-73761000D01*
X154192338Y-73761000D01*
X154238303Y-73746065D01*
X154276500Y-73693492D01*
X154276500Y-73661000D01*
X154530053Y-73661000D01*
X154939000Y-74069947D01*
X155315455Y-73693492D01*
X155601500Y-73693492D01*
X155639697Y-73746065D01*
X155685662Y-73761000D01*
X155685663Y-73761000D01*
X155717337Y-73761000D01*
X155717338Y-73761000D01*
X155763303Y-73746065D01*
X155801500Y-73693492D01*
X155801500Y-73661000D01*
X156055053Y-73661000D01*
X156464000Y-74069947D01*
X156464001Y-74069947D01*
X156827108Y-73706838D01*
X156823508Y-73674884D01*
X156823507Y-73647119D01*
X156827107Y-73615160D01*
X156464000Y-73252053D01*
X156055053Y-73660999D01*
X156055053Y-73661000D01*
X155801500Y-73661000D01*
X155801500Y-73628508D01*
X155763303Y-73575935D01*
X155763302Y-73575935D01*
X155717339Y-73561000D01*
X155717338Y-73561000D01*
X155685662Y-73561000D01*
X155685660Y-73561000D01*
X155639696Y-73575935D01*
X155611198Y-73615160D01*
X155601500Y-73628508D01*
X155601500Y-73693492D01*
X155315455Y-73693492D01*
X155347947Y-73661000D01*
X154939000Y-73252053D01*
X154530053Y-73661000D01*
X154276500Y-73661000D01*
X154276500Y-73628508D01*
X154238303Y-73575935D01*
X154238302Y-73575935D01*
X154192339Y-73561000D01*
X154192338Y-73561000D01*
X154160662Y-73561000D01*
X154160660Y-73561000D01*
X154114696Y-73575935D01*
X154086198Y-73615160D01*
X154076500Y-73628508D01*
X154076500Y-73693492D01*
X153790455Y-73693492D01*
X153822947Y-73661000D01*
X153822947Y-73660999D01*
X153414001Y-73252053D01*
X153414000Y-73252053D01*
X153050890Y-73615161D01*
X153054491Y-73647123D01*
X153054491Y-73674892D01*
X153050890Y-73706838D01*
X127531608Y-73706838D01*
X127574942Y-73663504D01*
X127372861Y-73539668D01*
X127147457Y-73446303D01*
X126910219Y-73389348D01*
X126910220Y-73389348D01*
X126666999Y-73370207D01*
X126423780Y-73389348D01*
X126186542Y-73446303D01*
X125961146Y-73539665D01*
X125961141Y-73539668D01*
X125759056Y-73663504D01*
X126373833Y-74278280D01*
X126407318Y-74339603D01*
X126402334Y-74409294D01*
X126364408Y-74462148D01*
X126261262Y-74546064D01*
X126261258Y-74546069D01*
X126210947Y-74617343D01*
X126156204Y-74660760D01*
X126086679Y-74667689D01*
X126024444Y-74635930D01*
X126021962Y-74633515D01*
X125405504Y-74017056D01*
X125281668Y-74219141D01*
X125281665Y-74219146D01*
X125188303Y-74444542D01*
X125131348Y-74681780D01*
X125112207Y-74925000D01*
X121158500Y-74925000D01*
X121158500Y-72898502D01*
X152608938Y-72898502D01*
X152629121Y-73077638D01*
X152629122Y-73077641D01*
X152688662Y-73247798D01*
X152688667Y-73247808D01*
X152697338Y-73261608D01*
X153027955Y-72930992D01*
X153314000Y-72930992D01*
X153352197Y-72983565D01*
X153398162Y-72998500D01*
X153398163Y-72998500D01*
X153429837Y-72998500D01*
X153429838Y-72998500D01*
X153475803Y-72983565D01*
X153514000Y-72930992D01*
X153514000Y-72898499D01*
X153767553Y-72898499D01*
X154176500Y-73307446D01*
X154552953Y-72930992D01*
X154839000Y-72930992D01*
X154877197Y-72983565D01*
X154923162Y-72998500D01*
X154923163Y-72998500D01*
X154954837Y-72998500D01*
X154954838Y-72998500D01*
X155000803Y-72983565D01*
X155039000Y-72930992D01*
X155039000Y-72898499D01*
X155292553Y-72898499D01*
X155701500Y-73307446D01*
X156110447Y-72898499D01*
X156110447Y-72898498D01*
X156077957Y-72866008D01*
X156363999Y-72866008D01*
X156364000Y-72866008D01*
X156364000Y-72930992D01*
X156402197Y-72983565D01*
X156448162Y-72998500D01*
X156448163Y-72998500D01*
X156479837Y-72998500D01*
X156479838Y-72998500D01*
X156525803Y-72983565D01*
X156564000Y-72930992D01*
X156564000Y-72898500D01*
X156817553Y-72898500D01*
X157180660Y-73261607D01*
X157180661Y-73261607D01*
X157189333Y-73247807D01*
X157248878Y-73077638D01*
X157269062Y-72898502D01*
X157269062Y-72898497D01*
X157248878Y-72719361D01*
X157248877Y-72719358D01*
X157189337Y-72549201D01*
X157189335Y-72549197D01*
X157180660Y-72535391D01*
X156817553Y-72898499D01*
X156817553Y-72898500D01*
X156564000Y-72898500D01*
X156564000Y-72866008D01*
X156525803Y-72813435D01*
X156479839Y-72798500D01*
X156479838Y-72798500D01*
X156448162Y-72798500D01*
X156448160Y-72798500D01*
X156402196Y-72813435D01*
X156363999Y-72866008D01*
X156077957Y-72866008D01*
X155701500Y-72489553D01*
X155292553Y-72898498D01*
X155292553Y-72898499D01*
X155039000Y-72898499D01*
X155039000Y-72866008D01*
X155000803Y-72813435D01*
X154954839Y-72798500D01*
X154954838Y-72798500D01*
X154923162Y-72798500D01*
X154923160Y-72798500D01*
X154877196Y-72813435D01*
X154839000Y-72866008D01*
X154839000Y-72930992D01*
X154552953Y-72930992D01*
X154585447Y-72898498D01*
X154176500Y-72489553D01*
X153767553Y-72898498D01*
X153767553Y-72898499D01*
X153514000Y-72898499D01*
X153514000Y-72866008D01*
X153475803Y-72813435D01*
X153429839Y-72798500D01*
X153429838Y-72798500D01*
X153398162Y-72798500D01*
X153398160Y-72798500D01*
X153352196Y-72813435D01*
X153314000Y-72866008D01*
X153314000Y-72930992D01*
X153027955Y-72930992D01*
X153060447Y-72898500D01*
X153060447Y-72898499D01*
X152697338Y-72535390D01*
X152697338Y-72535391D01*
X152688664Y-72549196D01*
X152629122Y-72719358D01*
X152629121Y-72719361D01*
X152608938Y-72898497D01*
X152608938Y-72898502D01*
X121158500Y-72898502D01*
X121158500Y-71516307D01*
X144502831Y-71516307D01*
X144522617Y-71704563D01*
X144522618Y-71704566D01*
X144581109Y-71884584D01*
X144581112Y-71884591D01*
X144675758Y-72048523D01*
X144787988Y-72173167D01*
X144802420Y-72189195D01*
X144955556Y-72300455D01*
X144955561Y-72300458D01*
X145128483Y-72377449D01*
X145128488Y-72377451D01*
X145313645Y-72416807D01*
X145313646Y-72416807D01*
X145502935Y-72416807D01*
X145502937Y-72416807D01*
X145688094Y-72377451D01*
X145861021Y-72300458D01*
X146014162Y-72189195D01*
X146120456Y-72071143D01*
X146179944Y-72034494D01*
X146212607Y-72030115D01*
X149698753Y-72030115D01*
X149765792Y-72049800D01*
X149771638Y-72053797D01*
X149915265Y-72158148D01*
X149915270Y-72158151D01*
X150088192Y-72235142D01*
X150088197Y-72235144D01*
X150273354Y-72274500D01*
X150273355Y-72274500D01*
X150462644Y-72274500D01*
X150462646Y-72274500D01*
X150647803Y-72235144D01*
X150767529Y-72181838D01*
X153050890Y-72181838D01*
X153413999Y-72544947D01*
X153790455Y-72168492D01*
X154076500Y-72168492D01*
X154114697Y-72221065D01*
X154160662Y-72236000D01*
X154160663Y-72236000D01*
X154192337Y-72236000D01*
X154192338Y-72236000D01*
X154238303Y-72221065D01*
X154276500Y-72168492D01*
X154276500Y-72136000D01*
X154530053Y-72136000D01*
X154938999Y-72544947D01*
X155315455Y-72168492D01*
X155601500Y-72168492D01*
X155639697Y-72221065D01*
X155685662Y-72236000D01*
X155685663Y-72236000D01*
X155717337Y-72236000D01*
X155717338Y-72236000D01*
X155763303Y-72221065D01*
X155801500Y-72168492D01*
X155801500Y-72136000D01*
X156055053Y-72136000D01*
X156464000Y-72544947D01*
X156464001Y-72544947D01*
X156827108Y-72181838D01*
X156827108Y-72181837D01*
X156813308Y-72173167D01*
X156813298Y-72173162D01*
X156643141Y-72113622D01*
X156643138Y-72113621D01*
X156600515Y-72108819D01*
X156536102Y-72081752D01*
X156496547Y-72024157D01*
X156491180Y-71999482D01*
X156486377Y-71956859D01*
X156426837Y-71786701D01*
X156426835Y-71786697D01*
X156418160Y-71772891D01*
X156055053Y-72135999D01*
X156055053Y-72136000D01*
X155801500Y-72136000D01*
X155801500Y-72103508D01*
X155763303Y-72050935D01*
X155750848Y-72046888D01*
X155717339Y-72036000D01*
X155717338Y-72036000D01*
X155685662Y-72036000D01*
X155685660Y-72036000D01*
X155639696Y-72050935D01*
X155601541Y-72103452D01*
X155601500Y-72103508D01*
X155601500Y-72168492D01*
X155315455Y-72168492D01*
X155347947Y-72136000D01*
X155347947Y-72135999D01*
X154984838Y-71772890D01*
X154952892Y-71776491D01*
X154925123Y-71776491D01*
X154893161Y-71772890D01*
X154530053Y-72135999D01*
X154530053Y-72136000D01*
X154276500Y-72136000D01*
X154276500Y-72103508D01*
X154238303Y-72050935D01*
X154225848Y-72046888D01*
X154192339Y-72036000D01*
X154192338Y-72036000D01*
X154160662Y-72036000D01*
X154160660Y-72036000D01*
X154114696Y-72050935D01*
X154076541Y-72103452D01*
X154076500Y-72103508D01*
X154076500Y-72168492D01*
X153790455Y-72168492D01*
X153822947Y-72136000D01*
X153822947Y-72135999D01*
X153459838Y-71772890D01*
X153459838Y-71772891D01*
X153451165Y-71786695D01*
X153391622Y-71956859D01*
X153386819Y-71999484D01*
X153359752Y-72063898D01*
X153302156Y-72103452D01*
X153277484Y-72108819D01*
X153234859Y-72113622D01*
X153064695Y-72173165D01*
X153050891Y-72181838D01*
X153050890Y-72181838D01*
X150767529Y-72181838D01*
X150820730Y-72158151D01*
X150973871Y-72046888D01*
X151100533Y-71906216D01*
X151195179Y-71742284D01*
X151253674Y-71562256D01*
X151268695Y-71419338D01*
X153813390Y-71419338D01*
X154176500Y-71782447D01*
X154176501Y-71782447D01*
X154539607Y-71419339D01*
X155338390Y-71419339D01*
X155701498Y-71782447D01*
X155701499Y-71782447D01*
X156064608Y-71419338D01*
X156064608Y-71419337D01*
X156050808Y-71410667D01*
X156050798Y-71410662D01*
X155880641Y-71351122D01*
X155880638Y-71351121D01*
X155701503Y-71330938D01*
X155701497Y-71330938D01*
X155522361Y-71351121D01*
X155522358Y-71351122D01*
X155352196Y-71410664D01*
X155338391Y-71419338D01*
X155338390Y-71419339D01*
X154539607Y-71419339D01*
X154539608Y-71419338D01*
X154539608Y-71419337D01*
X154525808Y-71410667D01*
X154525798Y-71410662D01*
X154355641Y-71351122D01*
X154355638Y-71351121D01*
X154176503Y-71330938D01*
X154176497Y-71330938D01*
X153997361Y-71351121D01*
X153997358Y-71351122D01*
X153827196Y-71410664D01*
X153813391Y-71419338D01*
X153813390Y-71419338D01*
X151268695Y-71419338D01*
X151273460Y-71374000D01*
X151253674Y-71185744D01*
X151195179Y-71005716D01*
X151116171Y-70868870D01*
X171926500Y-70868870D01*
X171926501Y-70868876D01*
X171932908Y-70928483D01*
X171983202Y-71063328D01*
X171983206Y-71063335D01*
X172069452Y-71178544D01*
X172069455Y-71178547D01*
X172184664Y-71264793D01*
X172184671Y-71264797D01*
X172319517Y-71315091D01*
X172319516Y-71315091D01*
X172326444Y-71315835D01*
X172379127Y-71321500D01*
X174574872Y-71321499D01*
X174634483Y-71315091D01*
X174769331Y-71264796D01*
X174884546Y-71178546D01*
X174970796Y-71063331D01*
X175021091Y-70928483D01*
X175027500Y-70868873D01*
X175027499Y-69771000D01*
X177002207Y-69771000D01*
X177021348Y-70014219D01*
X177078303Y-70251457D01*
X177171668Y-70476861D01*
X177295504Y-70678942D01*
X177908482Y-70065964D01*
X177969805Y-70032479D01*
X178039496Y-70037463D01*
X178095430Y-70079334D01*
X178098514Y-70084249D01*
X178098549Y-70084225D01*
X178103441Y-70091156D01*
X178206637Y-70201651D01*
X178206638Y-70201652D01*
X178241698Y-70222973D01*
X178288749Y-70274623D01*
X178300407Y-70343513D01*
X178272970Y-70407770D01*
X178264950Y-70416601D01*
X177649056Y-71032494D01*
X177851138Y-71156331D01*
X178076542Y-71249696D01*
X178313780Y-71306651D01*
X178313779Y-71306651D01*
X178557000Y-71325792D01*
X178800219Y-71306651D01*
X179037457Y-71249696D01*
X179262861Y-71156331D01*
X179464942Y-71032494D01*
X178850166Y-70417718D01*
X178816681Y-70356395D01*
X178821665Y-70286703D01*
X178859588Y-70233853D01*
X178962739Y-70149934D01*
X179013052Y-70078655D01*
X179067793Y-70035239D01*
X179137318Y-70028310D01*
X179199553Y-70060068D01*
X179202037Y-70062484D01*
X179818494Y-70678942D01*
X179942331Y-70476861D01*
X180035696Y-70251457D01*
X180092651Y-70014219D01*
X180111792Y-69771000D01*
X180092651Y-69527780D01*
X180035696Y-69290542D01*
X179942331Y-69065138D01*
X179818494Y-68863056D01*
X179205517Y-69476034D01*
X179144194Y-69509519D01*
X179074502Y-69504535D01*
X179018569Y-69462663D01*
X179015486Y-69457750D01*
X179015451Y-69457775D01*
X179010558Y-69450843D01*
X178955661Y-69392064D01*
X178907362Y-69340348D01*
X178890950Y-69330367D01*
X178872300Y-69319026D01*
X178825248Y-69267374D01*
X178813591Y-69198484D01*
X178841029Y-69134227D01*
X178849048Y-69125397D01*
X179464942Y-68509504D01*
X179276071Y-68393763D01*
X183311787Y-68393763D01*
X183341413Y-68663013D01*
X183341415Y-68663024D01*
X183409926Y-68925082D01*
X183409928Y-68925088D01*
X183515870Y-69174390D01*
X183617153Y-69340348D01*
X183656979Y-69405605D01*
X183656986Y-69405615D01*
X183830253Y-69613819D01*
X183830259Y-69613824D01*
X184031998Y-69794582D01*
X184257910Y-69944044D01*
X184503176Y-70059020D01*
X184503183Y-70059022D01*
X184503185Y-70059023D01*
X184762557Y-70137057D01*
X184762564Y-70137058D01*
X184762569Y-70137060D01*
X185030561Y-70176500D01*
X185030566Y-70176500D01*
X185233636Y-70176500D01*
X185285133Y-70172730D01*
X185436156Y-70161677D01*
X185548758Y-70136593D01*
X185700546Y-70102782D01*
X185700548Y-70102781D01*
X185700553Y-70102780D01*
X185953558Y-70006014D01*
X186189777Y-69873441D01*
X186404177Y-69707888D01*
X186592186Y-69512881D01*
X186749799Y-69292579D01*
X186836327Y-69124280D01*
X186873649Y-69051690D01*
X186873651Y-69051684D01*
X186873656Y-69051675D01*
X186961118Y-68795305D01*
X187010319Y-68528933D01*
X187020212Y-68258235D01*
X186990586Y-67988982D01*
X186922072Y-67726912D01*
X186816130Y-67477610D01*
X186675018Y-67246390D01*
X186585747Y-67139119D01*
X186501746Y-67038180D01*
X186501740Y-67038175D01*
X186300002Y-66857418D01*
X186074092Y-66707957D01*
X186074090Y-66707956D01*
X185828824Y-66592980D01*
X185828819Y-66592978D01*
X185828814Y-66592976D01*
X185569442Y-66514942D01*
X185569428Y-66514939D01*
X185453791Y-66497921D01*
X185301439Y-66475500D01*
X185098369Y-66475500D01*
X185098364Y-66475500D01*
X184895844Y-66490323D01*
X184895831Y-66490325D01*
X184631453Y-66549217D01*
X184631446Y-66549220D01*
X184378439Y-66645987D01*
X184142226Y-66778557D01*
X183927822Y-66944112D01*
X183739822Y-67139109D01*
X183739816Y-67139116D01*
X183582202Y-67359419D01*
X183582199Y-67359424D01*
X183458350Y-67600309D01*
X183458343Y-67600327D01*
X183370884Y-67856685D01*
X183370881Y-67856699D01*
X183321681Y-68123068D01*
X183321680Y-68123075D01*
X183311787Y-68393763D01*
X179276071Y-68393763D01*
X179262861Y-68385668D01*
X179037457Y-68292303D01*
X178800219Y-68235348D01*
X178800220Y-68235348D01*
X178557000Y-68216207D01*
X178313780Y-68235348D01*
X178076542Y-68292303D01*
X177851146Y-68385665D01*
X177851141Y-68385668D01*
X177649056Y-68509504D01*
X178263833Y-69124280D01*
X178297318Y-69185603D01*
X178292334Y-69255294D01*
X178254408Y-69308148D01*
X178151262Y-69392064D01*
X178151258Y-69392069D01*
X178100947Y-69463343D01*
X178046204Y-69506760D01*
X177976679Y-69513689D01*
X177914444Y-69481930D01*
X177911962Y-69479515D01*
X177295504Y-68863056D01*
X177171668Y-69065141D01*
X177171665Y-69065146D01*
X177078303Y-69290542D01*
X177021348Y-69527780D01*
X177002207Y-69771000D01*
X175027499Y-69771000D01*
X175027499Y-68673128D01*
X175021091Y-68613517D01*
X174989543Y-68528933D01*
X174970797Y-68478671D01*
X174970793Y-68478664D01*
X174884547Y-68363455D01*
X174884544Y-68363452D01*
X174769335Y-68277206D01*
X174769328Y-68277202D01*
X174634482Y-68226908D01*
X174634483Y-68226908D01*
X174574883Y-68220501D01*
X174574881Y-68220500D01*
X174574873Y-68220500D01*
X174574864Y-68220500D01*
X172379129Y-68220500D01*
X172379123Y-68220501D01*
X172319516Y-68226908D01*
X172184671Y-68277202D01*
X172184664Y-68277206D01*
X172069455Y-68363452D01*
X172069452Y-68363455D01*
X171983206Y-68478664D01*
X171983202Y-68478671D01*
X171932908Y-68613517D01*
X171927587Y-68663013D01*
X171926501Y-68673123D01*
X171926500Y-68673135D01*
X171926500Y-70868870D01*
X151116171Y-70868870D01*
X151100533Y-70841784D01*
X151094848Y-70835470D01*
X151064619Y-70772478D01*
X151073245Y-70703143D01*
X151094850Y-70669527D01*
X151100533Y-70663216D01*
X151195179Y-70499284D01*
X151253674Y-70319256D01*
X151273460Y-70131000D01*
X151253674Y-69942744D01*
X151195179Y-69762716D01*
X151100533Y-69598784D01*
X150973871Y-69458112D01*
X150973870Y-69458111D01*
X150820734Y-69346851D01*
X150820729Y-69346848D01*
X150647807Y-69269857D01*
X150647802Y-69269855D01*
X150490479Y-69236416D01*
X150462646Y-69230500D01*
X150273354Y-69230500D01*
X150245521Y-69236416D01*
X150088197Y-69269855D01*
X150088192Y-69269857D01*
X149915270Y-69346848D01*
X149915265Y-69346851D01*
X149766663Y-69454818D01*
X149700857Y-69478298D01*
X149693778Y-69478500D01*
X146223246Y-69478500D01*
X146156207Y-69458815D01*
X146131098Y-69437474D01*
X146125371Y-69431114D01*
X146125367Y-69431110D01*
X145972232Y-69319851D01*
X145972227Y-69319848D01*
X145799305Y-69242857D01*
X145799300Y-69242855D01*
X145653499Y-69211865D01*
X145614144Y-69203500D01*
X145424852Y-69203500D01*
X145392395Y-69210398D01*
X145239695Y-69242855D01*
X145239690Y-69242857D01*
X145066768Y-69319848D01*
X145066763Y-69319851D01*
X144913627Y-69431111D01*
X144786964Y-69571785D01*
X144692319Y-69735715D01*
X144692316Y-69735722D01*
X144633825Y-69915740D01*
X144633824Y-69915744D01*
X144614038Y-70104000D01*
X144633824Y-70292256D01*
X144633825Y-70292259D01*
X144692316Y-70472277D01*
X144692319Y-70472284D01*
X144786965Y-70636216D01*
X144803456Y-70654531D01*
X144813947Y-70666183D01*
X144844176Y-70729174D01*
X144835550Y-70798510D01*
X144806741Y-70838563D01*
X144806769Y-70838589D01*
X144806541Y-70838841D01*
X144804774Y-70841299D01*
X144802421Y-70843417D01*
X144675757Y-70984092D01*
X144581112Y-71148022D01*
X144581109Y-71148029D01*
X144523351Y-71325792D01*
X144522617Y-71328051D01*
X144502831Y-71516307D01*
X121158500Y-71516307D01*
X121158500Y-68393763D01*
X122859787Y-68393763D01*
X122889413Y-68663013D01*
X122889415Y-68663024D01*
X122957926Y-68925082D01*
X122957928Y-68925088D01*
X123063870Y-69174390D01*
X123165153Y-69340348D01*
X123204979Y-69405605D01*
X123204986Y-69405615D01*
X123378253Y-69613819D01*
X123378259Y-69613824D01*
X123579998Y-69794582D01*
X123805910Y-69944044D01*
X124051176Y-70059020D01*
X124051183Y-70059022D01*
X124051185Y-70059023D01*
X124310557Y-70137057D01*
X124310564Y-70137058D01*
X124310569Y-70137060D01*
X124578561Y-70176500D01*
X124578566Y-70176500D01*
X124781636Y-70176500D01*
X124833133Y-70172730D01*
X124984156Y-70161677D01*
X125096758Y-70136593D01*
X125248546Y-70102782D01*
X125248548Y-70102781D01*
X125248553Y-70102780D01*
X125501558Y-70006014D01*
X125737777Y-69873441D01*
X125952177Y-69707888D01*
X126140186Y-69512881D01*
X126297799Y-69292579D01*
X126384327Y-69124280D01*
X126421649Y-69051690D01*
X126421651Y-69051684D01*
X126421656Y-69051675D01*
X126509118Y-68795305D01*
X126558319Y-68528933D01*
X126568212Y-68258235D01*
X126538586Y-67988982D01*
X126470072Y-67726912D01*
X126364130Y-67477610D01*
X126223018Y-67246390D01*
X126133747Y-67139119D01*
X126049746Y-67038180D01*
X126049740Y-67038175D01*
X125848002Y-66857418D01*
X125622092Y-66707957D01*
X125622090Y-66707956D01*
X125376824Y-66592980D01*
X125376819Y-66592978D01*
X125376814Y-66592976D01*
X125117442Y-66514942D01*
X125117428Y-66514939D01*
X125001791Y-66497921D01*
X124849439Y-66475500D01*
X124646369Y-66475500D01*
X124646364Y-66475500D01*
X124443844Y-66490323D01*
X124443831Y-66490325D01*
X124179453Y-66549217D01*
X124179446Y-66549220D01*
X123926439Y-66645987D01*
X123690226Y-66778557D01*
X123475822Y-66944112D01*
X123287822Y-67139109D01*
X123287816Y-67139116D01*
X123130202Y-67359419D01*
X123130199Y-67359424D01*
X123006350Y-67600309D01*
X123006343Y-67600327D01*
X122918884Y-67856685D01*
X122918881Y-67856699D01*
X122869681Y-68123068D01*
X122869680Y-68123075D01*
X122859787Y-68393763D01*
X121158500Y-68393763D01*
X121158500Y-64894500D01*
X121178185Y-64827461D01*
X121230989Y-64781706D01*
X121282500Y-64770500D01*
X131567138Y-64770500D01*
X131568841Y-64771000D01*
G37*
%TD.AperFunction*%
%TD*%
M02*
