M48
; DRILL file {KiCad 7.0.7} date Fri Feb 16 12:13:31 2024
; FORMAT={-:-/ absolute / inch / decimal}
; #@! TF.CreationDate,2024-02-16T12:13:31-06:00
; #@! TF.GenerationSoftware,Kicad,Pcbnew,7.0.7
; #@! TF.FileFunction,NonPlated,1,2,NPTH
FMAT,2
INCH
; #@! TA.AperFunction,NonPlated,NPTH,ComponentDrill
T1C0.0354
; #@! TA.AperFunction,NonPlated,NPTH,ComponentDrill
T2C0.1260
%
G90
G05
T1
X5.4034Y-4.36
X5.5766Y-4.36
T2
X4.91Y-2.69
X4.91Y-4.41
X7.29Y-2.69
X7.3Y-4.41
T0
M30
